<svg width="150" height="126" viewBox="0 0 150 126" fill="none" xmlns="http://www.w3.org/2000/svg">
<path d="M47.3201 16.8276C43.5908 19.4803 39.4472 22.2158 38.0384 26.8579C36.3809 32.0803 37.4582 35.8105 41.6019 39.375C42.182 39.8724 42.9279 39.0434 42.3477 38.5461C37.9555 34.8158 37.3754 30.4224 39.9444 25.3658C41.6019 22.05 45.0826 19.8947 47.9831 17.8224C48.4803 17.325 47.9002 16.3303 47.3201 16.8276Z" fill="#EAC7C7"/>
<path d="M83.7843 23.8737C81.6296 24.454 79.3092 24.3711 77.2374 25.2C76.5744 25.4487 76.9059 26.6092 77.5689 26.2777C79.6407 25.3658 81.9611 25.5316 84.1158 24.9514C84.7788 24.7027 84.4473 23.625 83.7843 23.8737Z" fill="#EAC7C7"/>
<path d="M47.5694 17.6566C46.1605 18.8171 44.9174 20.2263 43.3428 21.1382C42.1826 21.8013 40.9395 21.9671 39.8622 22.879C39.2821 23.3763 40.1108 24.1224 40.6909 23.625C41.8511 22.6303 43.5915 22.3816 44.8346 21.4698C46.0777 20.5579 47.155 19.3974 48.3981 18.4027C48.9782 17.9882 48.1495 17.2421 47.5694 17.6566Z" fill="#EAC7C7"/>
<path d="M47.7352 19.8948C47.9838 20.5579 49.0612 20.2263 48.8126 19.5632C48.564 18.8171 47.4866 19.1487 47.7352 19.8948Z" fill="#EAC7C7"/>
<path d="M44.0054 23.3763C43.011 23.625 42.0165 23.9566 41.022 24.4539C40.2761 24.7855 39.0331 25.3658 38.7844 26.1118C38.7016 26.4434 38.9502 26.8579 39.3645 26.775C39.6132 26.775 39.7789 26.6092 40.0275 26.5263C40.7734 26.3605 40.4419 25.2829 39.696 25.4487C39.6132 25.4487 39.1159 25.6145 39.3645 25.6145C39.5303 25.8632 39.7789 26.1118 39.9447 26.2776C40.0275 26.029 41.4364 25.4487 41.685 25.2829C42.5137 24.8684 43.4253 24.5368 44.3369 24.3711C45.0828 24.2882 44.7513 23.2105 44.0054 23.3763Z" fill="#EAC7C7"/>
<path d="M43.0112 25.5316C41.1051 26.1947 39.5305 27.4382 37.9559 28.6816C37.3758 29.179 38.2046 29.925 38.7847 29.4276C40.1935 28.2671 41.6023 27.1066 43.3427 26.5263C44.0885 26.3605 43.757 25.2829 43.0112 25.5316Z" fill="#EAC7C7"/>
<path d="M43.7568 27.1066C42.0165 27.6039 40.2762 28.2671 38.9502 29.6763C38.453 30.1737 39.2817 31.0026 39.7789 30.4224C40.9391 29.2618 42.5137 28.6816 44.0883 28.1842C44.7513 28.0184 44.4198 26.9408 43.7568 27.1066Z" fill="#EAC7C7"/>
<path d="M44.5852 28.1013C42.6791 29.0961 40.4416 30.0908 38.7012 31.5C38.1211 31.9145 38.7012 32.9092 39.2813 32.4948C41.0217 31.1684 43.1764 30.1737 45.1653 29.0961C45.8283 28.7645 45.1653 27.7698 44.5852 28.1013Z" fill="#EAC7C7"/>
<path d="M43.757 30.5053C41.9338 31.5 39.3648 32.2461 38.2874 34.2355C37.9559 34.8987 38.9504 35.3961 39.2819 34.7329C40.1935 33.075 42.6797 32.2461 44.3371 31.4171C45.0001 31.0855 44.42 30.1737 43.757 30.5053Z" fill="#EAC7C7"/>
<path d="M43.9225 33.4066C43.0109 33.904 42.1822 34.3184 41.2706 34.8158C40.6905 35.1474 39.8618 35.5619 39.7789 36.3079C39.6131 37.054 40.7734 37.3027 40.8562 36.5566C40.9391 36.1421 41.9336 35.7277 42.2651 35.5619C43.0109 35.1474 43.7568 34.8158 44.5026 34.4013C45.1656 33.9869 44.5855 33.075 43.9225 33.4066Z" fill="#EAC7C7"/>
<path d="M45.9118 34.4013C46.1604 35.0645 47.2378 34.7329 46.9892 34.0698C46.8234 33.4066 45.7461 33.6553 45.9118 34.4013Z" fill="#EAC7C7"/>
<path d="M31.8227 45.9237C30.4138 46.3382 29.005 46.8355 27.8448 47.6645C27.2647 48.079 27.8448 49.0737 28.4249 48.6592C29.5851 47.9132 30.8282 47.4987 32.1542 47.0013C32.9 46.7527 32.5685 45.675 31.8227 45.9237Z" fill="#EAC7C7"/>
<path d="M30.4143 48.5764C29.0055 49.1566 27.6795 49.9027 26.3536 50.7316C25.7735 51.1461 26.3536 52.0579 26.9337 51.7264C28.0939 50.9803 29.337 50.2343 30.663 49.654C31.4088 49.4053 31.0773 48.3277 30.4143 48.5764Z" fill="#EAC7C7"/>
<path d="M31.0778 48.9908C29.5032 50.2342 27.68 51.3947 26.1054 52.6382C25.8568 52.8868 25.6911 53.3013 26.0225 53.55C26.1054 53.6329 26.1054 53.6329 26.1883 53.7158C26.354 53.8816 26.6855 53.9645 26.8513 53.7987C27.017 53.7158 27.0999 53.55 27.2656 53.3842C27.8458 52.9697 27.2656 51.975 26.6855 52.3895C26.5198 52.4724 26.4369 52.6382 26.2712 52.8039C26.5198 52.8039 26.7684 52.8868 26.9342 52.8868C26.8513 52.8039 26.8513 52.8039 26.7684 52.721C26.7684 53.0526 26.6855 53.3013 26.6855 53.6329C28.2601 52.3066 30.0833 51.2289 31.6579 49.9855C32.238 49.4881 31.6579 48.4934 31.0778 48.9908Z" fill="#EAC7C7"/>
<path d="M31.0773 51.229C29.2541 52.7211 27.0994 53.7987 25.2762 55.2908C24.6961 55.7882 25.5249 56.5342 26.105 56.0369C27.8453 54.5447 29.9171 53.6329 31.6575 52.1408C32.2376 51.7263 31.6575 50.8145 31.0773 51.229Z" fill="#EAC7C7"/>
<path d="M29.8342 55.2908C29.0054 55.5395 28.2596 55.8711 27.5137 56.2027C26.8507 56.4514 27.1822 57.529 27.8452 57.2803C28.5911 56.9487 29.4198 56.7 30.1657 56.3685C30.9115 56.1198 30.58 55.0421 29.8342 55.2908Z" fill="#EAC7C7"/>
<path d="M32.1542 56.7C32.4028 57.3632 33.4801 57.0316 33.2315 56.3684C32.9829 55.7053 31.9055 56.0369 32.1542 56.7Z" fill="#EAC7C7"/>
<path d="M34.0604 58.6066C34.309 59.2697 35.3864 58.9382 35.1378 58.275C34.8891 57.6119 33.8118 57.8605 34.0604 58.6066Z" fill="#EAC7C7"/>
<path d="M33.8952 60.2645C34.1438 60.9276 35.2212 60.5961 34.9726 59.9329C34.8068 59.2697 33.7295 59.6013 33.8952 60.2645Z" fill="#EAC7C7"/>
<path d="M35.5524 60.9276C35.9667 61.0105 36.2982 61.2592 36.5468 61.5908C36.6297 61.3421 36.6297 61.0934 36.7126 60.8448C34.7236 61.8395 32.5689 62.4197 30.4971 63.1658C29.8341 63.4145 30.1656 64.4921 30.8286 64.2434C32.9833 63.4145 35.2209 62.8342 37.2927 61.8395C37.5413 61.6737 37.6242 61.2592 37.4585 61.0934C37.0441 60.4303 36.464 60.1816 35.801 59.9329C35.138 59.6013 34.8894 60.679 35.5524 60.9276Z" fill="#EAC7C7"/>
<path d="M31.5748 59.6842C30.9118 59.85 30.3317 60.0987 29.7516 60.3474C29.0886 60.5961 28.5085 61.0106 27.8455 61.2592C28.0941 61.3421 28.2599 61.425 28.5085 61.5079C28.5085 61.6737 28.5085 61.9224 28.5085 62.0882C28.5914 61.8395 28.7571 61.5908 28.7571 61.3421C28.7571 60.5961 27.6798 60.679 27.5969 61.3421C27.5969 61.6737 27.3483 61.7566 27.514 62.1711C27.5969 62.4198 27.9284 62.5027 28.177 62.4198C28.7571 62.1711 29.2543 61.8395 29.8344 61.5908C30.4974 61.2592 31.2433 61.0106 31.9063 60.8448C32.5693 60.5132 32.3206 59.4356 31.5748 59.6842Z" fill="#EAC7C7"/>
<path d="M33.7292 56.9487C33.9778 57.6118 35.0552 57.2803 34.8065 56.6171C34.6408 55.9539 33.5634 56.2855 33.7292 56.9487Z" fill="#EAC7C7"/>
<path d="M31.1602 56.9487C29.5027 57.446 27.7624 57.9434 26.3536 59.021C25.7735 59.4355 26.3536 60.4303 26.9337 60.0158C28.1768 58.9382 29.9171 58.5237 31.4088 58.0263C32.2376 57.8605 31.9061 56.7829 31.1602 56.9487Z" fill="#EAC7C7"/>
<path d="M36.6302 62.4197C35.6357 63 34.5584 63.5803 33.8125 64.4921C33.3153 65.0724 34.144 65.8184 34.6412 65.2382C35.3871 64.4092 36.2987 63.829 37.2103 63.3316C37.8733 63.0829 37.2932 62.0882 36.6302 62.4197Z" fill="#EAC7C7"/>
<path d="M38.6193 63.5803C37.7906 63.9118 36.9619 64.4092 36.2989 64.9066C35.7188 65.3211 36.2989 66.3158 36.879 65.9013C37.542 65.404 38.205 64.9895 38.9508 64.6579C39.6138 64.4092 39.2823 63.3316 38.6193 63.5803Z" fill="#EAC7C7"/>
<path d="M39.7788 64.4092C39.1158 64.7408 38.5357 64.9895 37.9556 65.4039C37.4583 65.7355 36.8782 66.0671 36.9611 66.7303C37.1268 67.4763 38.2042 67.1447 38.0384 66.3987C38.1213 66.6474 37.9556 66.8132 38.0384 66.6474C38.1213 66.5645 38.1213 66.5645 38.2042 66.4816C38.4528 66.3158 38.7014 66.15 38.95 66.0671C39.4473 65.8184 39.8616 65.5697 40.3589 65.321C41.1047 64.9895 40.4418 64.0776 39.7788 64.4092Z" fill="#EAC7C7"/>
<path d="M43.2596 64.4092C42.2651 64.9066 41.2707 65.3211 40.2762 65.9013C39.6961 66.2329 38.3701 66.8961 38.3701 67.725C38.3701 67.9737 38.6187 68.3053 38.9502 68.3053C39.116 68.3053 39.1988 68.2224 39.3646 68.1395C40.0276 67.8908 39.6961 66.8132 39.0331 67.0619C38.9502 67.0619 38.6187 67.1448 38.9502 67.1448C39.116 67.3106 39.3646 67.4763 39.5303 67.725C39.5303 67.6421 41.2707 66.7303 41.4364 66.5645C42.1823 66.15 43.011 65.8185 43.8397 65.404C44.5027 65.0724 43.9226 64.1606 43.2596 64.4092Z" fill="#EAC7C7"/>
<path d="M45.9114 65.2382C44.7511 65.8184 43.508 66.0671 42.265 66.5645C41.4362 66.8961 40.276 67.2276 39.8616 68.0566C39.5301 68.7197 40.5246 69.2171 40.8561 68.5539C41.1876 67.8079 43.0108 67.4763 43.6738 67.2276C44.5854 66.896 45.5799 66.6474 46.4915 66.2329C47.1545 65.9013 46.4915 64.9895 45.9114 65.2382Z" fill="#EAC7C7"/>
<path d="M46.3264 66.4816C44.5861 67.5592 42.7628 68.6368 41.0225 69.7145C41.1883 70.0461 41.4369 70.3776 41.6026 70.7092C41.7684 70.5434 41.9341 70.4605 42.0999 70.3776C42.68 69.9632 42.0999 68.9684 41.5198 69.3829C41.354 69.4658 41.1883 69.6316 41.0225 69.7145C40.4424 70.129 41.0225 71.0408 41.6026 70.7092C43.4258 69.7145 45.1662 68.554 46.9065 67.4763C47.5695 67.0618 46.9065 66.0671 46.3264 66.4816Z" fill="#EAC7C7"/>
<path d="M46.823 67.3934C45.7456 68.1395 44.6683 68.8026 43.5909 69.5487C43.2595 69.7974 42.8451 70.046 42.5136 70.2947C42.3479 70.3776 41.7677 70.875 41.8506 70.875C42.0164 71.0408 42.265 71.2066 42.4307 71.4552V71.3724C42.3479 70.6263 41.2705 70.7092 41.2705 71.3724V71.4552C41.2705 71.7868 41.5191 72.0355 41.8506 72.0355C42.4307 71.9526 42.928 71.3724 43.4252 71.0408C44.7512 70.1289 46.0771 69.3 47.4031 68.3881C48.0661 67.8908 47.486 66.9789 46.823 67.3934Z" fill="#EAC7C7"/>
<path d="M46.6571 69.4658C45.3311 70.6264 43.8394 71.704 42.4306 72.6987C42.5963 73.0303 42.845 73.3619 43.0107 73.6935C43.0936 73.6935 43.1764 73.6106 43.1764 73.6106C43.8394 73.3619 43.5079 72.2842 42.8449 72.5329C42.6792 72.6158 42.5135 72.6158 42.3477 72.7816C41.7676 73.1961 42.3477 74.1908 42.9278 73.7764C44.5024 72.6987 45.9941 71.5382 47.403 70.2948C48.0659 69.7974 47.2372 69.0514 46.6571 69.4658Z" fill="#EAC7C7"/>
<path d="M46.2433 71.704C45.166 72.45 44.0057 73.0303 43.177 74.1079C42.9284 74.5224 43.4256 75.1027 43.84 74.9369C44.0057 74.854 44.1715 74.7711 44.2544 74.6882C44.8345 74.2737 44.2544 73.279 43.6742 73.6935C43.6742 73.6935 43.3427 73.8593 43.5085 73.8593C43.7571 74.1079 43.9229 74.3566 44.1715 74.6882C44.7516 73.7764 45.9947 73.3619 46.8234 72.6987C47.4035 72.2843 46.8234 71.2895 46.2433 71.704Z" fill="#EAC7C7"/>
<path d="M46.6576 73.8592C46.0775 74.1079 45.5803 74.4395 45.0831 74.854C44.503 75.2684 45.0831 76.2632 45.6632 75.8487C46.1604 75.5171 46.6576 75.1855 47.2378 74.854C47.9007 74.5224 47.3206 73.5276 46.6576 73.8592Z" fill="#EAC7C7"/>
<path d="M47.8174 74.854C46.9887 75.4342 46.077 75.9316 45.4141 76.6776C44.9168 77.175 45.7456 78.004 46.2428 77.4237C46.9058 76.7605 47.7345 76.2632 48.4804 75.7658C49.0605 75.3513 48.3975 74.4395 47.8174 74.854Z" fill="#EAC7C7"/>
<path d="M48.729 77.0092C48.2317 77.2579 47.8173 77.5066 47.3201 77.7553C46.6571 78.0868 47.2372 79.0816 47.9002 78.75C48.3975 78.5013 48.8118 78.2526 49.3091 78.0039C49.972 77.5895 49.3091 76.6776 48.729 77.0092Z" fill="#EAC7C7"/>
<path d="M50.6356 77.8382C50.8842 78.5014 51.9616 78.1698 51.713 77.5066C51.4644 76.8435 50.387 77.175 50.6356 77.8382Z" fill="#EAC7C7"/>
<path d="M80.6355 25.5316C79.4752 25.6974 78.315 25.9461 77.1548 26.1947C76.4089 26.3605 76.7404 27.4382 77.4863 27.2724C78.6465 27.0237 79.8067 26.8579 80.967 26.6092C81.7128 26.5263 81.3813 25.4487 80.6355 25.5316Z" fill="#EAC7C7"/>
<path d="M80.8845 27.4382C81.1331 28.1014 82.2104 27.7698 81.9618 27.1066C81.7961 26.3606 80.7187 26.6922 80.8845 27.4382Z" fill="#EAC7C7"/>
<path d="M78.9775 29.179C79.2261 29.8421 80.3035 29.5105 80.0549 28.8474C79.8062 28.1842 78.8118 28.5158 78.9775 29.179Z" fill="#EAC7C7"/>
<path d="M78.9776 26.9408C78.729 27.0237 78.3975 27.1066 78.1489 27.1066C77.403 27.1895 77.4859 28.2671 78.1489 28.2671C78.5633 28.2671 78.8947 28.1842 79.3091 28.0184C79.9721 27.8526 79.6406 26.6921 78.9776 26.9408Z" fill="#EAC7C7"/>
<path d="M97.2934 91.0185C101.437 96.8211 109.476 91.4329 113.039 87.7027C115.443 85.1329 117.017 81.8171 116.934 78.3356C116.851 76.6777 116.106 75.2685 115.277 73.9421C113.702 71.704 119.172 69.9632 120.829 68.9685C130.111 63.2487 132.929 47.25 126.548 38.5461C124.061 35.2303 119.172 32.2461 114.863 33.2408C108.896 34.65 104.669 40.1211 101.934 45.3434C102.266 45.5092 102.597 45.5921 103.012 45.7579C104.918 37.7171 101.023 29.0132 94.1443 24.5369C91.2437 22.6303 87.763 22.7961 84.6967 24.1224C83.205 24.7855 81.7133 25.7803 80.4702 26.8579C79.3929 27.7698 78.2327 30.0079 77.984 27.1066C77.8183 25.6974 77.7354 25.5316 77.2382 24.1224C74.6691 16.6619 64.8072 11.3566 57.1829 12.6829C49.31 14.0092 42.8459 21.4698 44.1719 29.5934C44.3376 30.6711 46.9896 36.8053 45.415 37.4684C43.2603 38.2145 41.1056 38.8777 38.9509 39.6237C35.636 40.8671 33.1498 42.8566 31.6581 46.0895C28.426 53.0527 31.5752 61.1763 38.3708 64.1606C40.194 64.9895 42.2658 65.3211 44.2548 65.4869C45.0835 65.5698 45.9951 65.5698 46.8238 65.6527C48.8128 65.7356 47.7354 69.6316 47.4868 70.5435C46.7409 74.3566 49.3929 78.0869 51.7133 80.8224C58.1774 88.6145 68.4537 86.7908 76.9896 84.1382C76.7409 83.8895 76.5752 83.6408 76.3266 83.3092C70.9398 97.0698 58.3432 112.654 41.8514 110.25C41.1056 110.167 40.857 111.245 41.6028 111.328C54.0338 113.732 66.5476 107.763 75.2492 99.1421C76.6581 97.7329 81.9619 88.6974 84.3653 90.5211C86.0227 91.7645 88.1774 92.7592 90.2492 92.7592C96.3818 92.8421 101.023 88.7803 104.586 84.1382C105.001 83.5579 104.172 82.8119 103.758 83.3921C99.0338 89.6092 91.8238 94.5829 84.4481 89.1948C81.9619 87.3711 79.6415 91.9303 78.4813 93.4224C70.0282 104.447 56.2713 112.986 41.8514 110.25C41.7686 110.582 41.6857 110.996 41.6028 111.328C58.5918 113.815 71.6857 98.0645 77.3211 83.8066C77.4868 83.3921 77.1553 82.8119 76.6581 82.9777C68.6194 85.4645 60.2492 87.0395 53.4537 80.9053C51.3818 78.9987 49.8901 76.5119 48.8956 73.9421C48.0669 71.704 48.8128 69.6316 49.1443 67.3935C49.2271 66.5645 49.0614 64.9895 48.1498 64.6579C45.5807 63.7461 42.4316 64.1606 39.7796 63.4145C35.3045 62.0882 32.4868 58.5237 31.7409 54.0474C30.9951 49.4053 32.6526 44.5974 36.5476 41.9448C39.531 39.9553 43.426 39.2921 46.8238 38.0487C47.0724 37.9658 47.2382 37.7171 47.2382 37.4684C46.9067 33.8211 45.2492 30.5882 45.0006 26.9408C44.6691 21.0553 50.2216 15.9987 55.194 14.175C59.9177 12.3513 65.5531 14.4237 69.6967 16.8277C74.752 19.8948 76.2437 24.6198 77.2382 30.0908C77.3211 30.5053 77.9012 30.5882 78.2327 30.3395C83.4537 25.3658 89.089 21.8842 95.636 26.9408C100.94 31.0856 103.426 39.0434 101.934 45.4263C101.769 46.0895 102.68 46.4211 103.012 45.8408C105.664 40.7013 110.056 34.8158 116.271 34.2356C122.321 33.5724 127.211 39.8724 128.454 45.0948C129.945 51.229 128.122 57.6948 125.139 63C122.321 67.9737 116.769 68.554 113.371 72.6158C113.205 72.8645 113.205 73.1961 113.371 73.4448C122.238 82.1487 104.089 98.3961 98.4537 90.5211C97.8736 89.8579 96.8791 90.4382 97.2934 91.0185Z" fill="#EAC7C7"/>
<path d="M33.7297 42.0276C26.2711 46.3382 21.133 56.7829 30.3319 62.6684C32.6524 64.1605 34.5584 65.9842 36.796 67.4763C37.7905 68.1395 38.6192 68.4711 39.7794 68.8026C40.8568 69.1342 40.1938 69.8803 40.4424 70.5434C41.2711 72.7816 43.0115 74.1908 44.6689 75.9316C46.8236 78.0869 48.3153 80.325 50.9673 82.0658C55.7739 85.2987 56.6855 89.775 62.9839 89.6092C65.7187 89.5263 68.4535 88.6145 71.1054 87.7855C70.3595 88.0342 69.1165 90.9355 68.6192 91.5987C67.6247 92.8421 66.3816 93.9198 65.2214 94.9974C62.9838 96.9869 60.3319 98.8105 57.5142 100.054C55.691 100.8 53.785 101.629 51.796 101.795C50.7187 101.878 49.5584 101.463 48.564 101.878C45.7463 103.038 41.6855 106.354 41.8513 109.67C41.8513 110.416 43.0115 110.333 43.0115 109.67C42.9286 107.763 44.7518 106.105 45.9949 104.945C48.1496 102.789 50.3872 103.121 53.0391 102.872C55.5253 102.624 58.2601 101.214 60.4977 99.9711C65.3043 97.3184 71.1054 92.6763 72.5971 87.1224C72.68 86.7079 72.2656 86.2934 71.8513 86.4592C68.9507 87.3711 66.133 88.2 63.1496 88.5316C58.6745 89.029 57.8457 85.879 55.1109 83.5579C52.7905 81.5684 50.0557 80.2421 47.901 78.004C46.0778 76.0974 41.1054 71.2895 41.9341 68.6369C42.017 68.3882 41.7684 67.9737 41.5198 67.9737C38.2877 67.5592 36.7131 65.7355 34.3927 63.829C32.0722 61.9224 29.5032 61.2592 27.8457 58.4408C24.0336 52.0579 29.1717 46.1724 34.4756 43.1053C34.9728 42.6079 34.3098 41.6132 33.7297 42.0276Z" fill="#EAC7C7"/>
<path d="M80.9672 93.1737C83.702 94.0856 86.271 94.8316 89.0887 94.0027C90.5804 93.5882 92.0721 92.5935 93.481 92.0132C95.6357 91.1014 96.7959 93.3395 98.039 94.4171C101.022 96.9869 106.243 93.0908 107.652 90.604C107.984 89.9408 106.989 89.4435 106.658 90.1066C104.917 93.0908 100.359 95.5777 97.4589 92.2619C96.9616 91.6816 96.1329 90.5211 95.2213 90.604C94.0611 90.6869 93.0666 90.9356 91.9893 91.5158C88.0942 93.4224 85.3594 93.5882 81.2158 92.179C80.5528 91.8474 80.3042 92.925 80.9672 93.1737Z" fill="#EAC7C7"/>
<path d="M109.89 33.4066C107.156 33.904 104.587 35.3961 102.432 37.1369C101.852 37.5513 102.349 38.4632 103.012 38.1316C106.161 36.3079 109.642 35.1474 113.04 34.2355C113.703 34.0697 113.454 32.9921 112.708 33.1579C109.145 34.1526 105.581 35.3132 102.349 37.2198C102.515 37.5513 102.763 37.8829 102.929 38.2145C105.001 36.4737 107.404 35.0645 110.056 34.65C110.968 34.3184 110.636 33.2408 109.89 33.4066Z" fill="#EAC7C7"/>
<path d="M49.807 79.579C49.4755 79.8277 49.144 80.0763 48.8125 80.4079C48.3153 80.9882 49.144 81.7342 49.6412 81.154C49.8899 80.9053 50.0556 80.7395 50.3871 80.5737C51.0501 80.1592 50.47 79.2474 49.807 79.579Z" fill="#EAC7C7"/>
<path d="M52.3758 80.0764C52.6245 80.7395 53.7018 80.4079 53.4532 79.7448C53.2046 79.0816 52.1272 79.4132 52.3758 80.0764Z" fill="#EAC7C7"/>
<path d="M52.8735 80.9882C52.2105 81.4855 51.4646 81.9829 50.9674 82.5632C50.553 83.1434 51.2989 83.8895 51.7961 83.3092C52.2933 82.729 52.8735 82.3145 53.4536 81.9C54.0337 81.4855 53.3707 80.5737 52.8735 80.9882Z" fill="#EAC7C7"/>
<path d="M53.9511 81.6513C53.2881 81.9829 52.6251 82.3974 52.045 82.8119C51.4649 83.2263 52.045 84.2211 52.6251 83.8066C53.2052 83.3921 53.8682 82.9776 54.5312 82.6461C55.1942 82.3145 54.5312 81.3198 53.9511 81.6513Z" fill="#EAC7C7"/>
<path d="M55.1106 82.0658C54.199 82.5632 53.2045 82.9777 52.6244 83.8895C52.21 84.4698 53.2045 85.05 53.6189 84.3869C54.1161 83.7237 55.1106 83.3921 55.7736 82.9777C56.3537 82.6461 55.7736 81.7342 55.1106 82.0658Z" fill="#EAC7C7"/>
<path d="M56.686 82.8947C56.1887 83.2263 55.7743 83.5579 55.2771 83.9724C54.9456 84.2211 54.2826 84.7184 54.3655 85.2158C54.4484 85.9619 55.6086 85.879 55.5257 85.2158C55.5257 85.3816 55.4429 85.3816 55.5257 85.3816C55.6086 85.2987 55.6086 85.2987 55.6915 85.2158C55.8572 85.05 56.023 84.8842 56.2716 84.8013C56.6031 84.5526 57.0175 84.2211 57.4318 83.9724C57.9291 83.3921 57.2661 82.3974 56.686 82.8947Z" fill="#EAC7C7"/>
<path d="M56.768 84.2211C56.1878 84.7185 55.6077 85.133 55.1934 85.7132C54.6961 86.2935 55.5249 87.0395 56.0221 86.4593C56.5193 85.879 57.0994 85.4645 57.5967 84.9672C57.8453 84.8014 57.7624 84.3869 57.5967 84.1382C57.3481 83.9724 57.0166 84.0553 56.768 84.2211Z" fill="#EAC7C7"/>
<path d="M58.0119 85.1329C57.4318 85.4645 56.7688 85.8789 56.2715 86.2934C55.6914 86.7079 56.2715 87.7026 56.8516 87.2882C57.4317 86.8737 58.0119 86.4592 58.592 86.1276C59.2549 85.7132 58.6748 84.7184 58.0119 85.1329Z" fill="#EAC7C7"/>
<path d="M60.415 85.5474C59.5034 86.0447 58.6746 86.7079 57.9288 87.2882C57.3487 87.7027 57.9288 88.6974 58.5089 88.2829C59.3376 87.6198 60.1663 87.0395 60.9951 86.5421C61.6581 86.1276 61.0779 85.1329 60.415 85.5474Z" fill="#EAC7C7"/>
<path d="M62.7348 86.2105C61.9061 86.625 58.2596 88.3658 59.337 89.6921C59.8342 90.2724 60.5801 89.4434 60.0829 88.8632C60.3315 89.1947 60.0829 89.4434 60.2486 89.1947C60.3315 89.1118 60.4972 88.946 60.5801 88.8632C60.9116 88.6145 61.2431 88.3658 61.5746 88.1171C62.0718 87.7855 62.6519 87.4539 63.232 87.1224C63.9779 86.8737 63.3978 85.8789 62.7348 86.2105Z" fill="#EAC7C7"/>
<path d="M64.8896 86.3763C64.0608 87.0395 62.9835 87.454 62.4862 88.4487C62.2376 88.9461 62.8177 89.4434 63.315 89.1948C63.3978 89.1948 63.4807 89.1119 63.5636 89.1119C64.3094 88.9461 63.978 87.8684 63.2321 88.0342C63.0663 88.0342 62.9006 88.1171 62.7348 88.2C62.9835 88.4487 63.2321 88.6974 63.5636 88.9461C63.9779 88.1171 65.0553 87.7026 65.8012 87.1224C66.2984 86.7079 65.4697 85.9619 64.8896 86.3763Z" fill="#EAC7C7"/>
<path d="M67.5416 85.8789C66.63 86.625 65.304 87.2053 64.8068 88.3658C64.6411 88.6974 64.8897 89.2776 65.304 89.1947C66.0499 89.1118 66.63 88.7803 67.2101 88.2C67.7902 87.7026 66.9615 86.9566 66.3814 87.4539C66.0499 87.7026 65.7184 87.9513 65.304 88.0342C65.4698 88.2829 65.6355 88.6145 65.8013 88.8632C66.2156 87.8684 67.3759 87.371 68.1217 86.7908C68.7018 86.3763 68.1217 85.3816 67.5416 85.8789Z" fill="#EAC7C7"/>
<path d="M69.6968 86.0448C68.951 86.7908 68.0394 87.2882 67.2935 88.1172C66.962 88.4487 67.2106 89.1119 67.7079 89.029C68.1222 88.9461 68.4537 88.7803 68.7852 88.6145C69.3653 88.2001 68.7852 87.2882 68.2051 87.6198C68.0394 87.7027 67.8736 87.8685 67.7079 87.8685C67.8736 88.2001 67.9565 88.5316 68.1222 88.7803C68.8681 88.0343 69.7797 87.5369 70.5256 86.7079C71.0228 86.2935 70.1941 85.5474 69.6968 86.0448Z" fill="#EAC7C7"/>
<path d="M71.9337 85.5474C71.3536 85.9618 70.6906 86.2934 70.1105 86.7079C69.6133 87.0395 68.9503 87.5368 69.3647 88.2C69.6962 88.8632 70.6906 88.2 70.3591 87.6197C70.6078 88.0342 70.1934 88.1171 70.6078 87.8684C70.8564 87.7026 71.105 87.5368 71.2707 87.3711C71.6851 87.1224 72.0995 86.7908 72.5967 86.5421C73.1768 86.1276 72.5138 85.1329 71.9337 85.5474Z" fill="#EAC7C7"/>
<path d="M74.1719 86.2105C72.5145 87.1224 70.7741 87.7026 69.3653 89.0289C68.9509 89.4434 69.4482 90.1066 69.9454 89.9408C70.194 89.8579 70.4426 89.775 70.6084 89.6921C71.2714 89.4434 70.9399 88.3658 70.2769 88.6145C70.0283 88.6974 69.7797 88.7803 69.6139 88.8632C69.7797 89.1947 70.0283 89.4434 70.194 89.775C71.52 88.6145 73.2603 88.0342 74.752 87.2053C75.415 86.7908 74.752 85.7961 74.1719 86.2105Z" fill="#EAC7C7"/>
<path d="M73.6742 88.2C72.0996 89.1119 70.4421 89.9408 68.8676 90.8527C68.2046 91.1842 68.8676 92.179 69.4477 91.8474C71.0223 90.9356 72.6797 90.1066 74.2543 89.1948C74.8344 88.7803 74.2543 87.7856 73.6742 88.2Z" fill="#EAC7C7"/>
<path d="M71.768 90.9355C70.4421 91.6816 69.0332 92.0961 67.5415 92.4276C66.7957 92.5934 67.1272 93.6711 67.873 93.5053C69.4476 93.1737 70.9393 92.6763 72.3481 91.9303C73.0111 91.5158 72.3481 90.604 71.768 90.9355Z" fill="#EAC7C7"/>
<path d="M69.1988 93.5882C67.4585 94.0026 65.7182 94.4171 63.895 94.5829C63.1491 94.6658 63.232 95.8263 63.895 95.7434C65.8011 95.4947 67.6243 95.0803 69.4475 94.6658C70.2762 94.5829 69.9447 93.5053 69.1988 93.5882Z" fill="#EAC7C7"/>
<path d="M67.2934 95.5776C65.3044 95.9921 63.2326 96.4066 61.2437 96.8211C60.4978 96.904 60.8293 98.0645 61.5752 97.8987C63.5641 97.5671 65.6359 97.1526 67.6249 96.6553C68.3707 96.4895 68.0392 95.4119 67.2934 95.5776Z" fill="#EAC7C7"/>
<path d="M66.7963 97.4843C64.5587 97.1527 62.2383 98.2303 60.0007 97.8158C59.2549 97.65 59.0062 98.8106 59.7521 98.8935C61.9897 99.3079 64.2272 98.2303 66.5477 98.5619C67.2935 98.7277 67.5422 97.65 66.7963 97.4843Z" fill="#EAC7C7"/>
<path d="M63.8129 99.4737C62.7355 99.4737 61.5753 99.5566 60.4979 99.5566C59.7521 99.5566 58.1775 99.3079 57.5145 99.8882C56.9344 100.386 57.7631 101.132 58.3433 100.634C57.9289 100.966 58.6747 100.717 59.0062 100.717C59.6692 100.717 60.3322 100.634 60.9952 100.634C61.9897 100.634 62.9013 100.634 63.8957 100.551C64.5587 100.634 64.5587 99.4737 63.8129 99.4737Z" fill="#EAC7C7"/>
<path d="M61.9064 101.795C60.5804 101.712 59.1716 101.546 57.8456 101.546C56.7683 101.546 55.028 101.463 54.1992 102.375C53.702 102.955 54.5307 103.701 55.028 103.121C55.6909 102.375 57.597 102.624 58.5086 102.624C59.6688 102.624 60.8291 102.789 61.9064 102.872C62.6523 103.038 62.5694 101.878 61.9064 101.795Z" fill="#EAC7C7"/>
<path d="M58.8399 103.784C56.188 103.204 53.6189 101.878 50.8012 102.209C50.0554 102.292 50.1382 103.453 50.8012 103.37C53.536 103.038 56.0222 104.365 58.5913 104.945C59.3371 105.028 59.5858 103.95 58.8399 103.784Z" fill="#EAC7C7"/>
<path d="M55.3598 105.442C54.1167 105.359 52.8736 105.193 51.7134 104.779C50.5532 104.364 49.6416 103.618 48.5642 103.038C47.9012 102.707 47.404 103.701 48.067 104.033C49.1443 104.613 49.9731 105.359 51.1333 105.774C52.5421 106.271 53.951 106.437 55.4427 106.603C56.1057 106.686 56.1057 105.525 55.3598 105.442Z" fill="#EAC7C7"/>
<path d="M53.5363 106.934C51.2987 105.857 48.8125 104.116 46.1606 104.447C45.4148 104.53 45.4976 105.691 46.1606 105.608C48.5639 105.359 50.8844 107.017 52.9562 108.012C53.6192 108.261 54.1993 107.266 53.5363 106.934Z" fill="#EAC7C7"/>
<path d="M48.9787 108.343C47.487 107.763 45.9952 107.1 44.5864 106.271C44.2549 106.105 43.8405 106.271 43.7577 106.603C43.7577 106.768 43.6748 106.934 43.6748 107.1C43.6748 107.846 44.7521 107.763 44.835 107.1C44.835 107.017 44.835 107.017 44.835 106.934C44.5864 107.017 44.2549 107.183 44.0063 107.266C45.498 108.178 47.0726 108.841 48.73 109.421C49.393 109.67 49.6416 108.592 48.9787 108.343Z" fill="#EAC7C7"/>
<path d="M45.6632 109.338C44.503 108.924 43.2599 108.675 42.2654 108.012C41.6024 107.68 41.1052 108.675 41.7682 109.007C42.9284 109.67 44.2543 110.001 45.4974 110.416C46.0775 110.665 46.3262 109.504 45.6632 109.338Z" fill="#EAC7C7"/>
<path d="M87.4318 91.5987C86.6031 92.179 85.4429 92.6764 84.9456 93.6711C84.6141 94.3342 85.6086 94.8316 85.9401 94.1685C86.2716 93.4224 87.3489 93.0079 88.0119 92.5106C88.6749 92.179 88.0948 91.1843 87.4318 91.5987Z" fill="#EAC7C7"/>
<path d="M85.7741 91.2671C85.0282 91.7645 84.3652 92.3447 83.5365 92.7592C82.8735 93.0908 83.5365 94.0855 84.1166 93.7539C84.8625 93.3395 85.6083 92.7592 86.3542 92.2618C86.9343 91.8474 86.3542 90.8526 85.7741 91.2671Z" fill="#EAC7C7"/>
<path d="M83.8673 90.4382C83.2872 90.7697 82.6242 91.1842 82.127 91.5987C81.5469 92.0132 82.127 93.0079 82.7071 92.5934C83.2872 92.179 83.8673 91.7645 84.4474 91.4329C85.1104 91.0184 84.5303 90.1066 83.8673 90.4382Z" fill="#EAC7C7"/>
<path d="M82.7908 89.9408C82.1278 90.3553 81.4648 90.7697 80.8018 91.1842C80.2217 91.5987 80.8018 92.5105 81.3819 92.179C82.0449 91.7645 82.7079 91.2671 83.3709 90.9355C84.0338 90.5211 83.4537 89.6092 82.7908 89.9408Z" fill="#EAC7C7"/>
<path d="M108.647 35.6448C107.072 36.225 104.586 38.5461 103.011 37.4685C102.431 37.054 101.851 38.0487 102.514 38.4632C104.669 39.8724 107.072 37.5514 109.061 36.7224C109.641 36.4737 109.393 35.3961 108.647 35.6448Z" fill="#EAC7C7"/>
<path d="M106.575 37.3855C106.244 37.6342 105.912 37.8829 105.581 38.1316C105.415 38.2145 104.669 38.7118 104.503 38.629C104.006 38.3803 103.675 38.3803 103.178 38.629C102.515 38.9605 103.095 39.8724 103.758 39.6237C103.923 39.5408 104.089 39.7066 104.255 39.7066C104.586 39.7895 104.918 39.6237 105.166 39.5408C105.912 39.2921 106.575 38.7947 107.155 38.2974C107.736 37.9658 107.155 36.9711 106.575 37.3855Z" fill="#EAC7C7"/>
<path d="M104.338 40.2869C103.757 40.4527 103.177 40.6185 102.597 40.7013C101.851 40.8671 102.183 41.9448 102.929 41.779C103.509 41.6961 104.089 41.4474 104.669 41.3645C105.415 41.1987 105.083 40.1211 104.338 40.2869Z" fill="#EAC7C7"/>
<path d="M97.6243 92.4277C98.0386 91.6816 98.6187 91.2671 99.2817 90.7698C99.8618 90.3553 99.2817 89.3606 98.7016 89.775C97.8729 90.3553 97.2099 90.9356 96.7127 91.8474C96.2983 92.5935 97.2928 93.0908 97.6243 92.4277Z" fill="#EAC7C7"/>
<path d="M98.3709 93.3395C98.951 92.925 99.4483 92.2619 100.194 92.0132C100.857 91.8474 100.608 90.7698 99.8626 90.9356C99.0339 91.1842 98.4538 91.9303 97.7908 92.3448C97.1278 92.7592 97.7079 93.754 98.3709 93.3395Z" fill="#EAC7C7"/>
<path d="M100.36 94.7487C101.023 94.1684 101.603 93.671 102.183 93.0908C102.68 92.5934 101.852 91.7645 101.354 92.3447C100.774 92.925 100.194 93.5053 99.5311 94.0026C98.951 94.4171 99.7797 95.1632 100.36 94.7487Z" fill="#EAC7C7"/>
<path d="M99.6139 93.5882C99.9454 93.0908 100.277 92.6763 100.525 92.179C100.774 91.5158 99.7796 90.9356 99.531 91.6816C99.3653 92.0961 99.1166 92.5106 98.7852 92.925C98.2879 93.3395 99.1166 94.1684 99.6139 93.5882Z" fill="#EAC7C7"/>
<path fill-rule="evenodd" clip-rule="evenodd" d="M99.8622 56.4513C99.6136 56.4513 99.6136 56.2856 99.3649 56.3685C99.1992 56.8658 99.2821 57.6119 98.8677 57.9435C98.2047 57.8606 98.4533 57.529 98.4533 56.9487C96.4644 56.7829 94.2268 56.6171 92.2379 56.9487C92.155 57.2803 92.4036 58.6066 91.9064 58.9382C90.7462 58.7724 91.492 57.1145 91.3263 56.2027C91.0776 54.7935 90.0832 54.2961 89.5859 53.1356C92.0721 52.804 95.5528 54.7935 97.7904 53.4671C98.2876 53.6329 98.702 53.8816 98.8677 54.379C99.3649 54.2961 99.0334 53.55 99.7793 53.7158C99.945 54.7106 99.5307 55.5395 99.8622 56.4513ZM98.039 54.5448C95.7185 54.8764 94.0611 53.8816 92.155 54.1303C91.9892 54.6277 91.9064 55.7053 92.0721 56.1198C93.1495 56.3685 93.1495 55.5395 93.7296 55.2908C95.5528 55.0421 96.7959 55.8711 98.702 55.954C98.702 55.2908 98.2047 55.0421 98.039 54.5448Z" fill="#EAC7C7"/>
<path fill-rule="evenodd" clip-rule="evenodd" d="M91.1599 45.8408C88.508 49.4882 85.3588 52.5553 82.0439 55.4566C81.8781 56.3685 81.961 57.529 81.2152 57.9435C80.0549 58.0264 79.1433 57.6948 78.729 56.9487C76.4085 57.0316 74.0052 57.1145 72.3478 56.8658C71.9334 56.3685 72.0991 55.8711 72.0991 55.2908C74.0052 55.6224 75.9113 55.2908 78.066 55.6224C78.6461 55.3737 78.8119 54.7106 79.4748 54.5448C79.8892 54.5448 79.8892 54.8764 79.9721 55.2079C80.3036 55.2079 80.2207 54.7935 80.2207 54.4619C83.95 51.8922 86.6019 48.2448 89.7511 45.0948C89.9997 45.3435 89.8339 45.8408 89.7511 46.1724C90.2483 46.0895 90.6627 45.5093 91.1599 45.8408ZM79.9721 55.8711C79.8892 56.0369 79.6406 57.1145 80.1378 57.0316C80.2207 57.1145 80.8008 56.7001 81.0494 56.4514C80.8008 56.1198 80.6351 55.7882 79.9721 55.8711Z" fill="#EAC7C7"/>
<path fill-rule="evenodd" clip-rule="evenodd" d="M82.2929 67.3106C82.4586 68.0566 81.6299 67.8908 81.2984 68.1395C80.8012 70.958 81.1327 73.1961 80.884 76.0974C79.8067 76.1803 79.7238 75.1856 78.8951 74.9369C78.2321 74.9369 77.5691 75.4343 77.2376 75.0198C77.1547 74.5224 77.8177 74.6882 77.9006 74.1908C77.7349 72.7816 78.2321 70.7922 78.0664 68.9685C77.9006 67.808 77.3205 67.0619 77.2376 66.233C78.8951 65.9014 80.6354 67.4764 82.2929 67.3106ZM78.6465 67.2277C78.6465 69.3001 78.4807 71.5382 78.3978 74.108C79.3923 74.0251 79.6409 74.854 80.3868 75.1027C80.3868 72.6987 80.1382 69.8803 80.5525 67.6422C79.8067 67.7251 79.4752 67.2277 78.6465 67.2277Z" fill="#EAC7C7"/>
<path fill-rule="evenodd" clip-rule="evenodd" d="M80.8008 49.0737C79.8063 48.7421 78.5632 48.6592 77.8174 48.079C78.1489 45.0119 78.5632 41.4474 78.066 38.5461C79.2262 38.629 80.3864 38.7119 81.2152 39.2092C80.4693 42.3592 81.1323 46.0895 80.8008 49.0737ZM78.9776 39.375C79.0605 41.9448 77.9831 45.4264 78.8947 47.9961C79.5577 47.9132 79.7235 48.2448 80.3036 48.2448C80.0549 45.1777 79.8063 42.525 80.4693 39.7895C80.2207 39.6237 79.6406 39.4579 78.9776 39.375Z" fill="#EAC7C7"/>
<path fill-rule="evenodd" clip-rule="evenodd" d="M71.022 53.3843C70.9391 53.7158 70.5248 53.7158 70.1104 53.7987C69.6961 55.125 70.1933 57.2803 69.6961 58.5237C68.5358 58.1922 69.1988 57.1145 69.1159 56.4514C66.3811 56.9487 62.569 57.529 59.5856 56.7001C59.5027 55.3737 58.8397 54.7106 58.7568 53.4671C62.7347 53.55 67.7071 53.3843 70.6905 53.0527C70.8563 53.1356 70.8563 53.3843 71.022 53.3843ZM69.1988 53.7158C66.1325 54.0474 63.232 54.2961 60.2485 54.0474C60.2485 54.4619 60.2485 55.2908 60.1657 56.0369C63.3148 56.7829 66.2154 56.4514 69.2817 55.7882C68.9502 55.2079 69.6132 54.2132 69.1988 53.7158Z" fill="#EAC7C7"/>
</svg>
