<svg width="122" height="108" viewBox="0 0 122 108" fill="none" xmlns="http://www.w3.org/2000/svg">
<path fill-rule="evenodd" clip-rule="evenodd" d="M75.694 28.6138C76.5702 30.3517 78.5249 31.1586 79.3337 32.8965C79.5359 32.8965 79.6708 32.8965 79.873 32.8965C79.873 33.2689 80.0752 33.3931 79.7382 33.5793C79.0641 32.9586 78.5923 32.2138 77.7161 31.7793C75.5592 29.4207 73.3348 27.062 70.8409 25.0138C70.9083 24.6414 70.4365 24.7655 70.5713 24.331C68.0774 22.7172 66.6619 20.1724 64.1006 18.6207C64.505 17.3172 65.9205 18.6207 66.1227 19.2414C67.2011 20.0483 68.0774 21.0414 68.7514 22.2207C69.2906 22.0965 69.021 22.5931 69.4929 22.4689C70.9757 24.7034 73.2 26.1931 74.8177 28.3034C75.1547 28.4276 75.2895 28.6758 75.694 28.6138Z" fill="#99BCB8"/>
<path fill-rule="evenodd" clip-rule="evenodd" d="M69.6279 35.9379C70.302 35.9379 70.3694 36.4345 70.5042 36.869C70.0998 36.6827 69.6953 36.3724 69.6279 35.9379Z" fill="#99BCB8"/>
<path fill-rule="evenodd" clip-rule="evenodd" d="M72.9309 50.3379C73.1332 50.4 73.0658 50.7103 73.4702 50.5862C73.5376 51.5793 72.7961 51.7034 72.5265 52.3241C72.4591 52.8207 73.268 52.4483 73.1332 52.9448C73.4702 53.131 73.4702 52.3241 73.6724 52.6965C74.2116 52.9448 74.2116 53.8138 74.0094 54.3724C73.6724 54.3724 73.4028 54.3724 73.268 54.4965C72.1221 55.7379 71.4481 57.2896 70.3022 58.469C70.5718 59.7724 71.1785 60.7034 70.9088 62.5034C70.0326 64.0552 68.4823 64.9862 65.8536 64.9241C65.7862 65.8552 65.5166 66.5379 64.5729 66.5379C64.5055 65.6069 65.1122 65.2965 65.247 64.5517C65.247 64.3034 64.7077 64.4896 64.5055 64.4276C63.8989 65.2345 63.5619 66.2276 63.0901 67.1586C62.8205 67.1586 62.5508 67.1586 62.3486 67.1586C62.416 65.7931 63.2249 65.2345 63.6293 64.2414C63.2249 63.1862 61.8094 62.1931 62.6182 60.7034C62.9553 60.5793 63.6293 60.4552 63.8989 60.7034C63.6293 61.5103 63.5619 62.3793 64.1011 62.9379C64.6403 62.9379 64.7077 62.5655 64.7752 62.131C65.921 60.7655 66.8647 59.1517 67.8757 57.6621C65.7862 55.4896 67.7409 52.0759 71.3807 52.5103C71.9199 51.8276 72.3917 51.0207 72.9309 50.3379ZM68.0105 55.2414C68.1453 55.6138 68.5497 55.6758 68.4149 56.2965C69.763 55.9241 69.9652 54.4965 70.6392 53.5034C69.1564 53.5655 68.6171 54.4345 68.0105 55.2414ZM69.2238 57.7862C69.5608 57.7241 69.4934 58.0345 69.8304 57.9103C70.3696 56.1724 71.8525 55.3034 72.5939 53.6896C72.2569 53.6276 71.9873 53.5034 71.5829 53.5655C71.0437 55.1793 69.426 55.8 69.2238 57.7862ZM65.1122 63.4965C65.584 63.5586 65.8536 63.4345 66.1232 63.3724C66.8647 61.9448 67.4039 60.4552 68.7519 59.5862C68.9542 58.9655 68.8868 58.5931 68.3475 58.2827C67.2691 60.0207 65.9884 61.5724 65.1122 63.4965ZM66.8647 63.7448C68.9542 63.8689 70.5718 61.6345 69.2238 59.9586C68.4149 61.2 67.4039 62.2552 66.8647 63.7448Z" fill="#99BCB8"/>
<path fill-rule="evenodd" clip-rule="evenodd" d="M89.9837 52.8827C90.0511 53.3172 90.1859 53.6896 89.9837 54.0621C88.0964 53.5034 86.4787 54.8689 85.7373 56.1724C87.7594 56.0483 89.6467 55.8 91.2644 55.3034C91.7362 55.3034 91.6014 55.8621 91.6688 56.2345C89.6467 56.4827 88.1638 57.2896 85.6025 57.1034C85.4003 57.2276 85.3329 57.4138 85.3329 57.6621C87.8942 58.4069 90.3207 56.4207 92.6799 56.5448C92.6799 57.1034 91.9384 56.9793 91.8036 57.3517C91.6014 57.4138 91.534 57.2276 91.534 57.1034C90.1859 58.0345 88.0964 58.3448 86.2765 58.8414C86.681 60.0827 89.3771 59.1517 90.523 59.2138C91.1296 58.7172 92.7473 58.6552 93.7583 58.9034C93.6909 59.1517 93.7583 59.2758 94.0279 59.2758C93.8257 59.4 93.7583 59.6483 93.6235 59.8345C90.5903 59.7724 86.2091 62.069 84.9285 59.1517C84.187 59.0276 83.4456 59.4621 82.9064 59.1517C82.839 58.1586 83.6478 58.2827 84.3218 58.2207C84.5241 57.8483 84.3892 57.6 84.0522 57.4138C83.4456 57.4758 83.3782 58.0965 82.502 57.8483C82.502 57.5379 82.502 57.2276 82.502 56.9172C83.0412 56.731 83.4456 56.3586 84.187 56.3586C85.3329 54.5586 86.7484 52.5103 89.9837 52.8827Z" fill="#99BCB8"/>
<path fill-rule="evenodd" clip-rule="evenodd" d="M95.0388 67.469C95.241 67.4069 95.241 67.5931 95.4432 67.5931C95.3758 68.0276 95.5106 68.6483 95.3084 68.8965C95.3084 69.1448 95.6454 68.7724 95.9824 68.8965C96.1846 68.4621 96.4542 68.1517 96.9935 68.0896C97.2631 68.5241 96.8587 68.6483 96.8587 69.1448C97.3305 69.269 97.6001 69.5172 97.8697 69.7655C97.6675 69.8896 97.5327 70.0758 97.3305 70.2621C96.9261 70.3241 97.1957 69.8276 96.7239 70.0138C96.3194 69.9517 96.5891 70.4483 96.0498 70.2621C95.8476 71.6276 94.9714 72.3724 94.7018 73.6758C94.8366 74.1724 95.7802 74.5448 95.9824 75.1034C96.7239 77.2138 95.1062 78.4552 92.4775 78.3931C92.0056 78.7034 91.8034 79.3862 91.3316 79.6965C91.2642 79.3862 91.1294 79.1379 91.1968 78.7655C90.8598 79.5724 90.725 80.5034 89.7813 80.6276C89.4443 79.7586 90.1858 79.0138 90.3206 78.269C90.1858 77.7724 89.6465 77.7103 89.7139 77.0896C90.1858 76.8414 90.4554 76.531 91.1294 76.531C91.3316 75.1655 91.8708 74.1724 92.4775 73.1172C91.5338 72.8069 90.9946 71.6896 91.4664 70.5103C92.5449 70.2 93.0841 69.5172 94.2973 69.331C94.3647 68.4621 94.904 68.0896 95.0388 67.469ZM93.6907 72.7448C94.8366 72.3724 94.7018 70.8207 95.241 69.9517C94.1625 70.2621 94.0277 71.6276 93.6907 72.7448ZM92.3427 71.4414C92.3427 71.6896 92.6797 71.6896 92.8819 71.8138C92.8819 71.3172 93.5559 71.3793 93.4211 70.7586C92.6797 70.6965 92.5449 71.069 92.3427 71.4414ZM91.6012 77.2138C92.1404 76.2207 93.4211 74.731 93.0167 73.6758C92.5449 74.8552 92.073 76.0345 91.6012 77.2138ZM92.6123 77.3379C93.6233 77.4 94.0951 76.9655 94.7692 76.7793C95.1736 75.8483 94.6344 74.7931 93.8929 74.5448C93.6233 75.5379 93.0167 76.3448 92.6123 77.3379Z" fill="#99BCB8"/>
<path fill-rule="evenodd" clip-rule="evenodd" d="M63.9659 74.731C63.3593 74.9172 62.3482 74.731 61.9438 74.3586C58.1018 74.1103 56.0797 75.6 54.8664 77.8345C56.4167 77.7724 58.7084 77.3379 60.1239 76.7172C61.4046 77.0896 62.3482 76.469 63.4267 77.2138C62.9548 77.7724 61.2697 77.7724 60.4609 77.8965C58.3714 78.269 55.7427 78.3931 54.3946 79.3862C54.3946 79.5103 54.6642 79.4483 54.6642 79.6345C56.0797 79.3241 59.7195 79.0138 61.3372 79.8207C59.7195 80.5655 56.6189 80.131 54.9338 80.4414C54.7316 81.7448 56.1471 81.6207 56.3493 82.5517C58.0344 83.1724 59.6521 83.731 62.2134 83.5448C63.0896 83.1103 64.5051 83.0483 65.651 83.2345C65.5836 83.4827 65.651 83.6069 65.9206 83.6069C65.8532 83.7931 65.5162 83.731 65.651 84.1034C65.2465 84.2896 64.3703 84.1034 64.2355 84.5379C61.5394 84.5379 58.7084 84.9724 56.6863 84.1034C56.6863 84.1034 56.5515 83.731 56.2819 83.6069C56.0123 83.4827 55.4731 83.4207 55.2709 83.2345C55.1361 83.1724 55.2709 82.8621 55.1361 82.7379C54.9338 82.5517 54.5294 82.6758 54.3946 82.4896C54.0576 82.0552 53.9228 81.3103 53.6532 80.8138C52.7769 80.5655 51.5637 81.4345 50.5526 81C50.4852 80.5655 50.7548 80.5655 50.6874 80.1931C51.6311 80.1931 52.1029 79.8207 53.114 79.8827C53.3836 79.8827 53.1814 79.3862 53.3836 79.3241C52.3725 78.8896 50.9571 79.5103 50.1482 79.3241C50.0134 78.269 51.6985 78.2069 53.2488 78.269C54.799 75.2896 57.3604 72.8069 62.2808 73.3655C62.82 73.8621 63.9659 73.8 63.9659 74.731Z" fill="#99BCB8"/>
<path fill-rule="evenodd" clip-rule="evenodd" d="M82.9735 91.0552C80.884 90.8069 79.2664 90.8069 78.1205 91.8621C79.0641 92.2345 80.6818 91.9862 81.2884 92.6069C81.4233 92.9172 81.0862 92.9172 81.1536 93.1655C80.4796 93.1655 79.7382 93.1655 79.1989 93.2897C79.536 93.6621 80.7492 93.1655 80.884 93.6621C80.7492 94.7172 79.1315 93.8483 78.7945 94.5931C80.2774 95.0276 82.7713 94.3448 84.1868 94.9034C84.389 95.4621 83.5128 95.0897 83.6476 95.5862C80.9514 95.8345 77.9857 95.8966 76.368 94.7172C75.4244 94.9035 73.8067 94.9655 73.6719 94.0966C74.0763 93.6 74.8177 93.7862 75.6266 93.8483C75.8962 93.5379 75.694 92.731 75.7614 92.1724C77.1094 91.1793 79.536 89.3172 82.0973 90.1241C82.4343 90.2483 83.1083 90.3724 82.9735 91.0552Z" fill="#99BCB8"/>
<path fill-rule="evenodd" clip-rule="evenodd" d="M62.6853 11.2965C63.5616 10.9862 64.5726 10.8 65.1118 10.1172C67.4709 10.9241 70.4367 10.4896 72.2566 11.9793C72.3914 12.1034 72.5262 12.4138 72.7958 12.6C73.335 13.0345 73.7395 13.1586 73.8069 14.0276C78.9969 12.2276 85.1306 13.8414 85.535 19.1172C92.0058 16.8207 97.2632 22.4069 94.4323 27.4965C95.3085 28.1172 96.3196 28.6138 97.2632 29.1724C97.398 29.8552 97.6002 30.4138 97.4654 31.2828C98.3417 32.4 97.3306 33.6414 97.1958 34.8207C95.4433 36.0621 94.1627 37.7379 91.8036 38.2965C92.8146 40.7172 89.04 40.7172 87.2875 41.3379C85.6024 40.7793 83.4455 41.5241 81.7605 41.7724C78.9295 41.8345 75.7616 41.7103 72.9306 41.8345C71.7848 41.8965 70.3693 42.0828 69.6279 41.8965C69.0886 41.7103 69.3582 42.269 68.8864 42.1448C68.0102 41.8345 67.808 42.1448 67.2013 41.8965C61.7417 42.2069 56.956 42.2069 51.429 42.5793C51.0245 42.7034 51.1593 42.269 50.8897 42.2069C46.4411 42.8276 41.1837 41.9586 37.1395 42.7655C35.3196 42.2069 32.6234 43.1379 30.4665 42.7034C30.4665 42.5793 30.4665 42.4552 30.4665 42.331C29.5903 42.331 29.5229 41.7103 28.6466 41.7103C27.6356 39.0414 26.9615 34.2621 27.703 31.2828C28.04 29.9172 29.0511 28.8621 30.1969 27.7448C32.219 25.8207 35.05 24.0827 39.3638 25.0138C39.2964 24.0207 39.0941 22.8414 38.6223 21.9103C37.9483 18.0621 39.7008 15.7655 40.7792 13.1586C41.5207 12.9103 41.7229 12.1034 42.3295 11.731C42.3295 11.4207 42.3295 11.1103 42.3295 10.8C42.8687 10.4276 42.9361 10.8621 43.4754 10.6759C44.6212 9.3724 46.4411 8.68965 47.7218 7.51034C50.2157 7.5724 51.0919 6.20689 53.6533 6.39309C54.3947 5.5862 56.4168 6.70344 56.7538 5.5862C56.8212 5.5862 56.956 5.5862 57.0234 5.5862C58.1019 6.02068 58.5737 6.95171 60.0566 7.01378C61.135 8.31723 62.5505 9.24827 62.6853 11.2965ZM60.7306 12.3517C61.6743 9.3724 58.9107 7.07585 55.5406 7.5724C57.6975 8.75171 58.9781 10.8 60.7306 12.3517ZM64.1682 28.5517C64.7074 29.2965 65.4489 29.8552 65.9207 30.7241C65.3814 30.7241 65.0444 30.4759 65.0444 29.9793C63.0223 28.4896 61.3372 26.7517 59.8544 24.7655C59.1129 24.2069 58.1693 23.3379 57.5627 22.5931C57.0908 21.9724 56.4842 21.6 55.945 21.0414C54.4621 19.5517 52.5748 18.4345 51.4964 16.6345C51.2942 16.6345 51.1593 16.6345 50.9571 16.6345C49.9461 15.2069 48.4632 14.2138 47.3848 12.8483C47.4522 12.5379 47.7892 12.4138 47.7892 12.0414C47.25 11.4827 46.5085 11.1724 46.1715 10.4896C46.1041 11.0483 45.093 10.8 45.2953 11.5448C45.9693 11.7931 46.2389 12.4138 46.8455 12.7241C47.924 14.5241 49.8113 15.5172 50.7549 17.3793C51.6312 17.6896 51.8334 18.3724 52.3726 18.931C53.3162 19.9241 55.0013 20.9793 55.4058 22.2828C57.4953 23.1517 58.1693 25.3241 60.124 26.3172C60.124 26.5034 60.124 26.6896 60.124 26.9379C61.4046 27.1862 61.3372 28.6759 62.6853 28.8621C62.6853 29.0483 62.6853 29.1724 62.6853 29.3586C64.4378 30.3517 65.2466 32.1517 67.1339 33.0828C67.4709 34.2621 68.7516 34.5724 69.156 35.6896C64.977 32.5241 61.6743 28.4276 57.5627 25.2C57.1582 24.0207 55.6754 23.7103 55.2709 22.469C54.3947 21.9724 53.7207 21.2896 53.2488 20.4207C50.9571 18.8069 49.4069 16.5103 47.1825 14.8345C48.0588 16.0759 49.3395 16.9448 49.9461 18.4345C50.7549 18.6827 51.2942 19.1793 51.4964 19.9862C51.6986 19.9862 51.8334 19.9862 52.0356 19.9862C53.3837 21.6 54.6643 23.2138 56.3494 24.5172C57.4279 26.4414 59.5848 27.4345 60.6632 29.4207C61.135 29.3586 61.6743 29.7931 61.2698 30.1655C59.6522 29.5448 59.0455 27.931 57.5627 27.1862C52.9792 22.2827 48.3958 17.3793 43.3406 12.9103C43.0035 13.2827 42.5991 13.6552 42.3295 14.0896C44.5538 16.2 46.3737 18.7448 48.8002 20.669C48.7328 21.0414 49.0024 21.0414 48.935 21.3517C51.0245 22.531 52.0356 24.6414 53.9903 25.8827C54.7317 27.5586 57.2256 28.2414 57.4279 30.0414C53.5185 26.8759 50.1483 23.1517 46.6433 19.6759C46.6433 19.8 46.5759 19.9862 46.3737 19.9241C46.7781 20.6069 47.1826 21.3517 48.1262 21.6C49.6765 23.7724 51.6986 25.5724 53.7207 27.3103C53.6533 27.6828 53.9903 27.6827 53.9903 27.9931C55.0013 28.6138 56.0124 29.2965 56.4168 30.4759C57.1582 30.4759 57.3605 31.0345 57.5627 31.531C58.5063 32.0896 59.787 33.269 59.8544 34.1379C53.9903 28.4276 48.0588 22.7172 42.3295 16.8207C42.3969 16.6345 42.1947 16.2 42.4643 16.2621C42.9361 16.0759 42.7339 16.5724 43.0709 16.5103C42.8687 15.6414 41.9925 15.4552 41.5207 14.8345C41.3859 15.7655 41.0488 16.5724 40.7118 17.3172C41.3185 18.2483 42.2621 18.931 42.7339 19.9241C43.1384 19.8621 43.2058 20.0483 43.4754 20.0483C46.3063 23.8965 50.0809 26.9379 53.2488 30.5379C53.4511 30.5379 53.5859 30.5379 53.7881 30.5379C54.2599 31.2828 54.7317 32.0276 55.6754 32.3379C55.5406 32.6483 55.8776 32.6483 55.8102 32.9586C57.6301 34.3862 59.3826 35.9379 60.8654 37.7379C61.4047 37.9241 62.2135 38.4827 61.8765 39.0414C58.9781 36.6828 56.2146 34.0759 53.6533 31.4069C53.2488 31.3448 53.2488 31.5931 52.9118 31.531C52.3726 31.1586 51.8334 30.7862 51.6312 30.1034C50.3505 29.669 49.8787 28.4896 49.0698 27.6207C48.5306 27.4965 48.1262 27.1862 48.0588 26.6896C45.2953 24.6414 43.5428 21.6 40.7118 19.6759C40.577 21.9103 42.1273 22.5931 42.7339 24.2069C43.4754 24.3931 44.0146 24.8276 44.1494 25.6345C45.7671 26.6276 46.5759 28.3655 48.1936 29.3586C48.1262 29.669 48.3958 29.6069 48.3284 29.9793C49.6091 30.7241 50.6875 31.5931 51.3616 32.8345C53.1814 33.9517 54.5295 35.5034 55.8102 37.1172C53.9903 36.4965 53.2488 34.2621 51.6312 33.8896C51.9682 33.7034 51.9682 34.3862 51.766 34.3862C51.2942 34.2 51.1593 33.7034 50.3505 33.7655C47.587 30.8483 44.3516 28.3034 41.5881 25.4483C41.5881 26.0069 41.5881 26.5655 41.5881 27.1241C42.3969 28.2414 43.745 28.8621 44.2168 30.2276C46.3737 31.4069 47.3174 33.6414 49.5417 34.7586C49.6765 35.8138 50.8897 35.8759 51.1593 36.8069C51.0245 36.8069 51.0245 36.931 50.8897 36.931C47.3174 34.3241 44.3516 31.2207 41.1162 28.3655C40.9814 28.9241 40.3074 28.9862 40.1052 29.4207C40.7792 30.2276 41.9925 30.6 42.1273 31.9034C43.1383 32.2138 43.745 32.9586 44.1494 33.8276C45.7671 34.3241 46.1041 36.0621 47.4522 36.8069C47.5196 36.9931 47.6544 37.0552 47.587 37.3034C48.935 37.9241 49.3395 39.2896 50.6201 39.9103C50.6875 39.9724 50.8897 40.5931 50.6201 40.5931C45.9019 36.5586 41.6555 32.0276 36.8698 27.931C36.8698 27.6828 36.6676 27.5586 36.735 27.2483C35.8588 27.2483 35.5218 27.7448 34.6455 27.8069C38.1505 31.3448 41.6555 34.8828 45.2953 38.2965C45.2953 38.4827 45.2953 38.669 45.4301 38.7931C46.4411 38.731 46.3063 39.7241 47.1151 39.8483C47.0477 40.0345 47.25 40.531 46.9803 40.531C46.7781 40.469 46.7107 40.3448 46.4411 40.4069C43.1384 36.7448 38.9593 33.8276 35.6566 30.1655C35.2522 30.2276 35.1848 29.9793 34.7803 30.0414C34.7129 29.3586 33.9715 29.2965 33.9041 28.6138C33.2975 28.7379 33.0278 29.1724 32.7582 29.5448C34.3759 30.9103 35.4544 32.8345 37.3417 33.9517C37.8809 35.2552 39.566 35.5655 39.9704 37.0552C41.1162 37.6138 42.0599 38.3586 42.5317 39.5379C41.2511 39.1034 40.577 38.1103 39.7008 37.2414C37.6113 36.8069 36.735 35.2552 35.6566 33.8896C33.9715 33.2069 33.3649 31.531 31.9494 30.5379C31.6798 30.7241 31.3428 30.9724 31.2754 31.3448C32.7582 33.1448 34.5107 34.7586 35.8588 36.6827C34.9825 36.931 34.7129 35.5655 34.1737 36.1862C35.387 36.7448 35.724 38.0483 36.8698 38.669C36.8698 38.8552 36.8698 39.0414 36.8698 39.2896C37.5439 39.2276 38.0831 39.9724 37.6113 40.2207C34.8477 38.2345 33.0279 35.4414 30.1295 33.5172C30.3317 34.2621 29.7925 34.3241 29.7251 34.8207C30.7361 35.9379 32.0168 36.8069 32.6234 38.2965C34.4433 39.4138 36.1284 41.0276 39.1616 40.7172C40.577 40.2827 42.3295 40.0965 44.0146 39.9103C43.8798 40.469 44.6212 40.2207 44.4864 40.7172C48.6654 41.2138 53.2488 41.7724 57.1582 41.0896C57.3605 41.1517 57.293 41.4621 57.6975 41.3379C59.9218 40.6552 63.7638 41.4621 65.9207 40.7172C65.9207 40.9034 66.0555 40.9655 66.3251 40.9655C71.3129 40.1586 77.177 41.0276 82.9063 40.6552C84.7262 40.2207 86.6135 39.7862 88.4334 39.2896C88.9726 37.8621 90.3881 36.6207 92.545 37.0552C94.2301 35.7517 96.387 34.8827 96.3196 32.0276C95.4433 30.9103 94.9041 29.5448 93.2864 29.1724C91.8709 29.7931 91.1295 31.5931 89.3096 31.4069C88.5682 29.6069 90.5229 28.4276 92.1406 27.9931C92.8146 27.1862 93.3538 26.1931 93.6908 25.0759C92.882 22.7793 92.4776 20.0483 88.7704 20.4207C88.703 20.8552 88.2312 21.0414 87.9616 21.3517C87.7593 21.2896 87.8268 20.9793 87.4223 21.1034C85.4002 21.9724 83.5803 23.0276 82.6367 24.9517C84.2544 25.7586 84.9284 27.4345 86.5461 28.1793C86.7483 29.0483 88.0964 29.4207 87.8268 30.2896C86.7483 29.7931 86.5461 28.5517 85.1306 28.3655C81.6931 25.2 78.3229 21.9724 75.2223 18.4965C74.5483 18.3724 73.6721 18.3103 73.6721 17.5655C73.2676 17.5655 72.8632 17.5655 72.9306 17.9379C73.6721 19.4896 75.2897 20.1724 75.9638 21.7241C76.9074 21.6621 76.84 22.2207 77.3792 22.469C78.1881 22.7793 78.1881 23.3379 78.5251 23.6483C78.7273 23.8345 79.6035 23.7724 79.2665 24.3931C80.008 24.5172 80.4124 24.9517 80.4124 25.6965C81.019 25.8828 81.2886 26.3793 81.8279 26.6276C82.5019 27.931 84.0522 28.5517 84.5914 29.9793C85.0632 30.0414 85.8047 30.5379 85.3328 31.0345C81.7605 28.6138 79.7384 24.8896 75.9638 22.6552C75.9638 22.4069 75.9638 22.0965 75.9638 21.8483C74.6157 20.9172 73.6047 19.7379 72.3914 18.6207C71.9196 18.9931 71.4477 19.4276 71.1107 19.9241C71.2455 19.9241 71.2455 20.1103 71.2455 20.2965C71.65 20.2345 71.7174 20.4827 72.1218 20.4207C75.3571 24.269 79.1991 27.4965 82.7715 31.0345C82.9737 31.0345 83.1085 31.0345 83.3107 31.0345C83.2433 31.3448 83.85 31.7172 83.4455 31.9655C82.5019 31.531 82.0975 30.6 81.019 30.2896C80.8168 29.5448 80.2776 29.0483 79.4687 28.8621C79.3339 28.3034 78.7273 28.1172 78.3229 27.8069C74.8853 24.7034 71.7174 21.3517 68.145 18.3724C66.9991 17.0069 65.6511 15.8276 64.1008 14.7724C64.9096 16.7586 67.471 17.6896 67.7406 19.7379C68.819 20.0483 69.2908 20.9172 69.7627 21.7862C69.9649 21.7862 70.0997 21.7862 70.3019 21.7862C71.8522 24.0827 74.1439 25.7586 75.7616 27.9931C74.9527 28.1172 74.7505 27.6207 74.6157 27.1862C74.2113 27.1862 74.2113 26.9379 73.8743 26.9379C74.0091 26.2552 73.2002 26.3793 73.2676 25.7586C69.156 22.531 66.2577 18.1241 62.2135 14.7724C62.1461 15.1448 62.0113 15.4552 62.0787 15.9517C61.8765 16.0759 61.6069 16.0759 61.4046 16.2C61.3372 17.2552 62.4831 17.1931 62.6853 18C62.2135 18.0621 62.1461 17.8138 61.6743 17.8759C61.6743 17.131 60.9328 17.069 60.5284 16.6965C60.0566 17.5655 61.4046 17.5655 61.4046 18.3724C62.7527 19.0552 63.4268 20.3586 64.7074 21.1034C64.64 21.4759 65.1792 21.2276 64.977 21.7241C66.9991 23.2759 68.6168 25.2 70.5715 26.8759C71.7174 28.6138 73.7395 29.5448 74.7505 31.4069C71.5826 28.9862 69.156 26.0069 66.1229 23.5241C66.1229 23.4 66.1229 23.2759 66.1229 23.1517C64.64 22.531 64.303 20.7931 62.6853 20.2965C62.6853 20.1103 62.6853 19.9241 62.5505 19.8C60.7306 18.8069 59.9218 16.9448 58.1019 15.9517C57.6301 14.5241 55.8102 14.2759 55.3383 12.8483C54.0577 12.0414 52.8444 11.1724 52.0356 9.99309C52.44 9.99309 53.0466 10.1172 52.9118 9.62068C52.9792 9.31034 52.3052 9.68275 52.5074 9.24827C52.5074 8.81378 52.8444 8.68965 53.1814 8.56551C54.9339 9.86896 56.282 11.5448 58.0345 12.8483C58.5063 13.7172 59.1129 14.4 60.0566 14.7724C60.124 14.2138 60.5958 14.0276 60.461 13.2207C60.0566 13.2827 60.0566 13.0345 59.7196 13.0965C59.6522 12.1655 58.4389 12.3517 58.4389 11.2965C57.0234 10.9862 56.7538 9.62068 55.4058 9.24827C55.4058 9.12413 55.4058 8.99999 55.4058 8.87585C54.9339 8.87585 55.0687 8.75171 54.6643 8.87585C54.5969 8.50344 54.2599 8.3793 54.1925 8.06896C52.777 8.31723 51.0245 8.25516 49.9461 8.87585C49.9461 9.06206 49.9461 9.1862 49.9461 9.3724C52.3726 11.731 54.5969 14.2138 56.6864 16.8827C57.8323 17.3793 58.3715 18.3724 59.1129 19.2414C60.5958 20.0483 61.2024 21.6 62.6853 22.3448C63.4942 23.7724 65.1118 24.4552 65.8533 25.9448C67.2013 26.1931 67.471 27.3724 68.2798 28.1172C68.3472 28.4896 68.0776 28.4896 68.145 28.8C68.819 29.3586 69.6953 29.731 69.8975 30.7241C72.661 32.8965 75.1549 35.3172 77.7837 37.6759C76.6378 36.9931 75.3571 36.4345 74.7505 35.2552C74.3461 35.2552 74.3461 34.9448 73.8743 35.0069C74.0091 34.4483 73.4024 34.5724 73.4024 34.2C70.9759 32.4621 69.4256 29.9793 66.9317 28.3655C64.4378 25.1379 61.0676 22.7172 58.5737 19.4276C56.0124 17.5034 54.3947 14.7724 51.6986 12.9724C51.2941 12.2896 50.8223 11.669 49.9461 11.4207C50.6201 12.8483 52.3726 13.2827 52.7096 15.0207C53.0466 15.0827 53.2488 15.269 53.4511 15.3931C53.3837 15.7655 53.9229 15.5172 53.7207 16.0138C54.7991 16.3241 55.2709 17.1931 56.0124 17.8138C56.4168 18.931 57.6975 19.3655 58.1693 20.4207C58.5063 20.2965 58.5063 20.6069 58.7759 20.5448C61.0002 23.4621 63.966 25.7586 66.2577 28.6759C66.4599 28.6759 66.7295 28.6138 66.7969 28.8C67.0665 29.5448 67.6058 30.1034 68.3472 30.4759C69.7627 32.2759 71.65 33.6414 73.2676 35.2552C73.2676 35.3793 73.0654 35.3793 72.8632 35.3793C72.7958 35.8138 73.5372 36.0621 73.2676 36.3103C69.7627 33.6414 67.1339 30.9103 64.1682 28.5517ZM47.4522 10.3034C47.9914 10.4896 47.7892 9.93102 48.1936 9.93102C48.3958 10.2414 48.7328 10.4276 49.2046 10.4276C49.6765 8.81378 46.9803 9.1862 47.4522 10.3034ZM59.0455 15.5172C59.5174 15.5172 59.5174 15.7034 59.9218 15.5172C58.5063 14.0896 57.0908 12.7241 55.608 11.3586C55.5406 11.3586 55.4058 11.3586 55.3383 11.3586C56.1472 13.1586 58.1693 13.7793 59.0455 15.5172ZM63.0897 13.2827C63.2919 13.531 63.3593 13.9034 63.8312 13.9034C63.7638 13.469 63.8986 13.2207 64.2356 13.2207C66.4599 13.8414 66.9991 15.9517 68.819 16.9448C69.0212 17.5034 69.5605 17.7517 69.9649 18.1241C70.1671 17.5655 70.4367 17.0069 70.5041 16.3862C68.9538 14.8965 67.471 13.3448 65.6511 12.1034C65.0444 12.6621 63.6964 12.6621 63.0897 13.2827ZM71.3803 15.7034C71.1781 14.0896 69.8975 12.3517 67.808 11.9793C68.5494 13.7172 70.0323 14.6483 71.3803 15.7034ZM52.5074 16.3862C52.8444 16.4483 53.114 16.5724 53.2488 16.7586C54.7317 18.5586 56.0798 20.4207 57.9671 21.9103C59.1129 23.4621 60.9328 24.3931 62.0113 25.9448C63.3593 26.3172 63.4942 27.8069 64.9096 28.1172C66.1903 30.1034 68.3472 31.3448 70.0997 32.8965C68.9538 31.469 67.5383 30.2276 66.1903 28.9862C66.1229 28.8 65.9881 28.7379 66.0555 28.4896C62.8201 26.0069 60.5958 22.6552 57.4279 20.1724C55.1361 17.9379 53.1814 15.3931 50.4179 13.5931C50.8897 14.7103 52.103 15.2069 52.5074 16.3862ZM81.7605 15.7034C81.5582 14.9586 80.2776 15.1448 80.008 14.5241C79.4013 14.4621 78.9969 14.5862 78.9969 15.0827C78.9969 15.269 79.3339 15.2069 79.5361 15.2069C79.8058 15.8276 80.5472 16.0138 80.8168 16.6345C82.0975 17.0069 82.6367 17.9379 83.3781 18.8069C83.5129 19.2414 83.5803 19.7379 84.2544 19.6138C84.6588 18.869 83.9848 18.1862 84.1196 17.2552C83.1085 16.8827 82.9737 15.8276 81.7605 15.7034ZM76.3682 14.9586C78.3229 17.131 80.2776 19.3034 82.7041 21.0414C82.5693 20.3586 82.9737 20.1724 82.9737 19.6138C81.4908 18.1241 79.8732 16.8207 78.1207 15.5793C77.9859 15.0827 78.3229 15.0827 78.3903 14.7724C77.7837 14.8345 76.6378 14.4621 76.3682 14.9586ZM75.0875 15.3931C74.8179 15.5172 74.4809 15.6414 74.4135 15.9517C76.5704 18.4965 78.7273 21.0414 81.2886 23.2138C81.7605 22.8414 81.6931 21.9724 82.0975 21.5379C79.7384 19.5517 77.514 17.3793 75.0875 15.3931ZM45.2953 19.1793C45.7671 19.1172 45.9019 19.3034 46.1715 19.4276C45.9693 18.6207 45.2953 18.1862 44.6212 17.7517C44.5538 18.4965 45.4301 18.3724 45.2953 19.1793ZM39.8356 28.3034C39.8356 28.1172 39.8356 27.931 39.8356 27.6827C39.229 27.4965 39.1616 26.8759 38.4201 26.8138C38.6223 27.5586 39.229 27.931 39.8356 28.3034ZM47.9914 30.0414C48.0588 29.6069 47.0477 28.9862 47.25 29.2345C47.7218 29.2965 47.3174 30.1655 47.9914 30.0414ZM50.0135 31.9655C50.0135 31.7793 50.0135 31.6552 50.0135 31.469C49.8787 31.469 49.7439 31.469 49.6091 31.469C49.6765 31.7172 49.6765 31.9655 50.0135 31.9655ZM32.1516 33.8276C32.6234 33.8896 32.4886 34.5103 33.1627 34.4483C33.2301 35.0069 33.7019 35.1931 34.0389 35.5034C33.9715 35.2552 32.556 33.6414 32.0168 33.4552C32.219 33.4552 32.219 33.6414 32.1516 33.8276ZM29.7251 38.1724C30.3991 38.3586 31.3428 38.7931 32.1516 38.4207C31.4102 37.4276 30.5339 36.6207 29.5903 35.8138C29.4555 36.5586 29.5903 37.2414 29.7251 38.1724ZM89.4444 39.6621C90.2533 39.7241 90.4555 39.1655 90.5903 38.6069C89.8489 38.2965 89.6466 39.0414 89.4444 39.6621ZM29.9273 40.7172C29.8599 40.2827 29.5903 40.0345 29.1859 39.9724C29.1185 40.531 29.3881 40.7793 29.9273 40.7172Z" fill="#99BCB8"/>
<path fill-rule="evenodd" clip-rule="evenodd" d="M64.7748 44.2552C62.7527 45.0621 60.124 45.3724 59.2478 47.2965C60.9328 47.4827 62.7527 46.8 64.7748 46.8621C65.0444 48.1655 63.2246 47.4827 62.6853 48.0414C62.6179 48.3517 63.6964 48.2896 63.6964 47.9172C63.966 48.1655 63.8986 48.3517 63.8312 48.6C62.4831 48.6621 61.6069 49.0965 60.2588 49.1586C60.9328 51.0827 64.3704 50.4 66.0555 49.7793C65.9207 50.1517 66.4599 49.9034 66.3251 50.2758C64.3704 51.4552 59.8544 51.6414 58.9107 49.469C58.1693 49.5931 57.8323 49.531 57.2257 49.5931C57.2257 49.2827 57.2257 48.9724 57.2257 48.6621C57.6301 48.6621 57.9671 48.6621 58.3715 48.6621C58.3041 47.9172 56.6864 48.5379 56.2146 48.1655C56.1472 47.2965 57.3605 47.669 58.1693 47.6069C58.6411 45.7448 61.0676 44.3172 62.9549 44.0069C63.4942 43.8827 64.3704 43.6345 64.7748 44.2552Z" fill="#99BCB8"/>
<path fill-rule="evenodd" clip-rule="evenodd" d="M45.363 62.6276C45.6326 62.6276 45.9696 62.6276 46.2392 62.6276C46.3066 62.8759 46.2392 63.0621 46.1044 63.1862C46.7111 63.3724 46.6437 62.9379 46.8459 62.6896C47.5199 63.2483 48.4636 63.5586 48.7332 64.4896C48.3287 64.8621 48.1939 64.3034 47.8569 64.2414C47.8569 65.1103 47.0481 66.6621 47.1829 67.531C47.2503 68.0276 47.9243 68.0896 48.0591 68.4621C48.9354 70.3241 47.3851 71.9379 45.8348 72.2483C45.4978 72.6827 45.363 73.3034 45.1608 73.9241C44.9586 73.9241 44.689 73.8621 44.6216 74.0483C44.2171 73.6758 44.7564 73.1172 44.6216 72.6207C43.4083 72.3724 43.8801 73.7379 43.2061 74.0483C42.8017 74.0483 42.8691 73.6758 42.5995 73.5517C42.3973 73.0552 42.8691 73.1793 42.8691 72.869C42.5321 72.6827 42.1276 72.4965 41.5884 72.4965C41.4536 72.1241 41.4536 71.6276 41.5884 71.3172C42.0602 71.2552 42.3972 71.131 43.0039 71.1931C43.0039 71.5034 43.0039 71.7517 43.2735 71.8138C43.6105 70.0758 44.1497 68.5241 44.4868 66.7241C43.8127 66.4138 43.3409 65.9793 43.2061 65.1724C43.7453 64.1172 45.4978 63.931 45.363 62.6276ZM45.5652 66.2896C45.8348 66.5379 45.9696 66.8483 46.3066 67.0345C46.9133 66.4138 46.5763 65.4827 46.7111 64.3034C45.363 64.0552 46.037 65.669 45.5652 66.2896ZM44.0823 71.8138C46.1718 71.8138 45.7 69.0827 46.1718 67.9655C45.4978 68.0896 45.9696 67.2827 45.2956 67.469C45.026 69.0207 44.2845 70.2 44.0823 71.8138ZM46.1718 71.131C46.9133 71.3793 46.5763 70.5103 47.1829 70.6965C47.1829 70.2 47.1829 69.7655 47.1829 69.269C47.0481 69.269 46.9133 69.269 46.7785 69.269C46.7111 70.0138 46.3066 70.4483 46.1718 71.131Z" fill="#99BCB8"/>
<path fill-rule="evenodd" clip-rule="evenodd" d="M35.7914 78.3931C37.0047 78.4552 36.7351 79.8827 37.2069 80.6276C38.2854 80.6896 37.7461 79.8827 38.0157 79.2C38.4876 79.1379 38.4876 79.3862 38.892 79.3241C38.8246 79.7586 39.0942 79.8827 39.0268 80.3793C39.7008 80.6896 40.8467 81 40.4423 81.931C39.903 82.1172 40.0378 81.6828 39.7008 81.6828C39.0268 82.3655 40.0378 83.2345 39.903 84.1655C40.0378 84.4759 40.4423 84.5379 40.9141 84.5379C40.6445 85.0965 41.4533 84.8483 41.7903 85.0345C43.1384 85.5931 45.7671 88.9448 43.8124 90.4965C43.2732 90.4965 43.071 90.7448 42.5318 90.7448C41.9925 91.3655 43.071 92.731 42.1273 92.9793C41.7229 92.4827 41.4533 91.8621 41.3859 91.0552C41.1163 91.1172 41.0489 90.9931 40.8467 90.931C40.4423 91.5517 41.5207 93.0414 40.4423 93.2896C39.6334 92.9793 39.8356 91.8 39.4312 91.1793C38.7572 91.2414 38.3528 91.0552 37.8809 90.931C37.6113 90.1862 38.0832 90.2483 38.2854 89.7517C38.4876 90 38.7572 90.1241 39.1616 90.1241C39.0268 88.3862 38.555 86.6483 37.9483 84.9103C37.0047 84.9724 36.7351 84.4138 36.1285 83.9793C35.7914 83.669 35.1848 83.4207 35.387 82.4276C35.4544 81.931 36.1959 81.6827 36.3307 81.2483C36.4655 80.3172 35.3196 79.3862 35.7914 78.3931ZM38.218 82.6138C38.0832 83.2965 38.555 83.9793 38.8246 83.9172C38.4876 83.1103 38.555 81.931 37.9483 81.4345C37.4091 81.6827 37.8809 82.4896 38.218 82.6138ZM37.2743 83.3586C37.2743 82.8621 37.0721 82.4896 36.6677 82.4276C36.6003 82.9241 36.7351 83.3586 37.2743 83.3586ZM41.9925 90C42.397 89.8138 42.6666 89.5034 43.2732 89.5655C43.5428 87.6414 41.9925 86.4621 40.3749 85.9034C40.8467 87.2689 41.0489 89.0069 41.9925 90ZM40.1727 90.1241C40.4423 90.1862 40.6445 90.1241 40.8467 90C40.4423 89.5655 40.5771 88.6345 39.9704 88.3241C39.6334 88.8827 40.4423 89.1931 40.1727 90.1241Z" fill="#99BCB8"/>
<path d="M74.8184 81.1241C74.6162 80.8759 74.751 80.8759 74.6836 80.5655C74.6162 80.3172 74.6162 80.3172 74.5488 80.0069C74.4814 79.7586 74.6162 79.6345 74.414 79.4483C74.2792 79.3241 74.2118 79.5103 74.0095 79.5103C73.8073 79.5724 73.8073 79.5724 73.6051 79.5724C73.4029 79.6345 73.4029 79.6965 73.2007 79.6345C73.0659 79.5724 73.2007 79.5103 73.1333 79.3862C73.1333 79.2621 73.1333 79.2621 73.0659 79.1379C73.0659 79.0138 72.9311 79.0138 72.9985 78.8896C73.1333 78.7655 73.2007 78.8276 73.4029 78.8276C73.6051 78.7655 73.6051 78.7655 73.8073 78.7655C74.0095 78.7034 74.0769 78.8276 74.2118 78.7034C74.3466 78.5793 74.1443 78.5172 74.1443 78.3931C74.0769 78.2069 74.0769 78.2069 74.0769 78.0828C74.0769 77.9586 74.1444 77.8345 74.0095 77.7724C73.8747 77.7103 73.8073 77.8345 73.6051 77.8345C73.4029 77.8965 73.4029 77.8965 73.2007 77.8965C72.9985 77.8965 72.9985 78.0207 72.7963 77.9586C72.6615 77.8965 72.7963 77.8345 72.7289 77.7103C72.7289 77.5862 72.7289 77.5862 72.6615 77.4621C72.6615 77.3379 72.5267 77.3379 72.5941 77.2138C72.7289 77.0896 72.7963 77.1517 72.9985 77.1517C73.2007 77.0896 73.2007 77.0896 73.4029 77.0896C73.6051 77.0896 73.7399 77.2138 73.8073 77.0276C73.8747 76.469 73.6725 76.469 73.5377 75.9103C73.4029 75.3517 73.4029 75.3517 73.2681 74.7931C73.1333 74.2345 72.6615 74.1724 72.9985 73.6759C73.2681 73.2414 73.5377 73.5517 74.0769 73.4276C74.6162 73.3034 74.6162 73.3034 75.1554 73.1793C75.6946 73.0552 75.6946 73.0552 76.2339 72.931C76.7057 72.8069 77.1101 72.8069 77.5145 72.869C77.9863 72.931 78.3908 73.1172 78.6604 73.3655C78.93 73.6138 79.1322 73.9862 79.267 74.4207C79.4018 74.8552 79.3344 75.2276 79.1996 75.6C79.0648 75.9724 78.7952 76.2828 78.3908 76.531C78.0538 76.7172 77.6493 76.9034 77.1775 77.0276C76.7731 77.0896 76.7731 77.0896 76.3687 77.2138C75.9642 77.2759 75.9642 77.2759 75.5598 77.4C75.1554 77.4621 75.088 77.3379 74.751 77.5862C74.6162 77.7103 74.8184 77.7724 74.8184 77.8965C74.8858 78.0828 74.8858 78.0828 74.8858 78.2069C74.8858 78.331 74.751 78.5172 74.9532 78.5172C75.4924 78.5793 75.4924 78.3931 76.0991 78.269C76.6383 78.1448 76.6383 78.1448 77.2449 78.0207C77.7841 77.8965 77.7841 77.7724 78.3908 77.7724C78.5256 77.7724 78.3908 77.8965 78.4582 78.0207C78.4582 78.1448 78.4582 78.1448 78.5256 78.269C78.593 78.3931 78.6604 78.4552 78.593 78.5172C78.0537 78.7655 78.0538 78.6414 77.4471 78.7655C76.9079 78.8896 76.9079 78.8896 76.3013 79.0138C75.762 79.1379 75.6272 78.8896 75.1554 79.2621C74.9532 79.4483 75.2228 79.5103 75.2902 79.8207C75.3576 80.069 75.3576 80.069 75.425 80.3793C75.4924 80.6896 75.6272 80.6276 75.5598 80.9379C75.5598 81.0621 75.425 80.9379 75.2902 81C75.1554 81 75.1554 81 75.0206 81.0621C74.9532 81.1241 74.8858 81.2483 74.8184 81.1241ZM74.6836 76.9655C74.9532 77.2138 75.088 76.9034 75.425 76.7793C75.8294 76.7172 75.8294 76.7172 76.1665 76.5931C76.5709 76.531 76.5709 76.531 76.9079 76.4069C77.2449 76.3448 77.5145 76.2207 77.7167 76.0965C77.9863 75.9103 78.1886 75.7241 78.3234 75.4759C78.3908 75.2276 78.4582 74.9793 78.3908 74.669C78.3234 74.3586 78.1886 74.1103 77.9863 73.9241C77.7841 73.7379 77.5145 73.6138 77.1775 73.6138C76.9079 73.5517 76.6383 73.6138 76.3013 73.6759C75.8968 73.7379 75.8968 73.7379 75.5598 73.8621C75.1554 73.9241 75.1554 73.9241 74.8184 74.0483C74.414 74.1103 74.2118 73.8621 74.0769 74.2345C73.8747 74.669 74.2118 74.669 74.2792 75.1655C74.414 75.6 74.4814 75.6 74.4814 76.0965C74.4814 76.531 74.2792 76.6552 74.6836 76.9655Z" fill="#99BCB8"/>
<path d="M40.4422 57.1034C40.24 56.8552 40.4422 56.7931 40.4422 56.5448C40.4422 56.2345 40.4422 56.2345 40.4422 55.9862C40.4422 55.6759 40.7119 55.6759 40.4422 55.4276C40.3074 55.3034 40.1726 55.4276 39.903 55.4276C39.6334 55.4276 39.6334 55.4276 39.3638 55.4276C39.0942 55.4276 39.0268 55.4896 38.8246 55.4276C38.6898 55.3655 38.8246 55.3034 38.8246 55.1793C38.8246 55.0552 38.8246 55.0552 38.8246 54.931C38.8246 54.8069 38.6898 54.7448 38.8246 54.6827C39.0268 54.6207 39.0942 54.6827 39.3638 54.6827C39.6334 54.6827 39.6334 54.6827 39.903 54.6827C40.1726 54.6827 40.24 54.8069 40.4422 54.6827C40.6445 54.5586 40.4422 54.4965 40.4422 54.3724C40.4422 54.1862 40.4422 54.1862 40.4422 54.0621C40.4422 53.8759 40.6445 53.8138 40.4422 53.7517C40.24 53.6276 40.1726 53.7517 39.903 53.7517C39.6334 53.7517 39.6334 53.7517 39.3638 53.7517C39.0942 53.7517 39.0268 53.8138 38.8246 53.7517C38.6898 53.6896 38.8246 53.6276 38.8246 53.5034C38.8246 53.3793 38.8246 53.3793 38.8246 53.2552C38.8246 53.131 38.6898 53.069 38.8246 53.0069C39.0268 52.9448 39.0942 53.0069 39.3638 53.0069C39.6334 53.0069 39.6334 53.0069 39.903 53.0069C40.1726 53.0069 40.3748 53.1931 40.4422 53.0069C40.7119 52.4483 40.4422 52.4483 40.5096 51.8276C40.5096 51.269 40.5096 51.269 40.5771 50.6483C40.5771 50.0896 40.0378 49.9034 40.6445 49.469C41.1837 49.0965 41.3859 49.469 42.1947 49.469C42.9362 49.469 42.9362 49.469 43.745 49.469C44.4864 49.469 44.4864 49.469 45.2953 49.469C45.9693 49.469 46.5759 49.531 47.0478 49.7172C47.6544 49.9034 48.1262 50.1517 48.3958 50.4621C48.6655 50.7724 48.8677 51.1448 48.8003 51.5793C48.8003 52.0138 48.598 52.3862 48.261 52.6965C47.924 53.0069 47.4522 53.2552 46.8456 53.4414C46.3063 53.5655 45.6997 53.6276 45.0257 53.6276C44.4864 53.6276 44.4864 53.6276 43.8798 53.6276C43.3406 53.6276 43.3406 53.6276 42.734 53.6276C42.1947 53.6276 42.1273 53.4414 41.5881 53.6276C41.3859 53.6896 41.5881 53.8138 41.5881 53.9379C41.5881 54.1241 41.5881 54.1241 41.5881 54.2483C41.5881 54.4345 41.3185 54.5586 41.5881 54.5586C42.3295 54.7448 42.3969 54.5586 43.2058 54.5586C44.0146 54.5586 44.0146 54.5586 44.8235 54.5586C45.6323 54.5586 45.6323 54.4345 46.4411 54.5586C46.5759 54.5586 46.4411 54.6828 46.4411 54.8069C46.4411 54.931 46.4411 54.931 46.4411 55.0552C46.4411 55.1793 46.5759 55.2414 46.4411 55.3034C45.6323 55.4276 45.6323 55.3034 44.8235 55.3034C44.0146 55.3034 44.0146 55.3034 43.2058 55.3034C42.3969 55.3034 42.3295 55.0552 41.5881 55.3034C41.1837 55.4276 41.5881 55.6138 41.5881 55.8621C41.5881 56.1724 41.5881 56.1724 41.5881 56.4207C41.5881 56.731 41.7903 56.731 41.5881 56.9793C41.5207 57.1034 41.3859 56.9793 41.1837 56.9793C40.9815 56.9793 40.9815 56.9172 40.7793 56.9793C40.6445 57.1655 40.5096 57.2276 40.4422 57.1034ZM41.8577 53.069C42.1947 53.3793 42.3969 53.069 42.9362 53.069C43.4754 53.069 43.4754 53.069 44.0146 53.069C44.5538 53.069 44.5538 53.069 45.0931 53.069C45.5649 53.069 45.9693 53.069 46.3063 52.9448C46.7782 52.8207 47.1152 52.6965 47.3174 52.4483C47.5196 52.2621 47.6544 51.9517 47.6544 51.6414C47.6544 51.331 47.587 51.0828 47.3174 50.8345C47.1152 50.5862 46.7782 50.4621 46.3737 50.3379C46.0367 50.2759 45.6323 50.2138 45.1605 50.2138C44.6212 50.2138 44.6213 50.2138 44.082 50.2138C43.5428 50.2138 43.5428 50.2138 43.0036 50.2138C42.4643 50.2138 42.2621 49.9034 41.9251 50.2138C41.4533 50.5862 41.9251 50.6483 41.9251 51.1448C41.9251 51.6414 42.0599 51.6414 41.9251 52.0759C41.7229 52.6345 41.3859 52.6965 41.8577 53.069Z" fill="#99BCB8"/>
<path d="M56.1473 102.29C55.9451 101.917 56.1473 101.917 56.1473 101.483C56.1473 101.11 56.1473 101.11 56.1473 100.676C56.1473 100.303 56.4169 100.241 56.1473 99.869C56.0125 99.6827 55.8777 99.869 55.6081 99.869C55.3385 99.869 55.3385 99.869 55.0689 99.869C54.7993 99.869 54.7319 99.9931 54.5296 99.869C54.3948 99.8069 54.5296 99.6827 54.5296 99.5586C54.5296 99.3724 54.5296 99.3724 54.5296 99.2483C54.5296 99.0621 54.3948 99 54.5296 98.9379C54.7319 98.8138 54.7993 98.9379 55.0689 98.9379C55.3385 98.9379 55.3385 98.9379 55.6081 98.9379C55.8777 98.9379 55.9451 99.1241 56.1473 98.9379C56.3495 98.8138 56.1473 98.6896 56.1473 98.5034C56.1473 98.2552 56.1473 98.2552 56.1473 98.069C56.1473 97.8207 56.3495 97.7586 56.1473 97.6345C55.9451 97.4483 55.8777 97.6345 55.6081 97.6345C55.3385 97.6345 55.3385 97.6345 55.0689 97.6345C54.7993 97.6345 54.7319 97.7586 54.5296 97.6345C54.3948 97.5724 54.5296 97.4483 54.5296 97.3241C54.5296 97.1379 54.5296 97.1379 54.5296 97.0138C54.5296 96.8276 54.3948 96.7655 54.5296 96.7034C54.7319 96.5793 54.7993 96.7034 55.0689 96.7034C55.3385 96.7034 55.3385 96.7034 55.6081 96.7034C55.8777 96.7034 56.0799 96.9517 56.1473 96.7034C56.4169 95.9586 56.1473 95.8965 56.2147 95.0897C56.2147 94.2828 56.2147 94.2828 56.2821 93.4759C56.2821 92.669 55.7429 92.4828 56.3495 91.8621C56.8888 91.3655 57.091 91.8621 57.8998 91.9241C58.6412 91.9241 58.6412 91.9241 59.4501 91.9862C60.1915 91.9862 60.1915 91.9862 61.0004 92.0483C61.6744 92.0483 62.281 92.1724 62.7528 92.3586C63.3595 92.6069 63.8313 92.9793 64.1009 93.4138C64.3705 93.8483 64.5727 94.4069 64.5053 94.9655C64.5053 95.5862 64.3031 96.0828 63.9661 96.5172C63.6291 96.9517 63.1573 97.3241 62.5506 97.5103C62.0114 97.6965 61.4048 97.7586 60.7307 97.7586C60.1915 97.7586 60.1915 97.7586 59.5849 97.7586C59.0457 97.7586 59.0457 97.7586 58.439 97.7586C57.8998 97.7586 57.8324 97.5103 57.2932 97.7586C57.091 97.8207 57.2932 98.0069 57.2932 98.1931C57.2932 98.4414 57.2932 98.4414 57.2932 98.6276C57.2932 98.8758 57.0236 99 57.2932 99.0621C58.0346 99.3103 58.102 99.0621 58.9109 99.1241C59.7197 99.1241 59.7197 99.1241 60.5285 99.1862C61.3374 99.2483 61.3374 99.0621 62.1462 99.2483C62.281 99.3103 62.1462 99.4345 62.1462 99.5586C62.1462 99.7448 62.1462 99.7448 62.1462 99.869C62.1462 100.055 62.281 100.179 62.1462 100.179C61.3374 100.303 61.3374 100.179 60.5285 100.117C59.7197 100.117 59.7197 100.117 58.9109 100.055C58.102 100.055 58.0346 99.6828 57.2932 99.9931C56.8888 100.179 57.2932 100.366 57.2932 100.8C57.2932 101.172 57.2932 101.172 57.2932 101.607C57.2932 101.979 57.4954 102.041 57.2932 102.414C57.2258 102.6 57.091 102.414 56.8888 102.414C56.6865 102.414 56.6865 102.352 56.4843 102.414C56.3495 102.352 56.2147 102.476 56.1473 102.29ZM57.4954 96.7034C57.8324 97.0759 58.0346 96.7034 58.5738 96.7034C59.1131 96.7034 59.1131 96.7034 59.6523 96.7034C60.1915 96.7034 60.1915 96.7034 60.7307 96.7034C61.2026 96.7034 61.607 96.6414 61.944 96.5793C62.4158 96.4552 62.7528 96.2069 62.9551 95.9586C63.1573 95.6483 63.2921 95.3379 63.2921 94.9034C63.2921 94.469 63.2247 94.0966 62.9551 93.7862C62.7528 93.4759 62.4158 93.2276 62.0114 93.1035C61.6744 92.9793 61.27 92.9172 60.7981 92.9172C60.2589 92.9172 60.2589 92.9172 59.7197 92.9172C59.1805 92.9172 59.1805 92.9172 58.6412 92.9172C58.102 92.9172 57.8998 92.4828 57.5628 92.9172C57.091 93.4138 57.5628 93.5379 57.5628 94.2207C57.5628 94.8414 57.6976 94.9034 57.5628 95.5241C57.428 96.0828 57.091 96.2069 57.4954 96.7034Z" fill="#99BCB8"/>
</svg>
