<svg width="152" height="127" viewBox="0 0 152 127" fill="none" xmlns="http://www.w3.org/2000/svg">
<path d="M93.0478 22.5593C93.5517 22.5593 93.5517 21.7238 93.0478 21.7238C92.544 21.7238 92.544 22.5593 93.0478 22.5593Z" fill="#C4BE99"/>
<path d="M89.0169 50.9672C88.0092 46.8732 87.3374 42.612 84.818 39.1028C82.8026 36.262 79.9473 33.9225 77.0921 32.0008C70.1219 27.2383 61.6401 25.4837 53.3263 26.4028C49.2954 26.8205 45.3484 27.4054 41.5694 28.9929C37.7904 30.5804 34.2633 33.3376 31.0722 35.8442C24.7738 40.7738 19.9871 47.458 17.8876 55.1449C15.8722 62.4139 16.8799 72.3567 19.9871 79.208C21.6666 82.9679 22.6744 87.062 25.1937 90.3205C27.3771 93.1613 30.5683 96.4199 33.9274 97.7567C35.7749 98.5087 37.7904 99.5949 39.7219 100.18C41.8213 100.848 44.0048 100.848 46.1042 101.349C50.555 102.519 54.334 102.018 58.7849 101.099C63.0677 100.263 66.7628 100.096 70.5418 97.7567C72.0534 96.7541 73.565 95.6679 74.9926 94.4982C76.6722 93.0778 77.176 90.8218 79.2755 89.9028C79.6954 89.7357 79.3595 88.9837 78.9396 89.1508C77.5119 89.485 75.8324 85.1403 74.6567 84.2212C72.3893 82.6337 71.1296 80.2107 68.7782 78.7067C67.1827 77.6205 66.2589 76.2837 65.0832 74.8633C64.2434 73.8607 62.8998 73.3593 61.8081 72.6909C58.6169 70.6857 56.0136 66.9258 53.3263 64.2521C52.0666 62.9153 50.555 61.8291 49.2114 60.5758C47.1119 58.5705 50.555 58.4034 52.0666 57.9857C56.2655 56.8159 60.5484 55.6462 64.7473 54.4764C68.7782 53.3903 72.6412 52.0534 76.6722 51.0508C80.7871 50.0482 84.986 49.2962 89.0169 47.8758C89.5208 47.7087 89.2689 46.8732 88.765 47.0403C81.6269 49.5468 74.0689 50.7166 66.8468 52.8889C63.3197 53.9751 59.7086 54.7271 56.1816 55.7297C53.2423 56.5653 49.8832 57.2337 47.1959 58.7376C46.944 58.9047 46.944 59.1554 47.1119 59.406C48.4556 61.1607 50.1352 62.581 51.8147 64.0014C53.6622 65.5889 55.1738 67.5107 57.0213 69.1817C58.5329 70.5186 59.7086 72.106 61.3042 73.2758C62.3119 74.0278 63.4037 74.4455 64.4114 75.281C65.2512 76.1166 65.923 77.2028 66.7628 78.0383C67.8545 79.208 69.3661 79.7929 70.4578 80.8791C71.0457 81.4639 71.3816 82.4666 72.0534 83.0514C72.8932 83.887 73.9009 84.4718 74.7407 85.2238C76.1683 86.4771 76.5042 90.4041 79.1075 89.7357C79.0235 89.485 78.8556 89.2343 78.7716 88.9837C76.5882 89.9028 75.7484 91.9916 74.3208 93.6626C71.2976 97.0883 66.2589 99.01 61.8921 99.5113C58.1131 99.9291 54.418 101.099 50.639 101.099C48.4556 101.099 46.2722 100.18 44.1727 99.762C41.9053 99.3442 39.9738 99.0936 37.8744 98.0074C36.6987 97.4225 35.523 97.0047 34.1794 96.587C31.9119 95.9185 30.1484 93.8297 28.5528 92.2422C27.2092 90.9054 25.8655 89.5686 24.7738 87.981C23.5981 86.2264 23.0943 83.887 22.2545 81.9653C20.7429 78.2889 19.3153 75.0304 18.7274 71.1034C18.0556 66.508 17.5517 61.9126 18.2236 57.2337C19.3153 50.1317 23.934 43.531 29.3086 38.4343C32.1639 35.7607 35.523 33.4212 38.8821 31.3324C42.997 28.7422 47.4479 27.9067 52.1506 27.3218C60.2125 26.3192 67.6865 27.5725 74.9086 31.583C78.0998 33.4212 80.955 35.9278 83.3904 38.7686C86.4136 42.2778 87.0854 46.8732 88.0932 51.1343C88.2611 51.7192 89.1009 51.4685 89.0169 50.9672Z" fill="#C4BE99"/>
<path d="M70.1222 65.1712C80.5354 73.1922 91.8725 82.2159 98.4227 93.7462C100.018 96.5869 105.141 89.9027 105.981 88.9001C110.18 84.4718 112.951 78.7902 114.714 73.1087C116.646 66.9258 116.394 60.4922 114.966 54.2258C113.959 49.9646 113.287 47.458 108.416 49.2126C105.645 50.2152 103.042 51.6356 100.354 52.8054C96.6592 54.3929 92.8802 55.7297 89.1852 57.1501C86.078 58.3198 82.9708 59.5731 79.9476 60.9935C77.0084 62.3304 73.8172 63.333 70.962 64.8369C70.4581 65.0876 70.878 65.8396 71.3818 65.5889C73.6492 64.4192 76.0846 63.8343 78.436 62.6646C81.2912 61.3277 84.1465 60.0745 87.0857 58.9047C92.0404 56.8995 96.9951 55.2284 101.866 53.1396C104.469 51.9698 106.988 50.7166 109.676 49.7139C113.455 48.3771 113.875 53.1396 114.463 55.6462C115.89 61.8291 115.47 68.0119 113.623 74.0277C111.859 79.6258 108.752 84.8896 104.721 89.1508C103.713 90.2369 99.9343 94.7488 98.8426 92.7435C97.7509 90.7383 96.2393 88.9001 94.8117 87.1455C87.9255 78.5396 79.4437 71.3541 70.71 64.5863C70.2901 64.2521 69.6183 64.8369 70.1222 65.1712Z" fill="#C4BE99"/>
<path d="M77.2602 63.4166C76.9243 65.589 75.0768 67.0929 74.5729 69.1817C74.4889 69.683 75.2447 69.9337 75.4127 69.4324C75.9165 67.3436 77.7641 65.8396 78.1 63.6672C78.1839 63.0824 77.3442 62.9153 77.2602 63.4166Z" fill="#C4BE99"/>
<path d="M85.07 60.4922C84.0623 62.581 83.0546 64.6698 82.0468 66.6751C81.1231 68.5132 80.5352 70.5185 79.4435 72.1895C79.1076 72.6073 79.8634 73.1086 80.1993 72.6073C81.291 70.8527 81.8789 68.931 82.8026 67.0928C83.8943 65.0876 84.8181 62.9152 85.8258 60.9099C86.0778 60.4086 85.322 59.9909 85.07 60.4922Z" fill="#C4BE99"/>
<path d="M94.4753 56.8994C92.8798 60.2415 90.9483 63.3329 89.0168 66.5079C87.1693 69.4323 85.7417 72.6073 83.8941 75.6152C83.6422 76.1165 84.314 76.5343 84.6499 76.0329C86.4975 73.1086 88.0091 69.9336 89.7726 66.9257C91.7041 63.7507 93.6356 60.6593 95.2311 57.3171C95.3991 56.8994 94.7273 56.3981 94.4753 56.8994Z" fill="#C4BE99"/>
<path d="M103.462 53.5572C101.278 58.1526 98.9267 62.5809 96.5753 67.0092C95.4836 69.0145 94.3919 70.9362 93.1323 72.8579C91.8726 74.6961 91.1168 76.952 89.6892 78.7066C89.3533 79.1243 89.9411 79.7092 90.277 79.2915C91.3687 78.0382 91.9566 76.5342 92.7124 75.1138C93.8881 72.8579 95.5676 70.8526 96.7433 68.5967C99.2626 63.7507 101.95 58.9882 104.217 53.975C104.385 53.4737 103.629 53.0559 103.462 53.5572Z" fill="#C4BE99"/>
<path d="M111.943 55.5626C108.668 60.4086 105.644 65.4218 102.705 70.4349C99.85 75.1974 97.4146 80.5448 93.3837 84.3882C92.9638 84.806 93.5517 85.3909 93.9716 84.9731C97.4986 81.5474 99.682 77.1192 102.117 72.9415C105.56 67.2599 109.004 61.4948 112.699 55.9803C112.951 55.5626 112.195 55.1448 111.943 55.5626Z" fill="#C4BE99"/>
<path d="M112.783 66.4244C108.08 73.5264 103.629 81.0461 97.9187 87.3961C97.5827 87.8139 98.1706 88.3987 98.5065 87.981C104.301 81.5474 108.752 74.0277 113.455 66.8421C113.875 66.4244 113.119 66.0066 112.783 66.4244Z" fill="#C4BE99"/>
<path d="M48.1194 57.4843C46.104 53.3902 44.6763 48.5442 43.5006 44.1159C42.325 39.7712 40.5614 35.5935 39.5537 31.1652C39.4697 30.6639 38.6299 30.831 38.7139 31.4159C39.8056 36.262 41.7371 40.8574 42.9968 45.6199C44.0885 49.6304 45.6001 54.2258 47.3636 57.9856C47.6156 58.4034 48.2874 57.9856 48.1194 57.4843Z" fill="#C4BE99"/>
<path d="M46.6921 59.4059C44.7607 61.077 43.2491 63.0822 41.5695 65.004C39.3861 67.5105 36.8667 69.7665 34.5153 72.0224C32.164 74.2783 29.8966 76.6178 27.7971 79.1243C26.3695 80.7954 24.438 81.9651 23.2623 83.9704C23.0104 84.4717 23.6822 84.8895 24.0181 84.3882C25.2778 82.2158 27.5452 80.7119 29.2247 78.7901C31.0723 76.6178 33.0877 74.6125 35.1872 72.6072C37.3706 70.602 39.47 68.5132 41.5695 66.3408C43.585 64.252 45.1805 61.829 47.4479 59.9908C47.6999 59.573 47.112 58.9882 46.6921 59.4059Z" fill="#C4BE99"/>
<path d="M27.6294 80.879C27.6294 84.7224 27.8814 88.733 26.7897 92.4928C26.6217 92.9941 27.4615 93.2448 27.6294 92.7435C28.7212 88.9001 28.5532 84.8896 28.5532 80.879C28.4692 80.3777 27.6294 80.3777 27.6294 80.879Z" fill="#C4BE99"/>
<path d="M32.668 77.0356C32.5 82.8007 32.5 88.5658 32.5 94.4145C32.5 94.9158 33.3398 94.9158 33.3398 94.4145C33.3398 88.6494 33.2558 82.8007 33.5077 77.0356C33.5077 76.4507 32.668 76.4507 32.668 77.0356Z" fill="#C4BE99"/>
<path d="M38.7978 71.8553C38.042 80.7954 38.042 89.7355 37.874 98.6757C37.874 99.177 38.7138 99.177 38.7138 98.6757C38.7978 89.7355 38.8818 80.7954 39.6376 71.8553C39.7215 71.2704 38.7978 71.2704 38.7978 71.8553Z" fill="#C4BE99"/>
<path d="M44.3403 65.0876C45.1801 70.8527 43.9204 76.9521 43.4165 82.7172C43.1646 85.3909 42.9127 87.981 42.9966 90.6547C43.0806 93.7462 43.1646 96.8376 42.2408 99.8455C42.0729 100.347 42.9127 100.597 43.0806 100.096C44.6762 94.9995 43.7524 89.3179 44.1723 84.0541C44.6762 77.7876 46.1038 71.1034 45.1801 64.9205C45.0961 64.3356 44.2563 64.5863 44.3403 65.0876Z" fill="#C4BE99"/>
<path d="M50.7231 63.5C51.9827 69.85 50.3032 76.2836 49.4634 82.6336C49.1275 85.0566 48.9595 87.5632 48.8755 89.9862C48.7076 93.1612 49.1275 96.7539 48.2037 99.7618C48.0358 100.263 48.8755 100.514 49.0435 100.012C49.7153 97.5895 49.4634 94.9993 49.6313 92.4928C49.8833 88.4822 50.0512 84.5553 50.6391 80.5447C51.4789 74.7796 52.7385 69.0145 51.5628 63.2494C51.4789 62.748 50.6391 62.9151 50.7231 63.5Z" fill="#C4BE99"/>
<path d="M56.2651 71.9389C55.9292 76.5342 55.5933 81.1296 55.2574 85.725C54.9215 90.4875 55.3414 95.4171 54.3336 100.013C54.2497 100.514 55.0055 100.764 55.1734 100.263C56.0972 95.9184 55.8453 91.4066 56.0972 86.9783C56.3491 81.9652 56.769 76.952 57.1889 71.9389C57.1049 71.4375 56.2651 71.4375 56.2651 71.9389Z" fill="#C4BE99"/>
<path d="M61.0524 76.3671C61.5562 80.0435 61.3883 83.8033 61.3043 87.5632C61.3043 91.156 61.5562 94.6652 60.9684 98.258C61.2203 98.258 61.4723 98.258 61.8082 98.258C61.8082 98.0909 61.7242 98.0073 61.7242 97.8402C61.5562 97.3389 60.8004 97.506 60.8844 98.0909C60.8844 98.258 60.9684 98.3415 60.9684 98.5086C61.0524 98.9264 61.7242 98.9264 61.8082 98.5086C62.396 94.9159 62.2281 91.2395 62.1441 87.5632C62.1441 83.7198 62.396 79.9599 61.8082 76.2C61.8082 75.6152 60.9684 75.8658 61.0524 76.3671Z" fill="#C4BE99"/>
<path d="M66.6787 81.8817C66.9307 84.4719 67.0986 87.062 67.0986 89.6521C67.0986 92.3258 67.5185 95.3337 66.8467 97.9238C66.6787 98.4251 67.5185 98.6758 67.6865 98.1745C68.2743 96.0021 68.0224 93.8297 67.9384 91.6574C67.8544 88.3988 67.8544 85.1403 67.5185 81.8817C67.4345 81.3804 66.5948 81.3804 66.6787 81.8817Z" fill="#C4BE99"/>
<path d="M72.6412 87.3961C72.5572 88.733 72.5572 90.1534 72.2213 91.4067C72.0533 91.908 72.8931 92.1587 73.0611 91.6573C73.397 90.2369 73.397 88.8165 73.5649 87.3961C73.5649 86.8948 72.7252 86.8948 72.6412 87.3961Z" fill="#C4BE99"/>
<path d="M134.197 57.9856C134.701 57.9856 134.701 57.15 134.197 57.15C133.693 57.15 133.693 57.9856 134.197 57.9856Z" fill="#C4BE99"/>
<path d="M42.1572 30.8309C51.5627 29.8283 60.9683 30.0789 70.3738 30.0789C70.8777 30.0789 70.8777 29.2434 70.3738 29.2434C60.9683 29.2434 51.5627 28.9928 42.1572 29.9954C41.6533 30.079 41.6533 30.9145 42.1572 30.8309Z" fill="#C4BE99"/>
<path d="M43.4165 35.5935C49.8828 36.2619 56.2651 35.5935 62.7314 35.2593C68.1899 34.9251 74.4883 36.5125 79.7789 35.0086C80.2828 34.8415 80.1148 34.0895 79.527 34.1731C76.5038 35.0086 73.2286 34.5073 70.1214 34.4237C67.1822 34.3402 64.327 34.3402 61.3877 34.5073C55.3413 34.8415 49.3789 35.3428 43.4165 34.7579C42.8286 34.6744 42.8286 35.5099 43.4165 35.5935Z" fill="#C4BE99"/>
<path d="M45.5171 41.6928C51.3955 42.4448 57.3579 41.5257 63.2364 41.5257C70.2066 41.4421 77.1767 41.8599 84.1469 41.8599C84.6508 41.8599 84.6508 41.0244 84.1469 41.0244C77.5966 41.0244 71.0463 40.6902 64.4961 40.6902C58.1977 40.6066 51.8154 41.6928 45.5171 40.9408C44.9292 40.7737 44.9292 41.6093 45.5171 41.6928Z" fill="#C4BE99"/>
<path d="M48.2034 47.7923C53.8299 48.3771 59.7084 47.7923 65.4189 47.7087C71.6332 47.6252 77.8476 47.2074 84.062 47.5416C84.5658 47.5416 84.5658 46.7061 84.062 46.7061C78.2675 46.3719 72.473 46.7896 66.6785 46.8732C60.6321 46.9567 54.3338 47.6252 48.2874 46.9567C47.6155 46.8732 47.6155 47.7087 48.2034 47.7923Z" fill="#C4BE99"/>
<path d="M48.2881 52.5547C54.0825 52.7218 59.793 53.9751 65.5875 53.1395C66.0914 53.056 65.9234 52.2204 65.3356 52.304C59.6251 53.1395 53.9986 51.8862 48.2881 51.7191C47.7842 51.6356 47.7842 52.4711 48.2881 52.5547Z" fill="#C4BE99"/>
<path d="M120.677 63.1658C121.265 62.7481 121.936 62.3303 122.608 61.9961C123.112 61.7454 122.692 61.077 122.188 61.2441C121.517 61.5783 120.845 61.9961 120.257 62.4139C119.837 62.7481 120.257 63.5001 120.677 63.1658Z" fill="#C4BE99"/>
<path d="M115.554 60.6593C116.058 60.6593 116.058 59.8237 115.554 59.8237C115.05 59.8237 115.05 60.6593 115.554 60.6593Z" fill="#C4BE99"/>
<path d="M23.4302 52.5548C24.186 51.6357 25.0258 50.8002 26.2855 50.2988C28.5529 49.4633 28.8888 52.137 28.6369 53.3067C28.4689 54.1423 27.7971 54.8107 27.0413 55.2284C26.6214 55.4791 26.8733 55.9804 27.2932 55.9804C29.3927 56.2311 30.1485 57.4844 29.5606 59.7403C29.0567 60.4922 28.4689 61.0771 27.7131 61.4949C25.6136 62.8317 24.0181 60.2416 23.4302 58.6541C23.2623 58.1528 22.4225 58.4034 22.5904 58.9047C23.5142 61.3278 26.1175 64.1686 28.7208 61.8291C30.0645 60.5758 31.1562 59.239 30.5683 57.4008C30.1485 56.064 28.5529 55.312 27.2092 55.2284C27.2932 55.4791 27.3772 55.7298 27.4612 55.9804C29.4766 54.8942 30.2324 52.3877 28.8888 50.4659C27.1253 47.9594 24.102 50.3824 22.8424 51.9699C22.5065 52.3877 23.0943 52.9725 23.4302 52.5548Z" fill="#C4BE99"/>
<path d="M32.5839 59.4896C33.8436 63.2494 37.9585 62.581 39.4701 59.3225C40.2259 57.6514 39.5541 55.7297 38.2944 54.56C36.3629 52.7218 34.6833 55.0613 32.7518 54.8106C32.9198 54.9777 33.0038 55.1448 33.1717 55.3119C33.4237 53.808 33.4237 51.4685 35.2712 51.0508C36.8668 50.7165 38.6303 51.0508 40.2259 51.1343C40.7297 51.1343 40.7297 50.2988 40.2259 50.2988C38.4623 50.2988 35.943 49.6304 34.2634 50.4659C32.7518 51.3014 32.5839 53.5573 32.3319 55.0613C32.248 55.3119 32.4159 55.5626 32.7518 55.5626C33.5916 55.6461 34.2634 55.3119 35.0192 54.8942C37.2027 53.8915 38.8822 55.6461 38.9662 57.8185C39.0502 59.2389 37.7065 60.5757 36.5308 60.9935C35.0192 61.5784 33.9275 60.4086 33.4237 59.0718C33.1717 58.7376 32.3319 58.9882 32.5839 59.4896Z" fill="#C4BE99"/>
<path fill-rule="evenodd" clip-rule="evenodd" d="M136.717 83.1349C137.052 83.6362 137.556 84.7224 136.381 85.0566C135.961 85.1401 135.877 84.1375 135.457 83.8869C135.121 84.054 135.037 84.2211 134.617 84.3046C134.785 84.7224 135.289 85.0566 135.121 85.6415C134.785 85.8086 134.533 85.8086 134.281 85.8921C134.197 85.3073 134.029 85.0566 133.777 84.7224C131.93 85.3908 129.075 85.725 128.403 84.2211C128.235 83.8033 128.067 83.2184 129.075 82.8007C129.662 83.6362 130.082 84.7224 131.594 84.1375C131.846 84.1375 131.678 84.3046 131.678 84.4717C132.182 84.3882 132.938 84.054 133.441 83.9704C132.938 82.0487 131.594 80.0434 130.838 77.9546C128.823 77.9546 126.219 78.1217 125.715 76.2836C125.296 74.7796 126.471 73.1086 128.151 71.7717C128.151 70.7691 127.143 70.0171 127.311 69.098C128.487 68.8474 128.655 70.2678 129.159 71.1033C130.334 70.4349 128.571 69.5994 128.739 68.9309C129.159 68.6803 129.242 68.9309 129.494 69.0145C129.662 68.8474 129.326 68.5967 129.746 68.5132C130.418 68.7638 130.418 69.5994 130.754 70.2678C132.182 69.85 133.525 69.6829 134.533 69.85C134.449 70.3513 135.373 70.8527 134.197 71.354C133.693 70.7691 132.686 70.4349 131.174 71.1033C131.594 72.6908 132.602 74.6961 133.357 76.3671C134.449 76.4507 135.709 76.1165 136.717 76.4507C137.64 76.7013 138.732 77.3698 139.236 77.9546C139.74 78.5395 139.572 79.8763 139.152 80.7119C138.732 81.6309 137.724 82.2994 136.717 83.1349ZM138.48 80.0434C138.984 77.704 135.961 77.1191 133.861 77.704C134.701 79.1244 135.457 80.879 136.381 82.55C137.472 81.798 138.312 80.7954 138.48 80.0434ZM133.609 77.0355C133.945 77.3698 134.785 77.1191 135.373 77.0355C134.953 76.7849 134.281 76.8684 133.609 77.0355ZM129.578 69.7665C129.998 69.6829 129.578 69.4323 129.578 69.2652C129.243 69.3487 129.578 69.5994 129.578 69.7665ZM133.022 78.5395C132.854 78.1217 132.938 77.4533 132.098 77.7875C132.35 79.7092 133.525 81.7145 134.365 83.6362C134.617 83.4691 134.953 83.3855 135.205 83.2184C134.953 82.0487 133.693 79.9599 133.022 78.5395ZM129.326 72.0224C129.662 72.7744 130.082 73.777 130.502 74.6961C130.922 75.5316 130.922 76.8684 132.098 76.6178C131.426 74.8632 130.754 73.4428 129.998 71.6882C129.662 71.7717 129.578 71.9388 129.326 72.0224ZM127.143 76.5342C127.647 77.1191 129.159 77.0355 130.25 76.8684C129.662 75.5316 129.075 74.2783 128.487 72.9415C127.311 73.8606 126.387 75.5316 127.143 76.5342Z" fill="#C4BE99"/>
<path fill-rule="evenodd" clip-rule="evenodd" d="M71.8855 10.277C71.8015 10.4441 71.7176 11.2797 71.2977 11.3632C70.9618 11.3632 70.6258 10.6948 70.206 10.4441C69.4502 10.1099 68.5264 9.94282 67.9386 10.0264C67.6026 10.1099 67.0148 10.277 66.5949 10.4441C66.4269 10.5277 66.343 10.6948 66.175 10.7783C66.091 10.8619 65.9231 10.7783 65.8391 10.7783C65.5032 11.029 65.4192 11.4468 65.1673 11.6974C64.9993 11.8645 64.5794 12.0316 64.6634 12.5329C65.5872 12.6165 66.259 12.8672 66.8468 13.1178C67.3507 13.0343 68.1065 13.3685 68.0225 13.8698C66.8468 13.7862 65.5032 13.3685 64.2435 13.2014C64.1595 13.5356 64.1595 13.8698 64.0756 14.0369C65.3352 14.6218 66.9308 14.7053 68.2745 15.2066C68.4424 15.5408 68.1065 15.5408 68.0225 15.7079C66.6789 15.2902 65.3352 15.1231 64.0756 15.0395C63.9916 15.8751 64.3275 16.7106 64.4115 17.6297C65.3352 18.6323 67.5187 19.6349 68.9463 19.4678C68.9463 19.8856 69.2822 20.3033 69.1142 20.7211C68.7783 20.6376 68.3584 20.8047 68.1065 20.4704C67.3507 20.554 66.259 20.2198 65.5872 19.7185L65.5032 19.5514C65.4192 19.5514 65.3352 19.5514 65.2513 19.4678C65.0833 19.3843 64.9993 19.0501 64.7474 18.7994C64.5794 18.6323 64.4115 18.6323 64.2435 18.4652C64.1595 18.3816 64.1595 18.131 64.0756 18.0474C63.9916 17.8803 63.8236 17.7968 63.7397 17.7132C63.4877 17.2119 63.5717 16.4599 63.2358 15.9586C63.2358 15.6244 63.2358 15.3737 63.1518 15.2066C63.2358 15.0395 63.2358 14.8724 63.1518 14.7053C62.312 14.4547 61.5562 14.2876 60.8844 14.204C60.8004 14.0369 60.8844 13.8698 60.9684 13.7027C61.1363 13.7027 61.3043 13.7862 61.4722 13.7862C61.8082 13.2014 62.48 13.6191 63.3198 13.7862C63.4877 13.6191 63.4877 13.2014 63.5717 12.9507C62.7319 12.6165 62.396 12.5329 61.6402 12.1987C61.6402 12.1152 61.5562 12.0316 61.6402 11.8645C62.228 11.781 63.0678 12.1152 63.8236 12.2823C64.3275 11.4468 64.9153 10.7783 65.5872 10.1099C66.7629 9.85926 67.5187 9.02374 68.9463 9.2744C69.7021 9.19084 71.1297 9.60861 71.4656 10.1935C71.6336 10.1935 71.7176 10.1935 71.8855 10.277ZM70.2899 9.85926C70.4579 10.1099 70.6259 10.277 70.8778 10.1935C70.8778 10.3606 71.2137 10.6112 71.2977 10.6112C71.2137 10.277 71.0457 10.1935 70.5419 10.0264C70.5419 9.94282 70.5419 9.94282 70.5419 9.85926C70.3739 9.77571 70.3739 9.94282 70.2899 9.85926Z" fill="#C4BE99"/>
<path d="M35.2704 116.807C35.0184 116.472 35.1864 116.389 35.1024 116.055C35.0184 115.637 35.0184 115.637 34.9345 115.303C34.8505 114.885 35.0184 114.801 34.7665 114.551C34.5985 114.384 34.5146 114.634 34.2626 114.634C34.0107 114.718 34.0107 114.718 33.7588 114.718C33.5068 114.718 33.5068 114.885 33.2549 114.801C33.0869 114.718 33.2549 114.634 33.1709 114.467C33.1709 114.3 33.1709 114.3 33.0869 114.133C33.0869 113.966 32.919 113.966 33.003 113.799C33.1709 113.632 33.2549 113.715 33.5068 113.715C33.7588 113.632 33.7588 113.632 34.0107 113.632C34.2626 113.548 34.3466 113.715 34.5146 113.548C34.6825 113.381 34.4306 113.297 34.4306 113.047C34.3466 112.796 34.3466 112.796 34.3466 112.545C34.2626 112.295 34.4306 112.211 34.2626 112.044C34.0107 111.877 34.0107 112.128 33.7588 112.128C33.5068 112.211 33.5068 112.211 33.2549 112.211C33.003 112.211 33.003 112.378 32.751 112.295C32.5831 112.211 32.751 112.128 32.6671 111.961C32.6671 111.793 32.6671 111.793 32.5831 111.626C32.5831 111.459 32.4151 111.459 32.4991 111.292C32.6671 111.125 32.751 111.209 33.003 111.209C33.2549 111.125 33.2549 111.125 33.5068 111.125C33.7588 111.041 34.0107 111.292 34.0107 111.041C34.0947 110.206 33.8427 110.206 33.6748 109.454C33.5068 108.618 33.5068 108.618 33.3389 107.867C33.1709 107.031 32.5831 106.947 33.003 106.279C33.3389 105.694 33.6748 106.112 34.4306 105.945C35.1024 105.778 35.1024 105.778 35.8582 105.611C36.614 105.443 36.53 105.443 37.2858 105.276C37.8737 105.109 38.4615 105.109 38.9654 105.193C39.5532 105.276 40.0571 105.527 40.477 105.945C40.8969 106.279 41.1488 106.78 41.2328 107.449C41.4008 108.034 41.3168 108.618 41.1488 109.12C40.9809 109.621 40.645 110.122 40.1411 110.457C39.7212 110.707 39.2173 110.958 38.5455 111.125C38.0416 111.209 38.0416 111.209 37.5378 111.376C37.0339 111.459 37.0339 111.459 36.53 111.626C36.0262 111.71 35.9422 111.543 35.5223 111.877C35.3543 112.044 35.6063 112.128 35.6063 112.378C35.6903 112.629 35.6903 112.629 35.6903 112.88C35.7742 113.13 35.5223 113.297 35.7742 113.381C36.53 113.465 36.53 113.214 37.2019 113.047C37.9577 112.88 37.9577 112.88 38.6295 112.713C39.3853 112.545 39.3013 112.378 40.0571 112.378C40.2251 112.378 40.0571 112.545 40.1411 112.713C40.1411 112.88 40.1411 112.88 40.2251 113.047C40.2251 113.214 40.477 113.297 40.309 113.381C39.6372 113.715 39.5532 113.548 38.8814 113.715C38.1256 113.882 38.1256 113.882 37.4538 114.049C36.782 114.216 36.53 113.882 36.0262 114.384C35.6903 114.634 36.1101 114.801 36.1941 115.136C36.2781 115.553 36.2781 115.553 36.3621 115.888C36.4461 116.305 36.614 116.305 36.53 116.64C36.53 116.807 36.3621 116.64 36.1941 116.723C36.0262 116.723 36.0262 116.723 35.8582 116.807C35.4383 116.807 35.4383 116.974 35.2704 116.807ZM35.1024 110.958C35.5223 111.292 35.6063 110.874 36.1102 110.707C36.614 110.624 36.614 110.624 37.1179 110.457C37.6218 110.373 37.6218 110.373 38.1256 110.206C38.5455 110.122 38.8814 109.955 39.2173 109.788C39.5532 109.538 39.8052 109.287 39.9731 108.953C40.1411 108.618 40.1411 108.201 40.0571 107.783C39.9731 107.365 39.8052 107.031 39.5532 106.78C39.3013 106.53 38.9654 106.363 38.5455 106.279C38.2096 106.195 37.7897 106.279 37.3698 106.363C36.866 106.446 36.866 106.446 36.3621 106.613C35.8582 106.697 35.8582 106.697 35.3543 106.864C34.8505 106.947 34.5985 106.613 34.3466 107.115C34.0947 107.699 34.5146 107.783 34.5985 108.368C34.7665 109.036 34.8505 108.953 34.8505 109.621C34.8505 110.373 34.5985 110.54 35.1024 110.958Z" fill="#C4BE99"/>
</svg>
