<svg width="191" height="160" viewBox="0 0 191 160" fill="none" xmlns="http://www.w3.org/2000/svg">
<path d="M60.2547 21.3684C55.5061 24.7368 50.2298 28.2105 48.4359 34.1053C46.3254 40.7368 47.6972 45.4737 52.9735 50C53.7122 50.6316 54.6619 49.5789 53.9232 48.9474C48.3304 44.2105 47.5917 38.6316 50.863 32.2105C52.9735 28 57.4055 25.2632 61.0989 22.6316C61.7321 22 60.9934 20.7368 60.2547 21.3684Z" fill="#EAC7C7"/>
<path d="M106.686 30.3158C103.942 31.0526 100.987 30.9473 98.3492 32C97.505 32.3158 97.9271 33.7895 98.7713 33.3684C101.409 32.2105 104.364 32.421 107.108 31.6842C107.952 31.3684 107.53 30 106.686 30.3158Z" fill="#EAC7C7"/>
<path d="M60.5713 22.4211C58.7774 23.8947 57.1945 25.6842 55.1895 26.8421C53.7122 27.6842 52.1293 27.8947 50.7575 29.0526C50.0188 29.6842 51.0741 30.6316 51.8127 30C53.2901 28.7369 55.5061 28.4211 57.089 27.2632C58.6719 26.1053 60.0437 24.6316 61.6266 23.3684C62.3652 22.8421 61.31 21.8947 60.5713 22.4211Z" fill="#EAC7C7"/>
<path d="M60.7823 25.2632C61.0989 26.1053 62.4707 25.6842 62.1541 24.8421C61.8376 23.8947 60.4657 24.3158 60.7823 25.2632Z" fill="#EAC7C7"/>
<path d="M56.0338 29.6842C54.7675 30 53.5012 30.4211 52.2349 31.0526C51.2851 31.4737 49.7023 32.2105 49.3857 33.1579C49.2802 33.5789 49.5967 34.1053 50.1244 34C50.4409 34 50.652 33.7895 50.9686 33.6842C51.9183 33.4737 51.4962 32.1053 50.5465 32.3158C50.4409 32.3158 49.8078 32.5263 50.1244 32.5263C50.3354 32.8421 50.652 33.1579 50.863 33.3684C50.9686 33.0526 52.7625 32.3158 53.0791 32.1053C54.1343 31.5789 55.2951 31.1579 56.4559 30.9474C57.4056 30.8421 56.9835 29.4737 56.0338 29.6842Z" fill="#EAC7C7"/>
<path d="M54.7674 32.4211C52.3403 33.2632 50.3354 34.8422 48.3304 36.4211C47.5917 37.0527 48.647 38.0001 49.3856 37.3685C51.1795 35.8948 52.9735 34.4211 55.1895 33.6843C56.1392 33.4737 55.7171 32.1053 54.7674 32.4211Z" fill="#EAC7C7"/>
<path d="M55.7172 34.4211C53.5011 35.0527 51.2851 35.8948 49.5967 37.6843C48.9636 38.3159 50.0188 39.3685 50.652 38.6316C52.1293 37.158 54.1343 36.4211 56.1393 35.7895C56.9835 35.579 56.5614 34.2106 55.7172 34.4211Z" fill="#EAC7C7"/>
<path d="M56.7724 35.6842C54.3453 36.9474 51.4961 38.2105 49.2801 40C48.5414 40.5263 49.2801 41.7895 50.0188 41.2632C52.2348 39.579 54.9784 38.3158 57.511 36.9474C58.3552 36.5263 57.511 35.2632 56.7724 35.6842Z" fill="#EAC7C7"/>
<path d="M55.7172 38.7368C53.3956 40 50.1244 40.9474 48.7526 43.4737C48.3305 44.3158 49.5968 44.9474 50.0189 44.1053C51.1796 42 54.3454 40.9474 56.4559 39.8947C57.3001 39.4737 56.5614 38.3158 55.7172 38.7368Z" fill="#EAC7C7"/>
<path d="M55.9282 42.421C54.7674 43.0526 53.7122 43.5789 52.5514 44.2105C51.8127 44.6316 50.7575 45.1579 50.652 46.1053C50.4409 47.0526 51.9183 47.3684 52.0238 46.421C52.1293 45.8947 53.3956 45.3684 53.8177 45.1579C54.7674 44.6316 55.7172 44.2105 56.6669 43.6842C57.5111 43.1579 56.7724 42 55.9282 42.421Z" fill="#EAC7C7"/>
<path d="M58.4608 43.6843C58.7774 44.5264 60.1492 44.1053 59.8327 43.2632C59.6216 42.4211 58.2498 42.7369 58.4608 43.6843Z" fill="#EAC7C7"/>
<path d="M40.5216 58.3158C38.7276 58.8421 36.9337 59.4737 35.4564 60.5263C34.7177 61.0526 35.4564 62.3158 36.195 61.7895C37.6724 60.8421 39.2553 60.3158 40.9437 59.6842C41.8934 59.3684 41.4713 58 40.5216 58.3158Z" fill="#EAC7C7"/>
<path d="M38.7277 61.6843C36.9337 62.4211 35.2453 63.3685 33.5569 64.4211C32.8183 64.9475 33.5569 66.1054 34.2956 65.6843C35.773 64.7369 37.3558 63.7896 39.0442 63.0527C39.994 62.7369 39.5719 61.3685 38.7277 61.6843Z" fill="#EAC7C7"/>
<path d="M39.5718 62.2106C37.5669 63.7895 35.2453 65.2632 33.2403 66.8422C32.9238 67.158 32.7127 67.6843 33.1348 68.0001C33.2403 68.1053 33.2403 68.1053 33.3459 68.2106C33.5569 68.4211 33.979 68.5264 34.1901 68.3159C34.4011 68.2106 34.5066 68.0001 34.7177 67.7895C35.4564 67.2632 34.7177 66.0001 33.979 66.5264C33.768 66.6316 33.6624 66.8422 33.4514 67.0527C33.768 67.0527 34.0845 67.158 34.2956 67.158C34.1901 67.0527 34.1901 67.0527 34.0845 66.9474C34.0845 67.3685 33.979 67.6843 33.979 68.1053C35.984 66.4211 38.3055 65.0527 40.3105 63.4737C41.0492 62.8422 40.3105 61.579 39.5718 62.2106Z" fill="#EAC7C7"/>
<path d="M39.5718 65.0527C37.2503 66.9475 34.5067 68.3159 32.1851 70.2106C31.4464 70.8422 32.5017 71.7896 33.2404 71.158C35.4564 69.2633 38.0945 68.1054 40.3105 66.2106C41.0492 65.6843 40.3105 64.5264 39.5718 65.0527Z" fill="#EAC7C7"/>
<path d="M37.989 70.2105C36.9337 70.5263 35.984 70.9474 35.0343 71.3684C34.1901 71.6842 34.6122 73.0526 35.4564 72.7369C36.4061 72.3158 37.4613 72 38.4111 71.579C39.3608 71.2632 38.9387 69.8948 37.989 70.2105Z" fill="#EAC7C7"/>
<path d="M40.9437 72.0001C41.2603 72.8422 42.6321 72.4211 42.3155 71.579C41.9989 70.7369 40.6271 71.158 40.9437 72.0001Z" fill="#EAC7C7"/>
<path d="M43.3708 74.4211C43.6874 75.2632 45.0592 74.8421 44.7426 74C44.4261 73.1579 43.0542 73.4737 43.3708 74.4211Z" fill="#EAC7C7"/>
<path d="M43.1597 76.5263C43.4763 77.3684 44.8481 76.9474 44.5315 76.1053C44.3205 75.2632 42.9486 75.6842 43.1597 76.5263Z" fill="#EAC7C7"/>
<path d="M45.2702 77.3684C45.7979 77.4737 46.2199 77.7895 46.5365 78.2105C46.642 77.8947 46.642 77.5789 46.7476 77.2631C44.215 78.5263 41.4713 79.2631 38.8332 80.2105C37.989 80.5263 38.4111 81.8947 39.2553 81.5789C41.999 80.5263 44.8481 79.7895 47.4862 78.5263C47.8028 78.3158 47.9083 77.7895 47.6973 77.5789C47.1697 76.7368 46.431 76.421 45.5868 76.1052C44.7426 75.6842 44.426 77.0526 45.2702 77.3684Z" fill="#EAC7C7"/>
<path d="M40.2051 75.7895C39.3609 76.0001 38.6222 76.3159 37.8835 76.6316C37.0393 76.9474 36.3006 77.4737 35.4564 77.7895C35.773 77.8948 35.9841 78.0001 36.3006 78.1053C36.3006 78.3158 36.3006 78.6316 36.3006 78.8422C36.4062 78.5264 36.6172 78.2106 36.6172 77.8948C36.6172 76.9474 35.2454 77.0527 35.1399 77.8948C35.1399 78.3159 34.8233 78.4211 35.0343 78.9474C35.1399 79.2632 35.562 79.3685 35.8785 79.2632C36.6172 78.9474 37.2504 78.5264 37.989 78.2106C38.8332 77.7895 39.783 77.4737 40.6272 77.2632C41.4714 76.8422 41.1548 75.4737 40.2051 75.7895Z" fill="#EAC7C7"/>
<path d="M42.9486 72.3159C43.2652 73.158 44.637 72.7369 44.3205 71.8948C44.1094 71.0527 42.7376 71.4738 42.9486 72.3159Z" fill="#EAC7C7"/>
<path d="M39.6774 72.3158C37.5669 72.9473 35.3509 73.5789 33.5569 74.9474C32.8183 75.4737 33.5569 76.7368 34.2956 76.2105C35.8785 74.8421 38.0945 74.3158 39.994 73.6842C41.0492 73.4737 40.6271 72.1052 39.6774 72.3158Z" fill="#EAC7C7"/>
<path d="M46.642 79.2633C45.3757 80.0001 44.0038 80.7369 43.0541 81.8948C42.421 82.6317 43.4762 83.579 44.1094 82.8422C45.0591 81.7896 46.2199 81.0527 47.3806 80.4211C48.2248 80.1054 47.4862 78.8422 46.642 79.2633Z" fill="#EAC7C7"/>
<path d="M49.1746 80.7369C48.1194 81.158 47.0641 81.7895 46.2199 82.4211C45.4812 82.9474 46.2199 84.2106 46.9586 83.6843C47.8028 83.0527 48.647 82.5264 49.5967 82.1053C50.4409 81.7895 50.0188 80.4211 49.1746 80.7369Z" fill="#EAC7C7"/>
<path d="M50.6519 81.7896C49.8077 82.2106 49.0691 82.5264 48.3304 83.0527C47.6972 83.4738 46.9586 83.8948 47.0641 84.7369C47.2751 85.6843 48.647 85.2632 48.4359 84.3159C48.5414 84.6317 48.3304 84.8422 48.4359 84.6317C48.5414 84.5264 48.5414 84.5264 48.647 84.4211C48.9635 84.2106 49.2801 84.0001 49.5967 83.8948C50.2298 83.579 50.7575 83.2633 51.3906 82.9475C52.3403 82.5264 51.4961 81.3685 50.6519 81.7896Z" fill="#EAC7C7"/>
<path d="M55.084 81.7895C53.8177 82.421 52.5514 82.9474 51.2851 83.6842C50.5464 84.1053 48.858 84.9474 48.858 86C48.858 86.3158 49.1746 86.7368 49.5967 86.7368C49.8078 86.7368 49.9133 86.6316 50.1243 86.5263C50.9685 86.2105 50.5464 84.8421 49.7022 85.1579C49.5967 85.1579 49.1746 85.2631 49.5967 85.2631C49.8078 85.4737 50.1243 85.6842 50.3354 86C50.3354 85.8947 52.5514 84.7368 52.7625 84.5263C53.7122 84 54.7674 83.5789 55.8227 83.0526C56.6669 82.6316 55.9282 81.4737 55.084 81.7895Z" fill="#EAC7C7"/>
<path d="M58.4608 82.8422C56.9834 83.579 55.4005 83.8948 53.8177 84.5264C52.7624 84.9475 51.2851 85.3685 50.7574 86.4211C50.3353 87.2632 51.6016 87.8948 52.0237 87.0527C52.4458 86.1053 54.7674 85.6843 55.6116 85.3685C56.7724 84.9475 58.0387 84.6317 59.1994 84.1054C60.0436 83.6843 59.1994 82.5264 58.4608 82.8422Z" fill="#EAC7C7"/>
<path d="M58.9884 84.4211C56.7724 85.7896 54.4508 87.158 52.2348 88.5264C52.4459 88.9475 52.7624 89.3685 52.9735 89.7896C53.1845 89.579 53.3956 89.4738 53.6066 89.3685C54.3453 88.8422 53.6066 87.579 52.8679 88.1054C52.6569 88.2106 52.4459 88.4211 52.2348 88.5264C51.4961 89.0527 52.2348 90.2106 52.9735 89.7896C55.295 88.5264 57.511 87.0527 59.7271 85.6843C60.5713 85.158 59.7271 83.8948 58.9884 84.4211Z" fill="#EAC7C7"/>
<path d="M59.6216 85.579C58.2497 86.5264 56.8779 87.3685 55.5061 88.3158C55.084 88.6316 54.5564 88.9474 54.1343 89.2632C53.9232 89.3685 53.1845 90 53.2901 90C53.5011 90.2106 53.8177 90.4211 54.0287 90.7369V90.6316C53.9232 89.6843 52.5514 89.7895 52.5514 90.6316V90.7369C52.5514 91.1579 52.868 91.4737 53.2901 91.4737C54.0287 91.3685 54.6619 90.6316 55.295 90.2106C56.9834 89.0527 58.6718 88 60.3602 86.8422C61.2044 86.2106 60.4658 85.0527 59.6216 85.579Z" fill="#EAC7C7"/>
<path d="M59.4106 88.2106C57.7222 89.6842 55.8227 91.0527 54.0288 92.3158C54.2399 92.7369 54.5564 93.1579 54.7675 93.579C54.873 93.579 54.9785 93.4737 54.9785 93.4737C55.8227 93.1579 55.4006 91.7895 54.5564 92.1053C54.3454 92.2106 54.1343 92.2106 53.9233 92.4211C53.1846 92.9474 53.9233 94.2106 54.662 93.6842C56.6669 92.3158 58.5664 90.8421 60.3603 89.2632C61.2045 88.6316 60.1492 87.6842 59.4106 88.2106Z" fill="#EAC7C7"/>
<path d="M58.8828 91.0526C57.511 92 56.0337 92.7368 54.9784 94.1052C54.6618 94.6316 55.295 95.3684 55.8226 95.1579C56.0337 95.0526 56.2447 94.9473 56.3502 94.8421C57.0889 94.3158 56.3502 93.0526 55.6116 93.5789C55.6116 93.5789 55.1895 93.7895 55.4005 93.7895C55.7171 94.1052 55.9281 94.421 56.2447 94.8421C56.9834 93.6842 58.5663 93.1579 59.6215 92.3158C60.3602 91.7895 59.6215 90.5263 58.8828 91.0526Z" fill="#EAC7C7"/>
<path d="M59.4105 93.7895C58.6719 94.1052 58.0387 94.5263 57.4056 95.0526C56.6669 95.5789 57.4056 96.8421 58.1443 96.3158C58.7774 95.8947 59.4106 95.4737 60.1492 95.0526C60.9934 94.6316 60.2547 93.3684 59.4105 93.7895Z" fill="#EAC7C7"/>
<path d="M60.8879 95.0527C59.8327 95.7896 58.6719 96.4211 57.8277 97.3685C57.1945 98.0001 58.2498 99.0527 58.8829 98.3159C59.7271 97.4738 60.7824 96.8422 61.7321 96.2106C62.4708 95.6843 61.6266 94.5264 60.8879 95.0527Z" fill="#EAC7C7"/>
<path d="M62.0487 97.7896C61.4155 98.1054 60.8879 98.4212 60.2547 98.7369C59.4105 99.158 60.1492 100.421 60.9934 100C61.6266 99.6843 62.1542 99.3685 62.7874 99.0527C63.6316 98.5264 62.7874 97.3685 62.0487 97.7896Z" fill="#EAC7C7"/>
<path d="M64.4757 98.8421C64.7923 99.6842 66.1641 99.2632 65.8475 98.4211C65.5309 97.5789 64.1591 98 64.4757 98.8421Z" fill="#EAC7C7"/>
<path d="M102.676 32.4211C101.198 32.6316 99.7211 32.9474 98.2437 33.2632C97.294 33.4737 97.7161 34.8421 98.6658 34.6316C100.143 34.3158 101.621 34.1053 103.098 33.7895C104.048 33.6842 103.625 32.3158 102.676 32.4211Z" fill="#EAC7C7"/>
<path d="M102.992 34.8421C103.309 35.6843 104.681 35.2632 104.364 34.4211C104.153 33.4737 102.781 33.8948 102.992 34.8421Z" fill="#EAC7C7"/>
<path d="M100.565 37.0527C100.882 37.8948 102.254 37.4737 101.937 36.6316C101.621 35.7895 100.354 36.2106 100.565 37.0527Z" fill="#EAC7C7"/>
<path d="M100.565 34.2106C100.249 34.3158 99.8265 34.4211 99.51 34.4211C98.5602 34.5263 98.6658 35.8948 99.51 35.8948C100.038 35.8948 100.46 35.7895 100.987 35.579C101.832 35.3685 101.409 33.8948 100.565 34.2106Z" fill="#EAC7C7"/>
<path d="M123.886 115.579C129.162 122.947 139.398 116.105 143.936 111.368C146.996 108.105 149.001 103.895 148.896 99.4737C148.79 97.3685 147.84 95.579 146.785 93.8948C144.78 91.0527 151.745 88.8421 153.855 87.579C165.674 80.3158 169.262 60 161.136 48.9474C157.971 44.7369 151.745 40.9474 146.257 42.2106C138.66 44 133.278 50.9474 129.796 57.579C130.218 57.7895 130.64 57.8948 131.167 58.1053C133.594 47.8948 128.635 36.8421 119.876 31.1579C116.183 28.7369 111.751 28.9474 107.846 30.6316C105.947 31.4737 104.048 32.7369 102.465 34.1053C101.093 35.2632 99.6155 38.1053 99.2989 34.4211C99.0878 32.6316 98.9823 32.4211 98.3492 30.6316C95.0779 21.1579 82.5204 14.4211 72.8122 16.1053C62.7873 17.7895 54.5564 27.2632 56.2448 37.579C56.4558 38.9474 59.8326 46.7369 57.8276 47.579C55.084 48.5264 52.3403 49.3685 49.5967 50.3158C45.3757 51.8948 42.21 54.4211 40.3105 58.5264C36.195 67.3685 40.205 77.6843 48.858 81.4737C51.1796 82.5264 53.8177 82.9474 56.3503 83.1579C57.4055 83.2632 58.5663 83.2632 59.6216 83.3685C62.1542 83.4737 60.7823 88.4211 60.4658 89.579C59.516 94.4211 62.8928 99.1579 65.8475 102.632C74.0785 112.526 87.1635 110.211 98.0326 106.842C97.716 106.526 97.505 106.211 97.1884 105.79C90.3293 123.263 74.2895 143.053 53.2901 140C52.3403 139.895 52.0238 141.263 52.9735 141.368C68.8022 144.421 84.7365 136.842 95.8166 125.895C97.6105 124.105 104.364 112.632 107.424 114.947C109.535 116.526 112.278 117.79 114.917 117.79C122.725 117.895 128.635 112.737 133.172 106.842C133.7 106.105 132.645 105.158 132.117 105.895C126.102 113.79 116.922 120.105 107.53 113.263C104.364 110.947 101.409 116.737 99.932 118.632C89.1685 132.632 71.6514 143.474 53.2901 140C53.1845 140.421 53.079 140.947 52.9735 141.368C74.6061 144.526 91.279 124.526 98.4547 106.421C98.6658 105.895 98.2437 105.158 97.6105 105.368C87.3746 108.526 76.7166 110.526 68.0635 102.737C65.4254 100.316 63.526 97.1579 62.2597 93.8948C61.2044 91.0527 62.1542 88.4211 62.5762 85.579C62.6818 84.5264 62.4707 82.5264 61.3099 82.1053C58.0387 80.9474 54.0287 81.4737 50.6519 80.5264C44.9536 78.8421 41.3658 74.3158 40.416 68.6316C39.4663 62.7369 41.5768 56.6316 46.5365 53.2632C50.3354 50.7369 55.295 49.8948 59.6216 48.3158C59.9381 48.2106 60.1492 47.8948 60.1492 47.579C59.7271 42.9474 57.6166 38.8421 57.3 34.2106C56.8779 26.7369 63.9481 20.3158 70.2796 18C76.2945 15.6843 83.4702 18.3158 88.7464 21.3685C95.1834 25.2632 97.0829 31.2632 98.3492 38.2106C98.4547 38.7369 99.1934 38.8421 99.6155 38.5264C106.264 32.2106 113.439 27.7895 121.776 34.2106C128.529 39.4737 131.695 49.579 129.796 57.6843C129.585 58.5264 130.745 58.9474 131.167 58.2106C134.544 51.6843 140.137 44.2106 148.051 43.4737C155.755 42.6316 161.981 50.6316 163.564 57.2632C165.463 65.0527 163.141 73.2632 159.343 80C155.755 86.3158 148.685 87.0527 144.358 92.2106C144.147 92.5264 144.147 92.9474 144.358 93.2632C155.649 104.316 132.539 124.947 125.364 114.947C124.625 114.105 123.359 114.842 123.886 115.579Z" fill="#EAC7C7"/>
<path d="M42.9486 53.3684C33.4514 58.8421 26.9088 72.1053 38.6221 79.5789C41.5768 81.4737 44.0039 83.7895 46.853 85.6842C48.1193 86.5263 49.1746 86.9474 50.6519 87.3684C52.0238 87.7895 51.1796 88.7368 51.4961 89.5789C52.5514 92.421 54.7674 94.2105 56.8779 96.421C59.6215 99.1579 61.521 102 64.8978 104.211C71.0182 108.316 72.179 114 80.1989 113.789C83.6812 113.684 87.1635 112.526 90.5403 111.474C89.5906 111.789 88.0077 115.474 87.3746 116.316C86.1083 117.895 84.5254 119.263 83.0481 120.632C80.1989 123.158 76.8221 125.474 73.2342 127.053C70.9127 128 68.4856 129.053 65.953 129.263C64.5812 129.368 63.1039 128.842 61.8376 129.368C58.2497 130.842 53.079 135.053 53.2901 139.263C53.2901 140.211 54.7674 140.105 54.7674 139.263C54.6619 136.842 56.9834 134.737 58.5663 133.263C61.3099 130.526 64.1591 130.947 67.5359 130.632C70.7017 130.316 74.184 128.526 77.0331 126.947C83.1536 123.579 90.5403 117.684 92.4398 110.632C92.5453 110.105 92.0177 109.579 91.49 109.789C87.7967 110.947 84.2088 112 80.4099 112.421C74.7116 113.053 73.6563 109.053 70.174 106.105C67.2193 103.579 63.737 101.895 60.9934 99.0526C58.6718 96.6316 52.3403 90.5263 53.3956 87.1579C53.5011 86.8421 53.1845 86.3158 52.8679 86.3158C48.7525 85.7895 46.7475 83.4737 43.7928 81.0526C40.8381 78.6316 37.5668 77.7895 35.4563 74.2105C30.6022 66.1053 37.1447 58.6316 43.8983 54.7368C44.5315 54.1053 43.6873 52.8421 42.9486 53.3684Z" fill="#EAC7C7"/>
<path d="M103.098 118.316C106.58 119.474 109.851 120.421 113.439 119.368C115.339 118.842 117.238 117.579 119.032 116.842C121.776 115.684 123.253 118.526 124.836 119.895C128.635 123.158 135.283 118.211 137.077 115.053C137.499 114.211 136.232 113.579 135.81 114.421C133.594 118.211 127.791 121.368 124.097 117.158C123.464 116.421 122.409 114.947 121.248 115.053C119.771 115.158 118.504 115.474 117.133 116.211C112.173 118.632 108.691 118.842 103.414 117.053C102.57 116.632 102.253 118 103.098 118.316Z" fill="#EAC7C7"/>
<path d="M139.926 42.4211C136.444 43.0527 133.172 44.9474 130.429 47.158C129.69 47.6843 130.323 48.8422 131.168 48.4211C135.177 46.1053 139.609 44.6316 143.936 43.4737C144.78 43.2632 144.464 41.8948 143.514 42.1053C138.976 43.3685 134.439 44.8422 130.323 47.2632C130.534 47.6843 130.851 48.1053 131.062 48.5264C133.7 46.3158 136.76 44.5264 140.137 44.0001C141.298 43.579 140.876 42.2106 139.926 42.4211Z" fill="#EAC7C7"/>
<path d="M63.4204 101.053C62.9983 101.368 62.5762 101.684 62.1541 102.105C61.5209 102.842 62.5762 103.789 63.2093 103.053C63.5259 102.737 63.737 102.526 64.1591 102.316C65.0033 101.789 64.2646 100.632 63.4204 101.053Z" fill="#EAC7C7"/>
<path d="M66.6917 101.684C67.0083 102.526 68.3801 102.105 68.0636 101.263C67.747 100.421 66.3752 100.842 66.6917 101.684Z" fill="#EAC7C7"/>
<path d="M67.3249 102.842C66.4807 103.474 65.531 104.105 64.8978 104.842C64.3702 105.579 65.3199 106.526 65.9531 105.79C66.5862 105.053 67.3249 104.526 68.0636 104C68.8022 103.474 67.958 102.316 67.3249 102.842Z" fill="#EAC7C7"/>
<path d="M68.6967 103.684C67.8525 104.105 67.0083 104.632 66.2696 105.158C65.5309 105.684 66.2696 106.947 67.0083 106.421C67.7469 105.895 68.5912 105.368 69.4354 104.947C70.2796 104.526 69.4354 103.263 68.6967 103.684Z" fill="#EAC7C7"/>
<path d="M70.174 104.211C69.0132 104.842 67.7469 105.368 67.0082 106.526C66.4806 107.263 67.7469 108 68.2745 107.158C68.9077 106.316 70.174 105.895 71.0182 105.368C71.7569 104.947 71.0182 103.79 70.174 104.211Z" fill="#EAC7C7"/>
<path d="M72.1791 105.263C71.5459 105.684 71.0183 106.105 70.3851 106.632C69.963 106.947 69.1189 107.579 69.2244 108.211C69.3299 109.158 70.8073 109.053 70.7017 108.211C70.7017 108.421 70.5962 108.421 70.7017 108.421C70.8073 108.316 70.8072 108.316 70.9128 108.211C71.1238 108 71.3349 107.79 71.6515 107.684C72.0736 107.368 72.6012 106.947 73.1288 106.632C73.762 105.895 72.9178 104.632 72.1791 105.263Z" fill="#EAC7C7"/>
<path d="M72.2846 106.947C71.5459 107.579 70.8072 108.105 70.2796 108.842C69.6464 109.579 70.7017 110.526 71.3348 109.79C71.968 109.053 72.7067 108.526 73.3398 107.895C73.6564 107.684 73.5509 107.158 73.3398 106.842C73.0232 106.632 72.6011 106.737 72.2846 106.947Z" fill="#EAC7C7"/>
<path d="M73.8674 108.105C73.1288 108.526 72.2846 109.053 71.6514 109.579C70.9128 110.105 71.6514 111.369 72.3901 110.842C73.1288 110.316 73.8674 109.79 74.6061 109.369C75.4503 108.842 74.7116 107.579 73.8674 108.105Z" fill="#EAC7C7"/>
<path d="M76.9277 108.632C75.7669 109.263 74.7116 110.105 73.7619 110.842C73.0232 111.368 73.7619 112.632 74.5006 112.105C75.5558 111.263 76.6111 110.526 77.6663 109.895C78.5105 109.368 77.7719 108.105 76.9277 108.632Z" fill="#EAC7C7"/>
<path d="M79.8823 109.474C78.827 110 74.1839 112.211 75.5557 113.895C76.1889 114.632 77.1386 113.579 76.5055 112.842C76.822 113.263 76.5055 113.579 76.7165 113.263C76.822 113.158 77.0331 112.947 77.1386 112.842C77.5607 112.526 77.9828 112.211 78.4049 111.895C79.0381 111.474 79.7767 111.053 80.5154 110.632C81.4651 110.316 80.7265 109.053 79.8823 109.474Z" fill="#EAC7C7"/>
<path d="M82.626 109.684C81.5707 110.526 80.1989 111.053 79.5657 112.316C79.2491 112.947 79.9878 113.579 80.621 113.263C80.7265 113.263 80.832 113.158 80.9375 113.158C81.8873 112.947 81.4652 111.579 80.5155 111.79C80.3044 111.79 80.0933 111.895 79.8823 112C80.1989 112.316 80.5154 112.632 80.9375 112.947C81.4652 111.895 82.837 111.368 83.7867 110.632C84.4199 110.105 83.3646 109.158 82.626 109.684Z" fill="#EAC7C7"/>
<path d="M86.0028 109.053C84.842 110 83.1536 110.737 82.5205 112.211C82.3094 112.632 82.626 113.368 83.1536 113.263C84.1033 113.158 84.842 112.737 85.5807 112C86.3194 111.368 85.2641 110.421 84.5254 111.053C84.1033 111.368 83.6812 111.684 83.1536 111.789C83.3647 112.105 83.5757 112.526 83.7868 112.842C84.3144 111.579 85.7917 110.947 86.7415 110.211C87.4801 109.684 86.7415 108.421 86.0028 109.053Z" fill="#EAC7C7"/>
<path d="M88.7464 109.263C87.7967 110.211 86.6359 110.842 85.6862 111.895C85.2641 112.316 85.5807 113.158 86.2138 113.053C86.7415 112.947 87.1636 112.737 87.5857 112.526C88.3243 112 87.5857 110.842 86.847 111.263C86.6359 111.368 86.4249 111.579 86.2138 111.579C86.4249 112 86.5304 112.421 86.7415 112.737C87.6912 111.79 88.852 111.158 89.8017 110.105C90.4348 109.579 89.3796 108.632 88.7464 109.263Z" fill="#EAC7C7"/>
<path d="M91.5956 108.632C90.857 109.158 90.0127 109.579 89.2741 110.105C88.6409 110.526 87.7967 111.158 88.3243 112C88.7464 112.842 90.0128 112 89.5907 111.263C89.9072 111.789 89.3796 111.895 89.9072 111.579C90.2238 111.368 90.5404 111.158 90.7514 110.947C91.2791 110.632 91.8067 110.211 92.4398 109.895C93.1785 109.368 92.3343 108.105 91.5956 108.632Z" fill="#EAC7C7"/>
<path d="M94.4448 109.474C92.3343 110.632 90.1183 111.368 88.3244 113.053C87.7967 113.579 88.4299 114.421 89.063 114.211C89.3796 114.105 89.6962 114 89.9072 113.895C90.7514 113.579 90.3293 112.211 89.4851 112.526C89.1686 112.632 88.852 112.737 88.6409 112.842C88.852 113.263 89.1686 113.579 89.3796 114C91.068 112.526 93.284 111.79 95.1835 110.737C96.0277 110.211 95.1835 108.947 94.4448 109.474Z" fill="#EAC7C7"/>
<path d="M93.8116 112C91.8066 113.158 89.6961 114.211 87.6911 115.368C86.8469 115.789 87.6911 117.053 88.4298 116.632C90.4348 115.474 92.5453 114.421 94.5502 113.263C95.2889 112.737 94.5503 111.474 93.8116 112Z" fill="#EAC7C7"/>
<path d="M91.3845 115.474C89.6961 116.421 87.9022 116.947 86.0027 117.368C85.053 117.579 85.4751 118.947 86.4248 118.737C88.4298 118.316 90.3293 117.684 92.1232 116.737C92.9674 116.211 92.1232 115.053 91.3845 115.474Z" fill="#EAC7C7"/>
<path d="M88.1133 118.842C85.8973 119.369 83.6812 119.895 81.3597 120.105C80.41 120.211 80.5155 121.684 81.3597 121.579C83.7868 121.263 86.1083 120.737 88.4299 120.211C89.4851 120.105 89.063 118.737 88.1133 118.842Z" fill="#EAC7C7"/>
<path d="M85.6862 121.369C83.1536 121.895 80.5154 122.421 77.9828 122.947C77.0331 123.053 77.4552 124.526 78.4049 124.316C80.9375 123.895 83.5757 123.369 86.1083 122.737C87.058 122.526 86.6359 121.158 85.6862 121.369Z" fill="#EAC7C7"/>
<path d="M85.0531 123.79C82.2039 123.368 79.2492 124.737 76.4 124.211C75.4503 124 75.1337 125.474 76.0834 125.579C78.9326 126.105 81.7818 124.737 84.7365 125.158C85.6862 125.368 86.0028 124 85.0531 123.79Z" fill="#EAC7C7"/>
<path d="M81.2541 126.316C79.8823 126.316 78.4049 126.421 77.0331 126.421C76.0834 126.421 74.0784 126.105 73.2342 126.842C72.4955 127.474 73.5508 128.421 74.2894 127.789C73.7618 128.211 74.7115 127.895 75.1336 127.895C75.9778 127.895 76.822 127.789 77.6662 127.789C78.9325 127.789 80.0933 127.789 81.3596 127.684C82.2038 127.789 82.2038 126.316 81.2541 126.316Z" fill="#EAC7C7"/>
<path d="M78.827 129.263C77.1386 129.158 75.3447 128.947 73.6563 128.947C72.2845 128.947 70.0685 128.842 69.0132 130C68.3801 130.737 69.4353 131.684 70.0685 130.947C70.9127 130 73.3397 130.316 74.5005 130.316C75.9779 130.316 77.4552 130.526 78.827 130.632C79.7768 130.842 79.6712 129.368 78.827 129.263Z" fill="#EAC7C7"/>
<path d="M74.9226 131.789C71.5458 131.053 68.2746 129.368 64.6867 129.79C63.737 129.895 63.8425 131.368 64.6867 131.263C68.169 130.842 71.3348 132.526 74.6061 133.263C75.5558 133.368 75.8724 132 74.9226 131.789Z" fill="#EAC7C7"/>
<path d="M70.4906 133.895C68.9077 133.79 67.3249 133.579 65.8475 133.053C64.3702 132.526 63.2094 131.579 61.8376 130.842C60.9934 130.421 60.3602 131.684 61.2044 132.105C62.5763 132.842 63.6315 133.79 65.1089 134.316C66.9028 134.947 68.6967 135.158 70.5961 135.369C71.4403 135.474 71.4403 134 70.4906 133.895Z" fill="#EAC7C7"/>
<path d="M68.169 135.789C65.3198 134.421 62.1541 132.211 58.7773 132.632C57.8276 132.737 57.9331 134.211 58.7773 134.105C61.8375 133.789 64.7922 135.895 67.4304 137.158C68.2745 137.474 69.0132 136.211 68.169 135.789Z" fill="#EAC7C7"/>
<path d="M62.3652 137.579C60.4657 136.842 58.5663 136 56.7723 134.947C56.3502 134.737 55.8226 134.947 55.7171 135.369C55.7171 135.579 55.6116 135.79 55.6116 136C55.6116 136.947 56.9834 136.842 57.0889 136C57.0889 135.895 57.0889 135.895 57.0889 135.79C56.7723 135.895 56.3502 136.105 56.0337 136.211C57.9331 137.369 59.9381 138.211 62.0486 138.947C62.8928 139.263 63.2094 137.895 62.3652 137.579Z" fill="#EAC7C7"/>
<path d="M58.1442 138.842C56.6669 138.316 55.084 138 53.8177 137.158C52.9735 136.737 52.3403 138 53.1845 138.421C54.6619 139.263 56.3503 139.684 57.9332 140.211C58.6718 140.526 58.9884 139.053 58.1442 138.842Z" fill="#EAC7C7"/>
<path d="M111.329 116.316C110.274 117.053 108.796 117.684 108.163 118.947C107.741 119.789 109.007 120.421 109.429 119.579C109.851 118.632 111.223 118.105 112.067 117.474C112.912 117.053 112.173 115.789 111.329 116.316Z" fill="#EAC7C7"/>
<path d="M109.218 115.895C108.268 116.526 107.424 117.263 106.369 117.79C105.525 118.211 106.369 119.474 107.108 119.053C108.057 118.526 109.007 117.79 109.957 117.158C110.696 116.632 109.957 115.368 109.218 115.895Z" fill="#EAC7C7"/>
<path d="M106.791 114.842C106.053 115.263 105.208 115.79 104.575 116.316C103.837 116.842 104.575 118.105 105.314 117.579C106.053 117.053 106.791 116.526 107.53 116.105C108.374 115.579 107.635 114.421 106.791 114.842Z" fill="#EAC7C7"/>
<path d="M105.419 114.211C104.575 114.737 103.731 115.263 102.887 115.79C102.148 116.316 102.887 117.474 103.625 117.053C104.47 116.526 105.314 115.895 106.158 115.474C107.002 114.947 106.264 113.79 105.419 114.211Z" fill="#EAC7C7"/>
<path d="M138.343 45.2632C136.338 46 133.172 48.9474 131.167 47.5789C130.429 47.0526 129.69 48.3158 130.534 48.8421C133.278 50.6316 136.338 47.6842 138.871 46.6316C139.609 46.3158 139.293 44.9474 138.343 45.2632Z" fill="#EAC7C7"/>
<path d="M135.705 47.4738C135.283 47.7895 134.861 48.1053 134.439 48.4211C134.228 48.5264 133.278 49.158 133.067 49.0527C132.434 48.7369 132.012 48.7369 131.378 49.0527C130.534 49.4738 131.273 50.6317 132.117 50.3159C132.328 50.2106 132.539 50.4211 132.75 50.4211C133.172 50.5264 133.594 50.3159 133.911 50.2106C134.861 49.8948 135.705 49.2632 136.444 48.6317C137.182 48.2106 136.444 46.9474 135.705 47.4738Z" fill="#EAC7C7"/>
<path d="M132.856 51.1579C132.117 51.3685 131.379 51.579 130.64 51.6842C129.69 51.8948 130.112 53.2632 131.062 53.0527C131.801 52.9474 132.539 52.6316 133.278 52.5264C134.228 52.3158 133.806 50.9474 132.856 51.1579Z" fill="#EAC7C7"/>
<path d="M124.308 117.368C124.836 116.421 125.575 115.895 126.419 115.263C127.157 114.737 126.419 113.474 125.68 114C124.625 114.737 123.781 115.474 123.148 116.632C122.62 117.579 123.886 118.211 124.308 117.368Z" fill="#EAC7C7"/>
<path d="M125.258 118.526C125.997 118 126.63 117.158 127.579 116.842C128.424 116.632 128.107 115.263 127.157 115.474C126.102 115.79 125.363 116.737 124.519 117.263C123.675 117.79 124.414 119.053 125.258 118.526Z" fill="#EAC7C7"/>
<path d="M127.791 120.316C128.635 119.579 129.374 118.947 130.112 118.211C130.745 117.579 129.69 116.526 129.057 117.263C128.318 118 127.58 118.737 126.735 119.369C125.997 119.895 127.052 120.842 127.791 120.316Z" fill="#EAC7C7"/>
<path d="M126.841 118.842C127.263 118.211 127.685 117.684 128.002 117.053C128.318 116.211 127.052 115.474 126.735 116.421C126.524 116.947 126.208 117.474 125.786 118C125.152 118.526 126.208 119.579 126.841 118.842Z" fill="#EAC7C7"/>
<path fill-rule="evenodd" clip-rule="evenodd" d="M127.158 71.6842C126.841 71.6842 126.841 71.4737 126.524 71.5789C126.313 72.2105 126.419 73.1579 125.891 73.5789C125.047 73.4737 125.364 73.0526 125.364 72.3158C122.831 72.1052 119.982 71.8947 117.449 72.3158C117.344 72.7368 117.66 74.421 117.027 74.8421C115.55 74.6316 116.5 72.5263 116.289 71.3684C115.972 69.5789 114.706 68.9474 114.073 67.4737C117.238 67.0526 121.67 69.5789 124.519 67.8947C125.153 68.1053 125.68 68.421 125.891 69.0526C126.524 68.9474 126.102 68 127.052 68.2105C127.263 69.4737 126.735 70.5263 127.158 71.6842ZM124.836 69.2631C121.881 69.6842 119.771 68.421 117.344 68.7368C117.133 69.3684 117.027 70.7368 117.238 71.2631C118.61 71.5789 118.61 70.5263 119.349 70.2105C121.67 69.8947 123.253 70.9474 125.68 71.0526C125.68 70.2105 125.047 69.8947 124.836 69.2631Z" fill="#EAC7C7"/>
<path fill-rule="evenodd" clip-rule="evenodd" d="M116.077 58.2105C112.7 62.8421 108.691 66.7369 104.47 70.4211C104.259 71.579 104.364 73.0527 103.414 73.579C101.937 73.6842 100.776 73.2632 100.249 72.3158C97.2939 72.4211 94.2337 72.5263 92.1232 72.2106C91.5955 71.579 91.8066 70.9474 91.8066 70.2106C94.2337 70.6316 96.6607 70.2106 99.4044 70.6316C100.143 70.3158 100.354 69.4737 101.198 69.2632C101.726 69.2632 101.726 69.6842 101.831 70.1053C102.254 70.1053 102.148 69.579 102.148 69.1579C106.897 65.8948 110.273 61.2632 114.283 57.2632C114.6 57.579 114.389 58.2106 114.283 58.6316C114.917 58.5263 115.444 57.7895 116.077 58.2105ZM101.831 70.9474C101.726 71.1579 101.409 72.5263 102.042 72.4211C102.148 72.5263 102.887 72 103.203 71.6842C102.887 71.2632 102.676 70.8421 101.831 70.9474Z" fill="#EAC7C7"/>
<path fill-rule="evenodd" clip-rule="evenodd" d="M104.786 85.4737C104.997 86.4211 103.942 86.2106 103.52 86.5263C102.887 90.1053 103.309 92.9474 102.992 96.6316C101.62 96.7369 101.515 95.4737 100.46 95.1579C99.6155 95.1579 98.7713 95.7895 98.3492 95.2632C98.2437 94.6316 99.0879 94.8421 99.1934 94.2106C98.9823 92.4211 99.6155 89.8948 99.4044 87.579C99.1934 86.1053 98.4547 85.1579 98.3492 84.1053C100.46 83.6842 102.676 85.6842 104.786 85.4737ZM100.143 85.3685C100.143 88 99.9321 90.8421 99.8265 94.1053C101.093 94 101.409 95.0527 102.359 95.3684C102.359 92.3158 102.043 88.7369 102.57 85.8948C101.62 86 101.198 85.3685 100.143 85.3685Z" fill="#EAC7C7"/>
<path fill-rule="evenodd" clip-rule="evenodd" d="M102.887 62.3158C101.62 61.8948 100.038 61.7895 99.0879 61.0527C99.51 57.1579 100.038 52.6316 99.4045 48.9474C100.882 49.0527 102.359 49.1579 103.414 49.7895C102.465 53.7895 103.309 58.5263 102.887 62.3158ZM100.565 50C100.671 53.2632 99.2989 57.6842 100.46 60.9474C101.304 60.8421 101.515 61.2632 102.254 61.2632C101.937 57.3684 101.62 54 102.465 50.5263C102.148 50.3158 101.409 50.1053 100.565 50Z" fill="#EAC7C7"/>
<path fill-rule="evenodd" clip-rule="evenodd" d="M90.4348 67.7895C90.3293 68.2105 89.8017 68.2105 89.274 68.3158C88.7464 70 89.3796 72.7368 88.7464 74.3158C87.2691 73.8947 88.1133 72.5263 88.0077 71.6842C84.5254 72.3158 79.6713 73.0526 75.8724 72C75.7669 70.3158 74.9227 69.4737 74.8171 67.8947C79.8823 68 86.2138 67.7895 90.0127 67.3684C90.2238 67.4737 90.2238 67.7895 90.4348 67.7895ZM88.1133 68.2105C84.2089 68.6316 80.5155 68.9474 76.7166 68.6316C76.7166 69.1579 76.7166 70.2105 76.6111 71.1579C80.621 72.1053 84.3144 71.6842 88.2188 70.8421C87.7967 70.1053 88.6409 68.8421 88.1133 68.2105Z" fill="#EAC7C7"/>
</svg>
