<svg width="197" height="173" viewBox="0 0 197 173" fill="none" xmlns="http://www.w3.org/2000/svg">
<path fill-rule="evenodd" clip-rule="evenodd" d="M122.227 45.835C123.642 48.6189 126.798 49.9114 128.104 52.6953C128.431 52.6953 128.649 52.6953 128.975 52.6953C128.975 53.2918 129.302 53.4907 128.757 53.789C127.669 52.7947 126.907 51.6016 125.492 50.9056C122.009 47.1275 118.418 43.3493 114.391 40.0683C114.499 39.4717 113.738 39.6706 113.955 38.9746C109.928 36.3896 107.643 32.3131 103.507 29.8275C104.16 27.7396 106.445 29.8275 106.772 30.8217C108.513 32.1143 109.928 33.7051 111.017 35.5941C111.887 35.3953 111.452 36.1907 112.214 35.9919C114.608 39.5712 118.2 41.9574 120.812 45.3378C121.356 45.5367 121.574 45.9344 122.227 45.835Z" fill="#99BCB8"/>
<path fill-rule="evenodd" clip-rule="evenodd" d="M112.432 57.5673C113.52 57.5673 113.629 58.3627 113.846 59.0587C113.193 58.7604 112.54 58.2632 112.432 57.5673Z" fill="#99BCB8"/>
<path fill-rule="evenodd" clip-rule="evenodd" d="M117.765 80.6339C118.091 80.7333 117.982 81.2305 118.635 81.0316C118.744 82.6224 117.547 82.8213 117.112 83.8155C117.003 84.6109 118.309 84.0144 118.091 84.8098C118.635 85.1081 118.635 83.8155 118.962 84.4121C119.833 84.8098 119.833 86.2017 119.506 87.0966C118.962 87.0966 118.526 87.0966 118.309 87.2954C116.459 89.2839 115.37 91.7695 113.52 93.6586C113.955 95.7466 114.935 97.2379 114.499 100.121C113.084 102.607 110.581 104.098 106.336 103.999C106.228 105.49 105.792 106.584 104.268 106.584C104.16 105.093 105.139 104.595 105.357 103.402C105.357 103.005 104.486 103.303 104.16 103.203C103.18 104.496 102.636 106.087 101.874 107.578C101.439 107.578 101.003 107.578 100.677 107.578C100.786 105.391 102.092 104.496 102.745 102.905C102.092 101.215 99.806 99.6242 101.112 97.2379C101.656 97.0391 102.745 96.8402 103.18 97.2379C102.745 98.5305 102.636 99.9224 103.507 100.817C104.377 100.817 104.486 100.221 104.595 99.5247C106.445 97.3374 107.969 94.7523 109.602 92.3661C106.228 88.8862 109.384 83.4178 115.261 84.1138C116.132 83.0201 116.894 81.7276 117.765 80.6339ZM109.819 88.4885C110.037 89.0851 110.69 89.1845 110.472 90.1787C112.649 89.5822 112.976 87.2954 114.064 85.7046C111.67 85.804 110.799 87.196 109.819 88.4885ZM111.778 92.5649C112.323 92.4655 112.214 92.9627 112.758 92.7638C113.629 89.9799 116.023 88.5879 117.22 86.0029C116.676 85.9035 116.241 85.7046 115.588 85.804C114.717 88.3891 112.105 89.3833 111.778 92.5649ZM105.139 101.712C105.901 101.812 106.336 101.613 106.772 101.513C107.969 99.2264 108.84 96.8402 111.017 95.4483C111.343 94.454 111.234 93.8575 110.363 93.3604C108.622 96.1443 106.554 98.6299 105.139 101.712ZM107.969 102.11C111.343 102.309 113.955 98.7293 111.778 96.0448C110.472 98.0333 108.84 99.7236 107.969 102.11Z" fill="#99BCB8"/>
<path fill-rule="evenodd" clip-rule="evenodd" d="M145.301 84.7103C145.41 85.4063 145.627 86.0028 145.301 86.5994C142.253 85.7046 139.641 87.8919 138.444 89.9799C141.709 89.781 144.757 89.3833 147.369 88.5879C148.131 88.5879 147.913 89.4827 148.022 90.0793C144.757 90.477 142.362 91.7695 138.226 91.4712C137.9 91.6701 137.791 91.9684 137.791 92.3661C141.927 93.5592 145.845 90.3776 149.655 90.5764C149.655 91.4712 148.457 91.2724 148.24 91.8689C147.913 91.9684 147.804 91.6701 147.804 91.4712C145.627 92.9626 142.253 93.4598 139.315 94.2552C139.968 96.2437 144.321 94.7523 146.172 94.8517C147.151 94.0563 149.763 93.9569 151.396 94.3546C151.287 94.7523 151.396 94.9511 151.831 94.9511C151.505 95.15 151.396 95.5477 151.178 95.846C146.281 95.7465 139.206 99.4253 137.138 94.7523C135.941 94.5534 134.743 95.2494 133.873 94.7523C133.764 93.1615 135.07 93.3603 136.158 93.2609C136.485 92.6643 136.267 92.2666 135.723 91.9684C134.743 92.0678 134.635 93.062 133.22 92.6643C133.22 92.1672 133.22 91.6701 133.22 91.173C134.09 90.8747 134.743 90.2781 135.941 90.2781C137.791 87.3948 140.077 84.1138 145.301 84.7103Z" fill="#99BCB8"/>
<path fill-rule="evenodd" clip-rule="evenodd" d="M153.464 108.075C153.79 107.976 153.79 108.274 154.117 108.274C154.008 108.97 154.226 109.964 153.899 110.362C153.899 110.76 154.444 110.163 154.988 110.362C155.314 109.666 155.75 109.169 156.62 109.069C157.056 109.765 156.403 109.964 156.403 110.76C157.165 110.959 157.6 111.356 158.035 111.754C157.709 111.953 157.491 112.251 157.164 112.549C156.511 112.649 156.947 111.853 156.185 112.152C155.532 112.052 155.967 112.848 155.097 112.549C154.77 114.737 153.355 115.93 152.92 118.018C153.137 118.813 154.661 119.41 154.988 120.305C156.185 123.685 153.573 125.674 149.328 125.574C148.566 126.071 148.24 127.165 147.478 127.662C147.369 127.165 147.151 126.767 147.26 126.171C146.716 127.463 146.498 128.955 144.974 129.153C144.43 127.761 145.628 126.568 145.845 125.375C145.628 124.58 144.757 124.48 144.866 123.486C145.628 123.088 146.063 122.591 147.151 122.591C147.478 120.404 148.348 118.813 149.328 117.123C147.804 116.626 146.934 114.836 147.695 112.947C149.437 112.45 150.308 111.356 152.267 111.058C152.376 109.666 153.246 109.069 153.464 108.075ZM151.287 116.526C153.137 115.93 152.92 113.444 153.79 112.052C152.049 112.549 151.831 114.737 151.287 116.526ZM149.11 114.438C149.11 114.836 149.655 114.836 149.981 115.035C149.981 114.24 151.069 114.339 150.852 113.345C149.655 113.245 149.437 113.842 149.11 114.438ZM147.913 123.685C148.784 122.094 150.852 119.708 150.199 118.018C149.437 119.907 148.675 121.796 147.913 123.685ZM149.546 123.884C151.178 123.983 151.94 123.287 153.029 122.989C153.682 121.498 152.811 119.807 151.614 119.41C151.178 121.001 150.199 122.293 149.546 123.884Z" fill="#99BCB8"/>
<path fill-rule="evenodd" clip-rule="evenodd" d="M103.289 119.708C102.309 120.006 100.677 119.708 100.024 119.111C93.8198 118.714 90.5546 121.1 88.5955 124.679C91.0988 124.58 94.7994 123.884 97.085 122.89C99.153 123.486 100.677 122.492 102.418 123.685C101.656 124.58 98.9353 124.58 97.6292 124.779C94.2552 125.375 90.0104 125.574 87.8336 127.165C87.8336 127.364 88.269 127.264 88.269 127.563C90.5546 127.066 96.432 126.568 99.0441 127.861C96.432 129.054 91.4253 128.358 88.7044 128.855C88.3778 130.943 90.6635 130.744 90.99 132.236C93.711 133.23 96.3231 134.125 100.459 133.826C101.874 133.13 104.16 133.031 106.01 133.329C105.901 133.727 106.01 133.926 106.445 133.926C106.336 134.224 105.792 134.125 106.01 134.721C105.357 135.02 103.942 134.721 103.724 135.417C99.3707 135.417 94.7994 136.113 91.5342 134.721C91.5342 134.721 91.3165 134.125 90.8812 133.926C90.4458 133.727 89.5751 133.628 89.2486 133.329C89.0309 133.23 89.2486 132.733 89.0309 132.534C88.7044 132.236 88.0513 132.434 87.8336 132.136C87.2894 131.44 87.0718 130.247 86.6364 129.452C85.2215 129.054 83.2624 130.446 81.6298 129.75C81.5209 129.054 81.9563 129.054 81.8474 128.457C83.3712 128.457 84.1331 127.861 85.7657 127.96C86.201 127.96 85.8745 127.165 86.201 127.066C84.5684 126.37 82.2828 127.364 80.9767 127.066C80.7591 125.375 83.48 125.276 85.9834 125.375C88.4867 120.603 92.6226 116.626 100.568 117.521C101.439 118.316 103.289 118.217 103.289 119.708Z" fill="#99BCB8"/>
<path fill-rule="evenodd" clip-rule="evenodd" d="M133.982 145.857C130.608 145.459 127.996 145.459 126.145 147.149C127.669 147.746 130.281 147.348 131.261 148.342C131.478 148.84 130.934 148.84 131.043 149.237C129.955 149.237 128.757 149.237 127.887 149.436C128.431 150.033 130.39 149.237 130.608 150.033C130.39 151.723 127.778 150.331 127.234 151.524C129.628 152.22 133.655 151.126 135.941 152.021C136.267 152.916 134.853 152.319 135.07 153.115C130.717 153.513 125.928 153.612 123.316 151.723C121.792 152.021 119.18 152.121 118.962 150.729C119.615 149.933 120.812 150.232 122.118 150.331C122.554 149.834 122.227 148.541 122.336 147.646C124.513 146.056 128.431 143.073 132.567 144.365C133.111 144.564 134.199 144.763 133.982 145.857Z" fill="#99BCB8"/>
<path fill-rule="evenodd" clip-rule="evenodd" d="M101.221 18.0954C102.636 17.5982 104.268 17.3 105.139 16.2063C108.949 17.4988 113.738 16.8028 116.676 19.189C116.894 19.3879 117.112 19.885 117.547 20.1833C118.418 20.8793 119.071 21.0781 119.18 22.4701C127.56 19.5867 137.465 22.1718 138.118 30.623C148.566 26.9442 157.056 35.8925 152.485 44.0454C153.899 45.0396 155.532 45.835 157.056 46.7298C157.273 47.8235 157.6 48.7184 157.382 50.1103C158.797 51.9 157.165 53.8885 156.947 55.7775C154.117 57.7661 152.049 60.4505 148.24 61.3454C149.872 65.2229 143.777 65.2229 140.947 66.2172C138.227 65.3224 134.744 66.5155 132.023 66.9132C127.451 67.0126 122.336 66.8138 117.765 67.0126C115.914 67.112 113.629 67.4103 112.431 67.112C111.561 66.8138 111.996 67.7086 111.234 67.5097C109.819 67.0126 109.493 67.5097 108.513 67.112C99.6972 67.6092 91.9696 67.6092 83.0447 68.2057C82.3917 68.4046 82.6094 67.7086 82.174 67.6092C74.9906 68.6034 66.5011 67.2115 59.9707 68.504C57.032 67.6092 52.6784 69.1005 49.1956 68.4046C49.1956 68.2057 49.1956 68.0069 49.1956 67.808C47.7806 67.808 47.6718 66.8138 46.2569 66.8138C44.6243 62.5385 43.5359 54.8827 44.7331 50.1103C45.2773 47.923 46.9099 46.2327 48.7602 44.4431C52.0254 41.3609 56.5967 38.577 63.5624 40.0684C63.4536 38.4776 63.1271 36.5885 62.3652 35.0971C61.2768 28.9327 64.1066 25.254 65.848 21.0781C67.0453 20.6804 67.3718 19.3879 68.3514 18.7913C68.3514 18.2942 68.3514 17.7971 68.3514 17.3C69.2221 16.7034 69.3309 17.3994 70.2016 17.1011C72.0519 15.0132 74.9906 13.9195 77.0585 12.0304C81.0856 12.1299 82.5005 9.9425 86.6364 10.2408C87.8337 8.94824 91.0989 10.7379 91.6431 8.94824C91.7519 8.94824 91.9696 8.94824 92.0784 8.94824C93.8199 9.64422 94.5817 11.1356 96.9762 11.235C98.7177 13.323 101.003 14.8143 101.221 18.0954ZM98.0646 19.7856C99.5884 15.0132 95.1259 11.3344 89.684 12.1299C93.1668 14.0189 95.2348 17.3 98.0646 19.7856ZM103.615 45.7356C104.486 46.9287 105.683 47.8235 106.445 49.2155C105.575 49.2155 105.03 48.8178 105.03 48.0224C101.765 45.6362 99.0442 42.8523 96.6497 39.6707C95.4525 38.7758 93.9287 37.3839 92.9492 36.1908C92.1873 35.1965 91.2077 34.6 90.337 33.7051C87.9425 31.3189 84.895 29.5293 83.1536 26.6459C82.8271 26.6459 82.6094 26.6459 82.2828 26.6459C80.6503 24.3592 78.2558 22.7684 76.5143 20.581C76.6232 20.0839 77.1674 19.885 77.1674 19.2885C76.2967 18.3936 75.0994 17.8965 74.5552 16.8028C74.4464 17.6977 72.8138 17.3 73.1403 18.4931C74.2287 18.8908 74.6641 19.885 75.6436 20.3821C77.3851 23.2655 80.4326 24.8563 81.9563 27.839C83.3713 28.3362 83.6978 29.4298 84.5685 30.3247C86.0922 31.9155 88.8132 33.6057 89.4663 35.6936C92.8403 37.0856 93.9287 40.5655 97.0851 42.1563C97.0851 42.4546 97.0851 42.7528 97.0851 43.1505C99.153 43.5482 99.0442 45.9344 101.221 46.2327C101.221 46.531 101.221 46.7298 101.221 47.0281C104.051 48.6189 105.357 51.5023 108.404 52.9936C108.949 54.8827 111.017 55.3798 111.67 57.1695C104.922 52.0988 99.5884 45.5367 92.9492 40.3666C92.2961 38.4775 89.9016 37.9804 89.2486 35.9919C87.8337 35.1965 86.7453 34.1028 85.9834 32.7109C82.2829 30.1258 79.7795 26.4471 76.1878 23.7626C77.6027 25.7511 79.6707 27.1431 80.6503 29.5293C81.9563 29.927 82.8271 30.7224 83.1536 32.0149C83.4801 32.0149 83.6978 32.0149 84.0243 32.0149C86.2011 34.6 88.269 37.185 90.99 39.273C92.7315 42.3551 96.2143 43.9459 97.9558 47.1276C98.7177 47.0281 99.5884 47.7241 98.9353 48.3207C96.3232 47.3264 95.3436 44.7413 92.9492 43.5482C85.548 35.6936 78.1469 27.839 69.984 20.6804C69.4398 21.277 68.7867 21.8735 68.3514 22.5695C71.9431 25.95 74.8818 30.0264 78.8 33.1086C78.6911 33.7051 79.1265 33.7051 79.0177 34.2023C82.3917 36.0913 84.0243 39.4718 87.1806 41.4603C88.3779 44.1448 92.4049 45.2385 92.7315 48.1218C86.4188 43.0511 80.9768 37.0856 75.3171 31.5178C75.3171 31.7166 75.2083 32.0149 74.8818 31.9155C75.5348 33.0092 76.1878 34.2023 77.7116 34.6C80.2149 38.0798 83.4801 40.9632 86.7453 43.7471C86.6364 44.3436 87.1806 44.3436 87.1806 44.8408C88.8132 45.835 90.4458 46.9287 91.0989 48.8178C92.2961 48.8178 92.6226 49.7126 92.9492 50.508C94.4729 51.4028 96.5409 53.2919 96.6497 54.6839C87.1806 45.5367 77.6027 36.3896 68.3514 26.9442C68.4602 26.6459 68.1337 25.95 68.569 26.0494C69.3309 25.7511 69.0044 26.5465 69.5486 26.4471C69.2221 25.0551 67.8072 24.7569 67.0453 23.7626C66.8276 25.254 66.2834 26.5465 65.7392 27.7396C66.7188 29.231 68.2425 30.3247 69.0044 31.9155C69.6574 31.8161 69.7663 32.1143 70.2016 32.1143C74.7729 38.2787 80.8679 43.1505 85.9834 48.9172C86.3099 48.9172 86.5276 48.9172 86.8541 48.9172C87.616 50.1103 88.3779 51.3034 89.9016 51.8005C89.684 52.2977 90.2282 52.2977 90.1193 52.7948C93.058 55.0816 95.8878 57.5672 98.2823 60.4505C99.153 60.7488 100.459 61.6436 99.9149 62.5385C95.2348 58.7603 90.7724 54.5844 86.6364 50.3092C85.9834 50.2097 85.9834 50.6074 85.4392 50.508C84.5685 49.9115 83.6978 49.3149 83.3712 48.2212C81.3033 47.5252 80.5414 45.6362 79.2353 44.2442C78.3646 44.0454 77.7116 43.5482 77.6027 42.7528C73.1403 39.4718 70.3105 34.6 65.7392 31.5178C65.5215 35.0971 68.0248 36.1908 69.0044 38.7758C70.2016 39.0741 71.0724 39.7701 71.29 41.0626C73.9022 42.6534 75.2083 45.4373 77.8204 47.0281C77.7116 47.5252 78.1469 47.4258 78.0381 48.0224C80.1061 49.2155 81.8475 50.6074 82.9359 52.5959C85.8746 54.3856 88.0514 56.8712 90.1193 59.4563C87.1806 58.462 85.9834 54.8827 83.3712 54.2862C83.9154 53.9879 83.9155 55.0816 83.5889 55.0816C82.8271 54.7833 82.6094 53.9879 81.3033 54.0873C76.8409 49.4143 71.6166 45.3379 67.1541 40.7643C67.1541 41.6592 67.1541 42.554 67.1541 43.4488C68.4602 45.2385 70.637 46.2327 71.3989 48.4201C74.8817 50.3092 76.4055 53.8885 79.9972 55.6781C80.2149 57.3684 82.174 57.4678 82.6094 58.9592C82.3917 58.9592 82.3917 59.158 82.174 59.158C76.4055 54.9821 71.6166 50.0109 66.3922 45.4373C66.1746 46.3321 65.0862 46.4316 64.7596 47.1276C65.848 48.4201 67.8072 49.0166 68.0248 51.1046C69.6574 51.6017 70.637 52.7948 71.29 54.1867C73.9022 54.9821 74.4464 57.7661 76.6232 58.9592C76.732 59.2574 76.9497 59.3569 76.8409 59.7546C79.0177 60.7488 79.6707 62.9362 81.7387 63.9304C81.8475 64.0299 82.174 65.0241 81.7387 65.0241C74.1199 58.5615 67.263 51.3034 59.5353 44.7413C59.5353 44.3436 59.2088 44.1448 59.3177 43.6477C57.9027 43.6477 57.3585 44.4431 55.9436 44.5425C61.6033 50.2097 67.263 55.877 73.1403 61.3454C73.1403 61.6436 73.1403 61.9419 73.358 62.1408C74.9906 62.0413 74.7729 63.6321 76.079 63.831C75.9701 64.1293 76.2967 64.9247 75.8613 64.9247C75.5348 64.8253 75.4259 64.6264 74.9906 64.7258C69.6574 58.8597 62.9094 54.1867 57.5762 48.3207C56.9232 48.4201 56.8143 48.0224 56.1613 48.1218C56.0525 47.0281 54.8552 46.9287 54.7464 45.835C53.7668 46.0339 53.3315 46.7298 52.8961 47.3264C55.5083 49.5138 57.2497 52.5959 60.2972 54.3856C61.1679 56.4735 63.8889 56.9707 64.542 59.3569C66.3922 60.2517 67.916 61.4448 68.6779 63.3339C66.6099 62.6379 65.5215 61.0471 64.1066 59.6551C60.7326 58.9592 59.3177 56.4735 57.5762 54.2862C54.8552 53.1925 53.8757 50.508 51.59 48.9172C51.1547 49.2155 50.6105 49.6132 50.5016 50.2097C52.8961 53.0931 55.7259 55.6781 57.9027 58.7603C56.4878 59.158 56.0525 56.9707 55.1817 57.9649C57.1409 58.8597 57.6851 60.9477 59.5353 61.9419C59.5353 62.2402 59.5353 62.5385 59.5353 62.9362C60.6237 62.8367 61.4945 64.0299 60.7326 64.4276C56.2701 61.2459 53.3315 56.7718 48.6514 53.6896C48.9779 54.8827 48.1072 54.9821 47.9983 55.7775C49.6309 57.5672 51.6989 58.9592 52.6784 61.3454C55.6171 63.135 58.3381 65.7201 63.2359 65.2229C65.5215 64.527 68.3514 64.2287 71.0724 63.9304C70.8547 64.8253 72.0519 64.4275 71.8342 65.2229C78.5823 66.0184 85.9834 66.9132 92.2961 65.8195C92.6226 65.9189 92.5138 66.4161 93.1668 66.2172C96.7585 65.1235 102.962 66.4161 106.445 65.2229C106.445 65.5212 106.663 65.6207 107.098 65.6207C115.152 64.3281 124.622 65.7201 133.873 65.1235C136.812 64.4275 139.859 63.7316 142.798 62.9362C143.668 60.6494 145.954 58.6609 149.437 59.3569C152.158 57.2689 155.641 55.877 155.532 51.3034C154.117 49.5138 153.246 47.3264 150.634 46.7298C148.349 47.7241 147.151 50.6074 144.213 50.3092C143.015 47.4258 146.172 45.5367 148.784 44.8408C149.872 43.5482 150.743 41.9574 151.287 40.1678C149.981 36.489 149.328 32.1143 143.342 32.7109C143.233 33.4069 142.471 33.7051 142.036 34.2023C141.709 34.1028 141.818 33.6057 141.165 33.8046C137.9 35.1965 134.961 36.8867 133.438 39.9689C136.05 41.2615 137.138 43.9459 139.75 45.139C140.077 46.531 142.254 47.1275 141.818 48.5195C140.077 47.7241 139.75 45.7356 137.465 45.4373C131.914 40.3666 126.472 35.1965 121.465 29.6287C120.377 29.4298 118.962 29.3304 118.962 28.1373C118.309 28.1373 117.656 28.1373 117.765 28.7339C118.962 31.2195 121.574 32.3132 122.662 34.7988C124.186 34.6994 124.077 35.5942 124.948 35.9919C126.254 36.489 126.254 37.3839 126.798 37.881C127.125 38.1793 128.54 38.0798 127.996 39.0741C129.193 39.273 129.846 39.9689 129.846 41.162C130.825 41.4603 131.261 42.2557 132.131 42.6534C133.22 44.7413 135.723 45.7356 136.594 48.0224C137.356 48.1218 138.553 48.9172 137.791 49.7126C132.023 45.835 128.757 39.8695 122.662 36.2902C122.662 35.8925 122.662 35.3954 122.662 34.9977C120.486 33.5063 118.853 31.6172 116.894 29.8276C116.132 30.4241 115.37 31.1201 114.826 31.9155C115.044 31.9155 115.044 32.2138 115.044 32.512C115.697 32.4126 115.806 32.8103 116.459 32.7109C121.683 38.8753 127.887 44.0454 133.655 49.7126C133.982 49.7126 134.199 49.7126 134.526 49.7126C134.417 50.2097 135.397 50.8063 134.744 51.204C133.22 50.508 132.567 49.0166 130.825 48.5195C130.499 47.3264 129.628 46.531 128.322 46.2327C128.104 45.3379 127.125 45.0396 126.472 44.5425C120.921 39.5712 115.806 34.2023 110.037 29.4298C108.187 27.2425 106.01 25.3534 103.507 23.6632C104.813 26.8448 108.949 28.3362 109.384 31.6172C111.125 32.1143 111.887 33.5063 112.649 34.8982C112.976 34.8982 113.193 34.8982 113.52 34.8982C116.023 38.577 119.724 41.2615 122.336 44.8408C121.03 45.0396 120.703 44.2442 120.486 43.5482C119.833 43.5482 119.833 43.1505 119.288 43.1505C119.506 42.0569 118.2 42.2557 118.309 41.2615C111.67 36.0913 106.989 29.0321 100.459 23.6632C100.35 24.2597 100.133 24.7569 100.241 25.5523C99.9149 25.7511 99.4795 25.7511 99.153 25.95C99.0442 27.6402 100.894 27.5408 101.221 28.8333C100.459 28.9327 100.35 28.535 99.5884 28.6344C99.5884 27.4413 98.3911 27.3419 97.7381 26.7454C96.9762 28.1373 99.153 28.1373 99.153 29.4298C101.33 30.5235 102.418 32.6115 104.486 33.8046C104.377 34.4011 105.248 34.0034 104.922 34.7988C108.187 37.2844 110.799 40.3666 113.955 43.0511C115.806 45.835 119.071 47.3264 120.703 50.3092C115.588 46.4316 111.67 41.6592 106.772 37.6821C106.772 37.4833 106.772 37.2844 106.772 37.0856C104.377 36.0913 103.833 33.3074 101.221 32.512C101.221 32.2138 101.221 31.9155 101.003 31.7166C98.0646 30.1258 96.7585 27.1431 93.8199 25.5523C93.058 23.2655 90.1193 22.8678 89.3574 20.581C87.2895 19.2885 85.3304 17.8965 84.0243 16.0074C84.6773 16.0074 85.6569 16.2063 85.4392 15.4109C85.548 14.9138 84.4596 15.5103 84.7862 14.8143C84.7862 14.1184 85.3304 13.9195 85.8746 13.7207C88.7044 15.8086 90.8812 18.4931 93.711 20.581C94.4729 21.973 95.4525 23.0666 96.9762 23.6632C97.0851 22.7684 97.8469 22.4701 97.6293 21.1776C96.9762 21.277 96.9762 20.8793 96.432 20.9787C96.3232 19.4873 94.3641 19.7856 94.3641 18.0954C92.0784 17.5982 91.6431 15.4109 89.4663 14.8143C89.4663 14.6155 89.4663 14.4166 89.4663 14.2178C88.7044 14.2178 88.9221 14.0189 88.269 14.2178C88.1602 13.6212 87.616 13.4224 87.5072 12.9253C85.2215 13.323 82.3917 13.2235 80.6503 14.2178C80.6503 14.5161 80.6503 14.7149 80.6503 15.0132C84.5685 18.7913 88.1602 22.7684 91.5342 27.0436C93.3845 27.839 94.2552 29.4298 95.4525 30.8218C97.8469 32.1143 98.8265 34.6 101.221 35.7931C102.527 38.0798 105.139 39.1735 106.336 41.5597C108.513 41.9574 108.949 43.8465 110.255 45.0396C110.364 45.6362 109.928 45.6362 110.037 46.1333C111.125 47.0281 112.54 47.6247 112.867 49.2155C117.329 52.6954 121.356 56.573 125.601 60.3511C123.751 59.2574 121.683 58.3626 120.703 56.4735C120.05 56.4735 120.05 55.9764 119.288 56.0758C119.506 55.181 118.527 55.3798 118.527 54.7833C114.608 51.9994 112.105 48.0224 108.078 45.4373C104.051 40.2672 98.6088 36.3896 94.5817 31.1201C90.4458 28.0379 87.8337 23.6632 83.4801 20.7799C82.827 19.6862 82.0652 18.6919 80.6503 18.2942C81.7387 20.581 84.5685 21.277 85.1127 24.0609C85.6569 24.1603 85.9834 24.4586 86.3099 24.6574C86.2011 25.254 87.0718 24.8563 86.7453 25.6517C88.4867 26.1488 89.2486 27.5408 90.4458 28.535C91.0989 30.3247 93.1668 31.0207 93.9287 32.7109C94.4729 32.512 94.4729 33.0092 94.9083 32.9097C98.5 37.5827 103.289 41.2615 106.989 45.9344C107.316 45.9344 107.751 45.835 107.86 46.1333C108.296 47.3264 109.166 48.2212 110.364 48.8178C112.649 51.7011 115.697 53.8885 118.309 56.4735C118.309 56.6724 117.982 56.6724 117.656 56.6724C117.547 57.3684 118.744 57.7661 118.309 58.1638C112.649 53.8885 108.404 49.5138 103.615 45.7356ZM76.6232 16.5046C77.4939 16.8028 77.1674 15.908 77.8204 15.908C78.1469 16.4051 78.6911 16.7034 79.453 16.7034C80.2149 14.1184 75.8613 14.7149 76.6232 16.5046ZM95.3436 24.8563C96.1055 24.8563 96.1055 25.1546 96.7585 24.8563C94.4729 22.5695 92.1873 20.3821 89.7928 18.1948C89.684 18.1948 89.4663 18.1948 89.3574 18.1948C90.6635 21.0781 93.9287 22.0724 95.3436 24.8563ZM101.874 21.277C102.201 21.6747 102.309 22.2712 103.071 22.2712C102.962 21.5753 103.18 21.1776 103.724 21.1776C107.316 22.1718 108.187 25.5523 111.125 27.1431C111.452 28.0379 112.323 28.4356 112.976 29.0322C113.302 28.1373 113.738 27.2425 113.846 26.2482C111.343 23.862 108.949 21.3764 106.01 19.3879C105.03 20.2827 102.854 20.2827 101.874 21.277ZM115.261 25.1546C114.935 22.5695 112.867 19.7856 109.493 19.189C110.69 21.973 113.085 23.4643 115.261 25.1546ZM84.7862 26.2482C85.3304 26.3477 85.7657 26.5465 85.9834 26.8448C88.3779 29.7281 90.5547 32.7109 93.6022 35.0971C95.4525 37.5827 98.3911 39.0741 100.133 41.5597C102.309 42.1563 102.527 44.5425 104.813 45.0396C106.881 48.2212 110.364 50.2097 113.193 52.6954C111.343 50.4086 109.057 48.4201 106.881 46.4316C106.772 46.1333 106.554 46.0339 106.663 45.6362C101.439 41.6592 97.8469 36.2902 92.7315 32.3132C89.0309 28.7339 85.8746 24.6574 81.4121 21.7741C82.174 23.5638 84.1331 24.3592 84.7862 26.2482ZM132.023 25.1546C131.696 23.9615 129.628 24.2597 129.193 23.2655C128.213 23.1661 127.56 23.3649 127.56 24.1603C127.56 24.4586 128.104 24.3592 128.431 24.3592C128.866 25.3534 130.064 25.6517 130.499 26.6459C132.567 27.2425 133.438 28.7339 134.635 30.1258C134.852 30.8218 134.961 31.6172 136.05 31.4184C136.703 30.2253 135.614 29.1316 135.832 27.6402C134.199 27.0436 133.982 25.3534 132.023 25.1546ZM123.315 23.9615C126.472 27.4413 129.628 30.9212 133.546 33.7051C133.329 32.6115 133.982 32.3132 133.982 31.4184C131.587 29.0321 128.975 26.9442 126.145 24.9557C125.928 24.1603 126.472 24.1603 126.581 23.6632C125.601 23.7626 123.751 23.1661 123.315 23.9615ZM121.247 24.6574C120.812 24.8563 120.268 25.0551 120.159 25.5523C123.642 29.6287 127.125 33.7051 131.261 37.185C132.023 36.5885 131.914 35.1965 132.567 34.5005C128.757 31.3189 125.166 27.839 121.247 24.6574ZM73.1403 30.7224C73.9022 30.623 74.1199 30.9212 74.5552 31.1201C74.2287 29.8276 73.1403 29.1316 72.0519 28.4356C71.9431 29.6287 73.358 29.4298 73.1403 30.7224ZM64.3243 45.3379C64.3243 45.0396 64.3243 44.7413 64.3243 44.3436C63.3447 44.0454 63.2359 43.0511 62.0387 42.9517C62.3652 44.1448 63.3447 44.7413 64.3243 45.3379ZM77.4939 48.1218C77.6027 47.4258 75.9701 46.4316 76.2967 46.8293C77.0585 46.9287 76.4055 48.3207 77.4939 48.1218ZM80.7591 51.204C80.7591 50.9057 80.7591 50.7069 80.7591 50.4086C80.5414 50.4086 80.3237 50.4086 80.1061 50.4086C80.2149 50.8063 80.2149 51.204 80.7591 51.204ZM51.9166 54.1867C52.6784 54.2862 52.4608 55.2804 53.5492 55.181C53.658 56.0758 54.4199 56.3741 54.9641 56.8712C54.8552 56.4735 52.5696 53.8885 51.6989 53.5902C52.0254 53.5902 52.0254 53.8885 51.9166 54.1867ZM47.9983 61.1465C49.0867 61.4448 50.6105 62.1408 51.9166 61.5442C50.7193 59.9534 49.3044 58.6609 47.7806 57.3684C47.563 58.5615 47.7806 59.6551 47.9983 61.1465ZM144.43 63.5327C145.736 63.6321 146.063 62.7373 146.281 61.8425C145.083 61.3454 144.757 62.5385 144.43 63.5327ZM48.3248 65.2229C48.216 64.527 47.7806 64.1293 47.1276 64.0299C47.0188 64.9247 47.4541 65.3224 48.3248 65.2229Z" fill="#99BCB8"/>
<path fill-rule="evenodd" clip-rule="evenodd" d="M104.595 70.8902C101.33 72.1827 97.0851 72.6798 95.6702 75.762C98.3912 76.0603 101.33 74.9666 104.595 75.066C105.03 77.154 102.092 76.0603 101.221 76.9551C101.112 77.4522 102.854 77.3528 102.854 76.7562C103.289 77.1539 103.18 77.4522 103.071 77.8499C100.895 77.9494 99.4796 78.6453 97.3028 78.7448C98.3912 81.8269 103.942 80.7333 106.663 79.739C106.445 80.3356 107.316 79.9379 107.098 80.5344C103.942 82.4235 96.6498 82.7218 95.126 79.2419C93.9288 79.4407 93.3846 79.3413 92.405 79.4407C92.405 78.9436 92.405 78.4465 92.405 77.9494C93.058 77.9494 93.6022 77.9494 94.2553 77.9494C94.1464 76.7563 91.5343 77.7505 90.7724 77.1539C90.6636 75.762 92.6227 76.3585 93.9288 76.2591C94.6906 73.2764 98.6089 70.9896 101.656 70.4925C102.527 70.2936 103.942 69.8959 104.595 70.8902Z" fill="#99BCB8"/>
<path fill-rule="evenodd" clip-rule="evenodd" d="M73.2491 100.32C73.6845 100.32 74.2287 100.32 74.6641 100.32C74.7729 100.718 74.6641 101.016 74.4464 101.215C75.4259 101.513 75.3171 100.817 75.6436 100.419C76.732 101.314 78.2558 101.811 78.6911 103.303C78.0381 103.899 77.8204 103.005 77.2762 102.905C77.2762 104.297 75.9701 106.783 76.1878 108.175C76.2967 108.97 77.3851 109.069 77.6027 109.666C79.0177 112.649 76.5143 115.234 74.011 115.731C73.4668 116.427 73.2491 117.421 72.9226 118.415C72.5961 118.415 72.1607 118.316 72.0519 118.614C71.3989 118.018 72.2696 117.123 72.0519 116.328C70.0928 115.93 70.8547 118.117 69.7663 118.614C69.1132 118.614 69.2221 118.018 68.7867 117.819C68.4602 117.024 69.2221 117.222 69.2221 116.725C68.6779 116.427 68.0248 116.129 67.1541 116.129C66.9364 115.532 66.9364 114.737 67.1541 114.24C67.916 114.14 68.4602 113.941 69.4397 114.041C69.4397 114.538 69.4397 114.936 69.8751 115.035C70.4193 112.251 71.29 109.765 71.8342 106.882C70.7458 106.385 69.9839 105.689 69.7663 104.397C70.637 102.706 73.4668 102.408 73.2491 100.32ZM73.5757 106.186C74.011 106.584 74.2287 107.081 74.7729 107.379C75.7524 106.385 75.2083 104.894 75.4259 103.005C73.2491 102.607 74.3375 105.192 73.5757 106.186ZM71.1812 115.035C74.5552 115.035 73.7933 110.66 74.5552 108.871C73.4668 109.069 74.2287 107.777 73.1403 108.075C72.7049 110.561 71.5077 112.45 71.1812 115.035ZM74.5552 113.941C75.7525 114.339 75.2083 112.947 76.1878 113.245C76.1878 112.45 76.1878 111.754 76.1878 110.959C75.9701 110.959 75.7525 110.959 75.5348 110.959C75.4259 112.152 74.7729 112.848 74.5552 113.941Z" fill="#99BCB8"/>
<path fill-rule="evenodd" clip-rule="evenodd" d="M57.7939 125.574C59.753 125.674 59.3176 127.96 60.0795 129.153C61.8209 129.253 60.9502 127.96 61.3856 126.867C62.1475 126.767 62.1475 127.165 62.8005 127.065C62.6916 127.761 63.127 127.96 63.0182 128.756C64.1066 129.253 65.9568 129.75 65.3038 131.241C64.4331 131.54 64.6508 130.844 64.1066 130.844C63.0182 131.937 64.6508 133.329 64.4331 134.821C64.6508 135.318 65.3038 135.417 66.0657 135.417C65.6303 136.312 66.9364 135.914 67.4806 136.213C69.6574 137.107 73.9021 142.476 70.7458 144.962C69.8751 144.962 69.5486 145.36 68.6778 145.36C67.8071 146.354 69.5486 148.541 68.0248 148.939C67.3718 148.144 66.9364 147.149 66.8276 145.857C66.3922 145.956 66.2834 145.757 65.9568 145.658C65.3038 146.652 67.0452 149.038 65.3038 149.436C63.9977 148.939 64.3242 147.05 63.6712 146.056C62.5828 146.155 61.9298 145.857 61.1679 145.658C60.7325 144.465 61.4944 144.564 61.8209 143.769C62.1474 144.167 62.5828 144.365 63.2358 144.365C63.0182 141.582 62.2563 138.798 61.2767 136.014C59.753 136.113 59.3176 135.218 58.3381 134.522C57.7939 134.025 56.8143 133.628 57.1408 132.037C57.2497 131.241 58.4469 130.844 58.6646 130.148C58.8823 128.656 57.032 127.165 57.7939 125.574ZM61.7121 132.335C61.4944 133.429 62.2563 134.522 62.6916 134.423C62.1474 133.13 62.2563 131.241 61.2767 130.446C60.406 130.844 61.1679 132.136 61.7121 132.335ZM60.1883 133.528C60.1883 132.733 59.8618 132.136 59.2088 132.037C59.0999 132.832 59.3176 133.528 60.1883 133.528ZM67.8071 144.167C68.4602 143.868 68.8955 143.371 69.8751 143.471C70.3104 140.388 67.8071 138.499 65.195 137.605C65.9568 139.792 66.2834 142.576 67.8071 144.167ZM64.8684 144.365C65.3038 144.465 65.6303 144.365 65.9568 144.167C65.3038 143.471 65.5215 141.979 64.5419 141.482C63.9977 142.377 65.3038 142.874 64.8684 144.365Z" fill="#99BCB8"/>
<path d="M120.812 129.949C120.486 129.551 120.703 129.551 120.594 129.054C120.486 128.656 120.486 128.656 120.377 128.159C120.268 127.761 120.486 127.563 120.159 127.264C119.941 127.065 119.833 127.364 119.506 127.364C119.18 127.463 119.18 127.463 118.853 127.463C118.526 127.563 118.526 127.662 118.2 127.563C117.982 127.463 118.2 127.364 118.091 127.165C118.091 126.966 118.091 126.966 117.982 126.767C117.982 126.568 117.765 126.568 117.873 126.369C118.091 126.171 118.2 126.27 118.526 126.27C118.853 126.171 118.853 126.171 119.18 126.171C119.506 126.071 119.615 126.27 119.833 126.071C120.05 125.872 119.724 125.773 119.724 125.574C119.615 125.276 119.615 125.276 119.615 125.077C119.615 124.878 119.724 124.679 119.506 124.58C119.288 124.48 119.18 124.679 118.853 124.679C118.526 124.779 118.526 124.779 118.2 124.779C117.873 124.779 117.873 124.978 117.547 124.878C117.329 124.779 117.547 124.679 117.438 124.48C117.438 124.282 117.438 124.282 117.329 124.083C117.329 123.884 117.112 123.884 117.22 123.685C117.438 123.486 117.547 123.586 117.873 123.586C118.2 123.486 118.2 123.486 118.526 123.486C118.853 123.486 119.071 123.685 119.18 123.387C119.288 122.492 118.962 122.492 118.744 121.597C118.526 120.702 118.526 120.702 118.309 119.807C118.091 118.913 117.329 118.813 117.873 118.018C118.309 117.322 118.744 117.819 119.615 117.62C120.486 117.421 120.486 117.421 121.356 117.222C122.227 117.023 122.227 117.023 123.098 116.825C123.86 116.626 124.513 116.626 125.166 116.725C125.928 116.825 126.581 117.123 127.016 117.521C127.451 117.918 127.778 118.515 127.996 119.211C128.213 119.907 128.104 120.503 127.887 121.1C127.669 121.696 127.234 122.194 126.581 122.591C126.036 122.89 125.383 123.188 124.622 123.387C123.968 123.486 123.968 123.486 123.315 123.685C122.662 123.784 122.662 123.784 122.009 123.983C121.356 124.083 121.247 123.884 120.703 124.282C120.486 124.48 120.812 124.58 120.812 124.779C120.921 125.077 120.921 125.077 120.921 125.276C120.921 125.475 120.703 125.773 121.03 125.773C121.901 125.872 121.901 125.574 122.88 125.375C123.751 125.176 123.751 125.176 124.73 124.978C125.601 124.779 125.601 124.58 126.581 124.58C126.798 124.58 126.581 124.779 126.689 124.978C126.689 125.176 126.689 125.176 126.798 125.375C126.907 125.574 127.016 125.674 126.907 125.773C126.036 126.171 126.036 125.972 125.057 126.171C124.186 126.369 124.186 126.369 123.207 126.568C122.336 126.767 122.118 126.369 121.356 126.966C121.03 127.264 121.465 127.364 121.574 127.861C121.683 128.259 121.683 128.259 121.792 128.756C121.901 129.253 122.118 129.153 122.009 129.651C122.009 129.849 121.792 129.651 121.574 129.75C121.356 129.75 121.356 129.75 121.139 129.849C121.03 129.949 120.921 130.148 120.812 129.949ZM120.594 123.287C121.03 123.685 121.247 123.188 121.792 122.989C122.445 122.89 122.445 122.89 122.989 122.691C123.642 122.591 123.642 122.591 124.186 122.392C124.73 122.293 125.166 122.094 125.492 121.895C125.928 121.597 126.254 121.299 126.472 120.901C126.581 120.503 126.689 120.106 126.581 119.609C126.472 119.111 126.254 118.714 125.928 118.415C125.601 118.117 125.166 117.918 124.622 117.918C124.186 117.819 123.751 117.918 123.207 118.018C122.554 118.117 122.554 118.117 122.009 118.316C121.356 118.415 121.356 118.415 120.812 118.614C120.159 118.714 119.833 118.316 119.615 118.913C119.288 119.609 119.833 119.609 119.941 120.404C120.159 121.1 120.268 121.1 120.268 121.895C120.268 122.591 119.941 122.79 120.594 123.287Z" fill="#99BCB8"/>
<path d="M65.3039 91.4713C64.9774 91.0736 65.3039 90.9741 65.3039 90.5764C65.3039 90.0793 65.3039 90.0793 65.3039 89.6816C65.3039 89.1845 65.7392 89.1845 65.3039 88.7868C65.0862 88.5879 64.8685 88.7868 64.4332 88.7868C63.9978 88.7868 63.9978 88.7868 63.5624 88.7868C63.1271 88.7868 63.0182 88.8862 62.6917 88.7868C62.474 88.6874 62.6917 88.5879 62.6917 88.3891C62.6917 88.1902 62.6917 88.1902 62.6917 87.9914C62.6917 87.7925 62.474 87.6931 62.6917 87.5937C63.0182 87.4943 63.1271 87.5937 63.5624 87.5937C63.9978 87.5937 63.9978 87.5937 64.4332 87.5937C64.8685 87.5937 64.9774 87.7925 65.3039 87.5937C65.6304 87.3948 65.3039 87.2954 65.3039 87.0965C65.3039 86.7983 65.3039 86.7983 65.3039 86.5994C65.3039 86.3011 65.6304 86.2017 65.3039 86.1023C64.9774 85.9034 64.8685 86.1023 64.4332 86.1023C63.9978 86.1023 63.9978 86.1023 63.5624 86.1023C63.1271 86.1023 63.0182 86.2017 62.6917 86.1023C62.474 86.0029 62.6917 85.9034 62.6917 85.7046C62.6917 85.5057 62.6917 85.5057 62.6917 85.3069C62.6917 85.108 62.474 85.0086 62.6917 84.9092C63.0182 84.8098 63.1271 84.9092 63.5624 84.9092C63.9978 84.9092 63.9978 84.9092 64.4332 84.9092C64.8685 84.9092 65.195 85.2075 65.3039 84.9092C65.7392 84.0144 65.3039 84.0144 65.4127 83.0201C65.4127 82.1253 65.4127 82.1253 65.5216 81.131C65.5216 80.2362 64.6508 79.9379 65.6304 79.2419C66.5011 78.6454 66.8276 79.2419 68.1337 79.2419C69.3309 79.2419 69.3309 79.2419 70.637 79.2419C71.8343 79.2419 71.8343 79.2419 73.1403 79.2419C74.2287 79.2419 75.2083 79.3414 75.9702 79.6396C76.9497 79.9379 77.7116 80.3356 78.147 80.8328C78.5823 81.3299 78.9088 81.9264 78.8 82.6224C78.8 83.3184 78.4735 83.9149 77.9293 84.4121C77.3851 84.9092 76.6232 85.3069 75.6437 85.6052C74.7729 85.804 73.7934 85.9034 72.705 85.9034C71.8343 85.9034 71.8343 85.9034 70.8547 85.9034C69.984 85.9034 69.984 85.9034 69.0044 85.9034C68.1337 85.9034 68.0249 85.6052 67.1542 85.9034C66.8276 86.0029 67.1542 86.2017 67.1542 86.4006C67.1542 86.6989 67.1542 86.6989 67.1542 86.8977C67.1542 87.196 66.7188 87.3948 67.1542 87.3948C68.3514 87.6931 68.4602 87.3948 69.7663 87.3948C71.0724 87.3948 71.0724 87.3948 72.3785 87.3948C73.6845 87.3948 73.6845 87.196 74.9906 87.3948C75.2083 87.3948 74.9906 87.5937 74.9906 87.7925C74.9906 87.9914 74.9906 87.9914 74.9906 88.1902C74.9906 88.3891 75.2083 88.4885 74.9906 88.5879C73.6845 88.7868 73.6845 88.5879 72.3785 88.5879C71.0724 88.5879 71.0724 88.5879 69.7663 88.5879C68.4602 88.5879 68.3514 88.1902 67.1542 88.5879C66.5011 88.7868 67.1542 89.0851 67.1542 89.4828C67.1542 89.9799 67.1542 89.9799 67.1542 90.3776C67.1542 90.8747 67.4807 90.8747 67.1542 91.2724C67.0453 91.4713 66.8276 91.2724 66.5011 91.2724C66.1746 91.2724 66.1746 91.173 65.8481 91.2724C65.6304 91.5707 65.4127 91.6701 65.3039 91.4713ZM67.5895 85.0086C68.1337 85.5057 68.4602 85.0086 69.3309 85.0086C70.2017 85.0086 70.2017 85.0086 71.0724 85.0086C71.9431 85.0086 71.9431 85.0086 72.8138 85.0086C73.5757 85.0086 74.2287 85.0086 74.7729 84.8098C75.5348 84.6109 76.079 84.4121 76.4055 84.0144C76.732 83.7161 76.9497 83.219 76.9497 82.7218C76.9497 82.2247 76.8409 81.827 76.4055 81.4293C76.079 81.0316 75.5348 80.8327 74.8818 80.6339C74.3376 80.5345 73.6845 80.4351 72.9227 80.4351C72.0519 80.4351 72.0519 80.4351 71.1812 80.4351C70.3105 80.4351 70.3105 80.4351 69.4398 80.4351C68.5691 80.4351 68.2425 79.9379 67.6983 80.4351C66.9365 81.0316 67.6983 81.131 67.6983 81.9264C67.6983 82.7218 67.916 82.7218 67.6983 83.4178C67.3718 84.3126 66.8276 84.4121 67.5895 85.0086Z" fill="#99BCB8"/>
<path d="M90.6635 163.853C90.337 163.256 90.6635 163.256 90.6635 162.56C90.6635 161.964 90.6635 161.964 90.6635 161.268C90.6635 160.671 91.0989 160.572 90.6635 159.975C90.4458 159.677 90.2281 159.975 89.7928 159.975C89.3574 159.975 89.3574 159.975 88.922 159.975C88.4867 159.975 88.3779 160.174 88.0513 159.975C87.8337 159.876 88.0513 159.677 88.0513 159.478C88.0513 159.18 88.0513 159.18 88.0513 158.981C88.0513 158.683 87.8337 158.583 88.0513 158.484C88.3779 158.285 88.4867 158.484 88.922 158.484C89.3574 158.484 89.3574 158.484 89.7928 158.484C90.2281 158.484 90.337 158.782 90.6635 158.484C90.99 158.285 90.6635 158.086 90.6635 157.788C90.6635 157.39 90.6635 157.39 90.6635 157.092C90.6635 156.694 90.99 156.595 90.6635 156.396C90.337 156.098 90.2281 156.396 89.7928 156.396C89.3574 156.396 89.3574 156.396 88.922 156.396C88.4867 156.396 88.3779 156.595 88.0513 156.396C87.8337 156.297 88.0513 156.098 88.0513 155.899C88.0513 155.601 88.0513 155.601 88.0513 155.402C88.0513 155.103 87.8337 155.004 88.0513 154.905C88.3779 154.706 88.4867 154.905 88.922 154.905C89.3574 154.905 89.3574 154.905 89.7928 154.905C90.2281 154.905 90.5547 155.302 90.6635 154.905C91.0989 153.711 90.6635 153.612 90.7723 152.319C90.7723 151.027 90.7723 151.027 90.8812 149.734C90.8812 148.442 90.0104 148.144 90.99 147.149C91.8607 146.354 92.1872 147.149 93.4933 147.249C94.6906 147.249 94.6906 147.249 95.9966 147.348C97.1939 147.348 97.1939 147.348 98.5 147.448C99.5884 147.448 100.568 147.647 101.33 147.945C102.309 148.342 103.071 148.939 103.507 149.635C103.942 150.331 104.268 151.226 104.16 152.121C104.16 153.115 103.833 153.91 103.289 154.606C102.745 155.302 101.983 155.899 101.003 156.197C100.133 156.495 99.153 156.595 98.0646 156.595C97.1939 156.595 97.1939 156.595 96.2143 156.595C95.3436 156.595 95.3436 156.595 94.364 156.595C93.4933 156.595 93.3845 156.197 92.5138 156.595C92.1872 156.694 92.5138 156.992 92.5138 157.291C92.5138 157.688 92.5138 157.688 92.5138 157.987C92.5138 158.384 92.0784 158.583 92.5138 158.683C93.711 159.08 93.8198 158.683 95.1259 158.782C96.432 158.782 96.432 158.782 97.7381 158.882C99.0442 158.981 99.0442 158.683 100.35 158.981C100.568 159.08 100.35 159.279 100.35 159.478C100.35 159.776 100.35 159.776 100.35 159.975C100.35 160.274 100.568 160.472 100.35 160.472C99.0442 160.671 99.0442 160.472 97.7381 160.373C96.432 160.373 96.432 160.373 95.1259 160.274C93.8198 160.274 93.711 159.677 92.5138 160.174C91.8607 160.472 92.5138 160.771 92.5138 161.467C92.5138 162.063 92.5138 162.063 92.5138 162.759C92.5138 163.356 92.8403 163.455 92.5138 164.052C92.4049 164.35 92.1872 164.052 91.8607 164.052C91.5342 164.052 91.5342 163.952 91.2077 164.052C90.99 163.952 90.7723 164.151 90.6635 163.853ZM92.8403 154.905C93.3845 155.501 93.711 154.905 94.5817 154.905C95.4524 154.905 95.4524 154.905 96.3232 154.905C97.1939 154.905 97.1939 154.905 98.0646 154.905C98.8265 154.905 99.4795 154.805 100.024 154.706C100.786 154.507 101.33 154.109 101.656 153.711C101.983 153.214 102.201 152.717 102.201 152.021C102.201 151.325 102.092 150.729 101.656 150.232C101.33 149.734 100.786 149.337 100.133 149.138C99.5884 148.939 98.9353 148.84 98.1734 148.84C97.3027 148.84 97.3027 148.84 96.432 148.84C95.5613 148.84 95.5613 148.84 94.6906 148.84C93.8198 148.84 93.4933 148.144 92.9491 148.84C92.1872 149.635 92.9491 149.834 92.9491 150.928C92.9491 151.922 93.1668 152.021 92.9491 153.015C92.7314 153.91 92.1873 154.109 92.8403 154.905Z" fill="#99BCB8"/>
</svg>
