<svg width="161" height="156" viewBox="0 0 161 156" fill="none" xmlns="http://www.w3.org/2000/svg">
<path d="M10.7332 35.5022C9.11525 54.7149 10.0253 73.8265 9.11525 93.0393C8.60966 102.747 8.20518 112.555 8.3063 122.263C8.3063 124.285 6.58726 135.408 9.82309 135.914C12.9578 136.42 16.3959 135.914 19.5306 135.914C24.6877 135.813 29.8448 135.914 35.0019 136.015C45.5184 136.217 55.7315 138.442 65.9446 140.464C74.3375 142.183 82.1237 141.779 90.6178 140.869C99.1118 139.959 108.01 141.779 116.403 139.959C116.707 139.858 116.909 139.554 116.808 139.15C116.201 136.319 116.707 133.791 117.212 131.06C116.808 130.959 116.403 130.959 115.999 130.858C116.201 134.195 115.594 137.33 114.887 140.566C115.291 140.566 115.695 140.566 116.1 140.566C116.1 140.262 114.887 130.049 116.201 130.352C118.223 130.757 121.055 132.476 123.077 133.386C129.549 136.319 119.538 142.285 116.1 143.599C116.302 143.903 116.606 144.206 116.808 144.509C118.325 142.588 119.639 140.667 121.055 138.644C121.459 138.038 120.549 137.33 120.044 137.835C118.931 139.049 118.729 138.948 119.437 137.532C119.639 137.128 119.134 136.622 118.628 136.723C117.313 137.229 117.516 137.128 116.403 137.835C116.707 138.139 117.01 138.442 117.313 138.745C117.718 138.139 119.841 136.42 120.853 135.611C121.358 135.206 120.751 134.498 120.246 134.6C118.628 135.004 117.313 134.6 116.201 133.689C115.493 133.184 114.887 134.296 115.594 134.802C117.415 136.015 118.426 136.217 120.549 135.813C120.347 135.51 120.145 135.105 119.942 134.802C118.527 136.015 117.313 136.622 116.302 138.139C115.898 138.644 116.606 139.352 117.212 139.049C118.122 138.038 118.223 138.24 117.819 139.655C117.718 140.06 118.122 140.566 118.628 140.464C120.246 139.858 119.841 140.161 121.156 138.847C120.853 138.543 120.448 138.341 120.145 138.038C118.729 139.959 117.313 141.981 115.898 143.903C115.594 144.307 116.1 145.015 116.606 144.813C119.639 143.7 127.628 139.352 127.729 135.51C127.83 132.678 116.909 128.735 114.684 129.038C114.28 129.139 114.179 129.544 114.28 129.847C114.785 133.487 114.583 137.229 115.19 140.97C115.291 141.577 116.302 141.577 116.403 140.97C117.111 137.633 117.718 134.397 117.617 130.959C117.617 130.251 116.504 130.049 116.403 130.757C115.898 133.083 115.19 135.813 115.695 138.139C116.1 139.858 104.876 139.352 103.662 139.352C95.2693 139.453 86.8763 140.667 78.5845 140.566C69.3826 140.464 60.2818 137.734 51.2822 136.217C42.1814 134.701 33.0806 134.498 23.8787 134.6C21.6541 134.6 10.2276 136.217 10.0253 132.678C9.72197 128.633 10.0253 124.386 10.0253 120.241C9.92421 110.533 10.4298 100.724 10.9354 91.0169C11.8455 72.4109 10.9354 53.906 12.4522 35.401C12.0477 34.6932 10.8343 34.6932 10.7332 35.5022Z" fill="#AEC2D6"/>
<path d="M8.50863 31.1539C7.69968 33.4797 6.89072 35.7043 6.68848 38.1312C6.68848 38.7379 7.59855 38.9401 7.90191 38.4345C9.82319 35.0976 10.2277 30.8506 12.7557 27.9181C12.4523 27.9181 12.0478 27.817 11.7445 27.817C12.6545 29.0304 12.8568 30.5472 13.3624 32.064C13.7669 33.1763 14.5758 34.0864 15.1825 34.9965C16.1937 36.4122 17.2049 38.3334 14.7781 38.839C13.5646 39.1424 12.0478 38.9401 11.0366 38.4345C11.1377 38.6368 11.2389 38.9401 11.34 39.1424C11.7445 38.1312 12.4523 37.4234 13.1601 36.6144C13.5646 36.1088 13.059 35.1987 12.3512 35.6032C12.1489 35.7043 11.9467 35.8054 11.7445 35.9066C12.0478 36.0077 12.3512 36.1088 12.6545 36.1088C12.1489 35.1987 11.9467 34.3898 11.2389 33.5808C10.7333 32.9741 9.82319 33.8842 10.3288 34.4909C10.531 34.7942 11.2389 36.2099 11.5422 36.7155C11.7445 37.0189 12.1489 37.12 12.4523 36.9178C12.6545 36.8166 12.8568 36.7155 13.059 36.6144C12.7557 36.311 12.5534 35.9066 12.2501 35.6032C11.4411 36.6144 10.6321 37.4234 10.1265 38.6368C10.0254 38.839 10.2277 39.2435 10.4299 39.3446C12.2501 40.1536 16.6993 40.7603 17.6094 38.3334C18.2161 36.6144 16.9016 34.9965 15.9915 33.6819C15.1825 32.5696 14.5758 31.5584 14.1713 30.2438C13.868 29.0304 13.5646 28.0192 12.8568 27.008C12.6545 26.7047 12.1489 26.5024 11.8456 26.9069C9.21647 29.9405 8.81199 34.1875 6.7896 37.6256C7.19408 37.7267 7.59856 37.8278 8.00303 37.9289C8.10415 35.6032 9.01423 33.4797 9.72207 31.255C10.0254 30.6483 8.81199 30.345 8.50863 31.1539Z" fill="#AEC2D6"/>
<path d="M21.4524 123.982C20.4412 117.915 20.4412 112.859 22.1602 106.893C22.3624 106.286 23.4748 100.826 24.1826 100.927C26.7106 101.129 29.8453 101.23 29.8453 104.871C29.8453 108.612 30.5531 112.556 31.0587 116.297C31.4632 119.23 32.6767 122.769 27.4184 123.578C24.9916 123.982 22.6658 124.791 20.2389 125.398C19.43 125.6 19.7333 126.814 20.5423 126.611C23.3736 126.005 26.0027 125.095 28.8341 124.69C29.7442 124.589 30.8565 124.286 31.5643 123.578C33.8901 121.252 32.1711 115.994 31.8677 113.365C31.5643 110.533 31.0587 107.803 31.0587 104.972C31.0587 104.062 31.261 102.242 30.6543 101.331C28.9352 98.9046 25.8005 99.9158 23.1714 99.7136C22.868 99.7136 22.6658 99.9158 22.5647 100.219C21.7557 104.062 20.0367 107.904 19.5311 111.848C19.0255 116.095 19.43 120.241 20.1378 124.488C20.34 125.095 21.5535 124.791 21.4524 123.982Z" fill="#AEC2D6"/>
<path d="M36.2157 123.679C36.3169 113.466 34.9012 103.354 34.5978 93.2417C34.4967 88.8936 34.3956 84.0398 35.2045 79.7928C35.7101 77.3659 38.2381 77.1637 40.1594 76.6581C43.6986 75.8491 44.6087 78.4783 44.8109 81.4107C45.3165 89.3992 45.3165 97.3876 45.9232 105.275C46.2266 109.219 46.7322 113.162 46.9344 117.106C47.2378 122.263 39.4516 121.96 36.1146 123.274C35.4068 123.578 35.7101 124.791 36.418 124.488C39.7549 123.173 45.6199 124.184 47.7434 120.949C49.8669 117.713 47.44 110.735 47.3389 107.196C47.0355 100.32 45.8221 93.5451 46.0243 86.6689C46.1255 83.2309 46.5299 79.4894 45.0131 76.3547C43.9008 74.1301 40.4628 75.2424 38.7437 75.6469C35.8113 76.3547 34.0922 77.5682 33.7889 80.7029C32.3732 95.0619 35.1034 109.32 34.9012 123.578C34.9012 124.488 36.1146 124.488 36.2157 123.679Z" fill="#AEC2D6"/>
<path d="M52.6984 94.0508C53.0017 102.444 53.9118 111.747 52.6984 120.039C53.1028 120.14 53.5073 120.14 53.9118 120.241C54.5185 114.881 54.5185 109.522 54.5185 104.062C54.5185 101.129 54.3163 97.8933 54.8219 95.062C55.2264 92.3317 63.0126 96.2754 63.0126 98.0956C63.1137 103.152 62.9115 108.208 63.2148 113.365C63.4171 116.196 63.5182 119.027 63.6193 121.96C63.7204 125.196 55.2264 124.69 53.8107 124.184C53.0017 123.881 52.6984 125.095 53.5073 125.398C55.8331 126.207 59.7767 126.308 62.2036 125.802C64.5294 125.398 64.9339 124.184 64.9339 121.96C64.9339 116.702 64.4282 111.544 64.1249 106.286C64.0238 103.556 65.3383 98.6012 63.7204 96.2754C62.6081 94.6575 55.4286 91.1183 53.9118 93.7474C52.4961 96.1743 53.4062 101.433 53.3051 104.062C53.204 109.522 53.3051 114.78 52.6984 120.241C52.5972 120.949 53.8107 121.151 53.9118 120.443C55.1252 111.949 54.2152 102.646 53.9118 94.1519C53.9118 93.2418 52.6984 93.2418 52.6984 94.0508Z" fill="#AEC2D6"/>
<path d="M70.6972 111.039C70.5961 115.185 70.8995 119.432 70.1917 123.577C70.5961 123.577 71.0006 123.577 71.4051 123.577C70.6973 118.825 70.1917 113.769 71.304 109.016C71.0006 109.117 70.5961 109.218 70.2928 109.32C71.2029 110.23 72.3152 111.848 73.7308 111.949C75.8544 112.151 76.8656 110.735 78.5846 109.825C78.2812 109.724 77.9779 109.623 77.6745 109.421C78.7868 113.567 78.5846 117.814 78.4835 122.061C78.4835 123.679 78.9891 124.892 76.9667 125.398C75.2476 125.802 73.023 125.6 71.4051 125.094C70.5961 124.791 70.2928 126.004 71.1017 126.308C72.9219 126.914 78.9891 127.824 79.6969 124.993C80.3036 122.971 79.6969 119.937 79.798 117.713C79.798 114.78 79.6969 111.949 78.888 109.117C78.7868 108.713 78.2812 108.511 77.9779 108.713C77.0678 109.218 76.36 109.825 75.551 110.331C73.7308 111.645 72.3152 109.421 71.304 108.409C71.0006 108.106 70.3939 108.207 70.2928 108.713C69.0793 113.668 69.6861 118.926 70.3939 123.881C70.495 124.488 71.5062 124.488 71.6073 123.881C72.3152 119.634 72.1129 115.286 72.214 111.039C72.0118 110.23 70.6972 110.23 70.6972 111.039Z" fill="#AEC2D6"/>
<path d="M84.8537 122.061C84.9548 117.308 84.8537 112.657 84.3481 107.904C84.1458 106.286 83.8425 104.668 83.5391 102.949C83.2358 101.432 83.0335 99.8145 83.0335 98.2977C84.5503 94.7585 86.2694 94.5563 87.9884 97.5899C89.2018 103.05 89.2018 108.814 89.8085 114.376C90.0108 116.297 90.3141 118.218 90.5164 120.14C90.7186 121.252 90.9209 122.465 91.022 123.578C89.5052 126.409 87.4828 127.42 85.0559 126.611C84.247 126.409 83.9436 127.622 84.7526 127.825C89.1007 129.139 92.6399 126.915 92.2354 122.364C91.8309 117.814 90.9209 113.263 90.6175 108.713C90.3141 104.871 90.5164 99.41 88.8985 95.8709C87.9884 93.7473 83.0335 93.2417 82.2246 95.7697C81.3145 98.8033 82.1234 101.938 82.629 104.871C83.6402 110.533 83.7414 116.297 83.5391 122.061C83.5391 122.87 84.8537 122.87 84.8537 122.061Z" fill="#AEC2D6"/>
<path d="M95.6742 123.173C95.2697 114.78 94.8652 106.387 93.6518 98.0954C93.1462 94.8595 92.7417 91.9271 94.5619 88.9946C95.5731 87.4778 96.5843 86.3655 97.4943 84.7476C98.4044 83.1296 98.91 81.2084 99.719 79.4893C100.629 77.5681 101.337 84.242 101.337 84.7476C101.741 93.545 102.854 102.342 103.562 111.14C103.865 114.578 104.573 117.915 104.876 121.252C105.281 126.712 98.8089 125.802 95.472 125.499C94.663 125.398 94.663 126.712 95.472 126.712C98.1011 126.914 102.146 127.622 104.472 125.802C107.404 123.476 105.988 119.027 105.483 115.892C104.067 107.803 103.663 99.3088 102.854 91.1181C102.348 86.3655 103.258 81.2084 101.135 76.7591C100.932 76.3546 100.427 76.3546 100.123 76.658C98 79.0849 97.2921 82.2196 95.7753 85.0509C94.1574 88.1856 91.8316 89.7024 91.8316 93.4439C91.7305 97.792 92.944 102.241 93.3484 106.488C93.854 111.949 94.1574 117.51 94.3596 122.971C94.4608 123.982 95.6742 123.982 95.6742 123.173Z" fill="#AEC2D6"/>
<path d="M19.1261 81.5118C21.8564 75.5457 24.1821 69.2763 26.9123 63.3103C28.1258 60.58 30.2493 58.4565 31.5639 55.8274C34.9008 49.0524 42.5859 50.5692 47.1363 55.1196C49.3609 57.3442 51.7878 59.1644 54.0124 61.389C56.2371 63.7147 58.0572 66.3439 60.2819 68.6696C62.7087 71.1976 65.3378 73.4222 67.967 75.748C70.2927 77.8715 72.0118 80.5006 74.5397 82.4219C82.2248 88.5902 88.0898 70.9954 90.2133 66.8495C93.5503 60.2767 97.2917 54.0072 101.336 47.8389C103.056 45.1087 108.213 40.8617 105.988 37.4236C105.179 36.1091 102.954 35.0979 101.741 34.1878C96.685 30.6486 103.056 30.0419 105.685 29.7385C108.92 29.2329 111.954 28.1206 114.988 27.2105C116.403 26.806 117.617 26.4016 118.931 25.896C120.853 25.087 120.448 28.6262 120.448 29.334C120.65 34.8956 122.268 41.0639 123.684 46.4233C123.886 47.3333 126.414 52.2882 124.796 51.7826C122.572 51.1759 120.448 49.7602 118.426 48.5468C117.516 48.0412 113.572 44.0975 112.257 45.5132C110.842 47.03 110.134 49.1535 109.123 50.8725C107.303 54.3106 104.977 57.2431 102.752 60.3778C98.9096 65.8383 95.5727 71.8043 91.8312 77.3659C90.82 78.8827 79.3935 95.4663 76.1577 92.9383C74.1353 91.4215 73.6297 88.5902 71.405 87.1745C68.2703 85.1521 66.1468 82.4219 63.2143 80.2984C61.3942 78.8827 59.2707 78.276 57.6528 76.5569C56.2371 75.0402 55.0236 73.3211 53.608 71.8043C50.6755 68.5685 47.8441 65.7371 45.1139 62.1979C42.2825 58.5576 39.0467 56.8386 36.1142 61.1867C33.8896 64.5237 32.3728 68.5685 30.1482 72.1077C28.9347 74.029 27.8224 76.0513 26.609 77.9726C26.1034 78.6805 21.8564 88.0846 19.6317 81.9163C19.3284 81.1073 18.1149 81.5118 18.4183 82.2197C21.8564 92.1294 28.6314 77.0625 30.3504 74.1301C31.665 71.8043 33.1818 69.5797 34.5974 67.3551C36.4176 64.5237 38.3389 56.8386 43.1926 61.9957C45.3161 64.2203 46.8329 66.9506 49.0576 69.2763C51.2822 71.6021 53.5068 73.7256 55.5292 76.2536C56.8438 77.8715 58.1583 79.1861 60.0796 80.0961C63.0121 81.7141 64.8322 83.7365 67.158 85.9611C69.3826 88.0846 71.6073 89.0958 73.4274 91.826C74.0341 92.8372 75.0453 94.1518 76.1577 94.6574C79.4946 95.9719 81.0114 92.8372 82.5282 90.3092C83.9439 87.8824 86.7752 86.2644 88.4943 84.0398C90.7189 81.1073 92.7413 77.9726 94.7637 74.939C98.404 69.4786 101.438 63.7147 105.482 58.5576C107.201 56.333 108.617 53.9061 109.932 51.4793C110.639 50.1647 111.954 46.221 113.572 47.1311C114.684 47.8389 126.819 55.9285 126.819 51.8837C126.819 50.7714 126.212 49.7602 125.807 48.749C124.392 45.7154 123.886 42.5807 123.279 39.3449C122.673 36.0079 121.763 32.5699 121.459 29.1318C121.358 27.7161 121.459 26.1993 121.055 24.8848C120.347 22.7612 113.471 25.9971 112.561 26.3004C107.707 27.7161 101.539 27.8172 97.1906 30.5475C96.8872 30.7497 96.7861 31.1542 96.9883 31.4575C97.9995 32.9743 99.3141 34.0867 100.73 35.199C102.145 36.2102 105.887 38.0303 104.37 40.6594C103.662 41.8729 102.651 42.9852 101.842 44.1986C97.3928 50.6703 93.348 57.5464 89.7077 64.5237C86.6741 70.0853 84.6517 77.9726 79.2924 81.9163C75.8543 84.3432 71.2028 77.6693 69.3826 75.748C66.8546 72.9166 63.7199 70.4898 60.8886 67.7595C58.5628 65.5349 56.7427 62.9058 54.6192 60.4789C52.5968 58.1532 49.9676 56.4341 47.743 54.2095C44.4061 50.7714 39.8557 49.0524 35.103 50.0636C33.7885 50.3669 32.1706 51.6815 31.4627 52.7938C29.7437 55.6252 28.1258 58.5576 26.2045 61.2879C24.4855 63.8159 23.5754 67.1528 22.4631 69.883C20.8452 73.5234 19.4295 77.1637 17.7104 80.804C17.7104 81.6129 18.8228 82.2197 19.1261 81.5118Z" fill="#AEC2D6"/>
<path d="M141.279 90.5116C142.088 90.5116 142.088 89.2982 141.279 89.2982C140.47 89.2982 140.47 90.5116 141.279 90.5116Z" fill="#AEC2D6"/>
<path d="M147.245 57.5463C136.122 60.2765 127.122 68.6694 116.404 72.4109C116.606 72.7142 116.808 73.1187 117.01 73.4221C120.853 69.2762 127.931 67.456 132.987 65.2314C139.863 62.1978 146.537 58.9619 153.818 56.9395C153.616 56.6362 153.413 56.2317 153.211 55.9283C148.459 59.7709 142.493 61.2877 137.234 64.3213C132.077 67.3549 127.527 71.1974 122.066 73.7254C122.269 74.1299 122.471 74.4333 122.673 74.8377C125.707 72.8153 128.943 71.0963 132.279 69.4784C133.594 68.8717 142.088 64.5235 138.246 68.265C137.639 68.8717 138.549 69.6806 139.156 69.175C140.369 67.9616 141.279 67.0515 142.088 65.6358C142.29 65.2314 141.987 64.6246 141.582 64.7258C135.01 65.1302 127.426 70.2873 122.066 73.8265C121.359 74.3321 121.965 75.2422 122.673 74.9389C128.639 72.3097 133.594 68.0627 139.257 64.8269C144.11 61.9955 149.571 60.5799 154.121 57.0407C154.627 56.6362 154.02 55.8272 153.515 56.0295C146.74 57.8496 140.47 60.7821 134.1 63.6134C128.437 66.1414 120.448 68.0627 116.1 72.8153C115.696 73.2198 116.1 74.1299 116.707 73.8265C127.426 70.1862 136.526 61.6922 147.549 58.9619C148.459 58.5575 148.054 57.344 147.245 57.5463Z" fill="#AEC2D6"/>
</svg>
